<?xml version="1.0" encoding="UTF-8" standalone="no"?>
<!-- Created with Inkscape (http://www.inkscape.org/) -->

<svg
   xmlns:dc="http://purl.org/dc/elements/1.1/"
   xmlns:cc="http://creativecommons.org/ns#"
   xmlns:rdf="http://www.w3.org/1999/02/22-rdf-syntax-ns#"
   xmlns:svg="http://www.w3.org/2000/svg"
   xmlns="http://www.w3.org/2000/svg"
   xmlns:sodipodi="http://sodipodi.sourceforge.net/DTD/sodipodi-0.dtd"
   xmlns:inkscape="http://www.inkscape.org/namespaces/inkscape"
   id="svg4865"
   version="1.1"
   inkscape:version="0.92.1 r"
   width="638.3985"
   height="311.61514"
   viewBox="0 0 598.4986 292.13919"
   sodipodi:docname="component_openshift_deployment_backup.svg"
   inkscape:export-filename="/home/celebdor/Pictures/openshift_component_deployment.png"
   inkscape:export-xdpi="332.78275"
   inkscape:export-ydpi="332.78275">
  <metadata
     id="metadata4871">
    <rdf:RDF>
      <cc:Work
         rdf:about="">
        <dc:format>image/svg+xml</dc:format>
        <dc:type
           rdf:resource="http://purl.org/dc/dcmitype/StillImage" />
        <dc:title />
      </cc:Work>
    </rdf:RDF>
  </metadata>
  <defs
     id="defs4869" />
  <sodipodi:namedview
     pagecolor="#ffffff"
     bordercolor="#666666"
     borderopacity="1"
     objecttolerance="10"
     gridtolerance="10"
     guidetolerance="10"
     inkscape:pageopacity="0"
     inkscape:pageshadow="2"
     inkscape:window-width="1920"
     inkscape:window-height="1027"
     id="namedview4867"
     showgrid="false"
     inkscape:zoom="2"
     inkscape:cx="305.04208"
     inkscape:cy="155.49716"
     inkscape:window-x="0"
     inkscape:window-y="27"
     inkscape:window-maximized="1"
     inkscape:current-layer="svg4865"
     fit-margin-top="5"
     fit-margin-left="5"
     fit-margin-right="5"
     fit-margin-bottom="5" />
  <rect
     style="fill:none;fill-opacity:1;stroke:#000000;stroke-width:2;stroke-miterlimit:4;stroke-dasharray:none;stroke-dashoffset:0;stroke-opacity:1"
     id="rect4875-6"
     width="56.974342"
     height="38.956814"
     x="266.73578"
     y="152.83511"
     ry="2.3896999" />
  <g
     id="g5962"
     transform="translate(-452.16841,-110.22833)">
    <rect
       ry="2.3896999"
       y="199.18002"
       x="589.16968"
       height="169.46214"
       width="319.44589"
       id="rect5605"
       style="fill:#cfd8dc;fill-opacity:1;stroke:#000000;stroke-width:2;stroke-miterlimit:4;stroke-dasharray:none;stroke-dashoffset:0;stroke-opacity:1" />
    <text
       id="text4943-6"
       y="219.63525"
       x="697.31122"
       style="font-style:normal;font-weight:normal;line-height:0%;font-family:sans-serif;letter-spacing:0px;word-spacing:0px;fill:#000000;fill-opacity:1;stroke:none;stroke-width:1px;stroke-linecap:butt;stroke-linejoin:miter;stroke-opacity:1"
       xml:space="preserve"><tspan
         style="font-style:normal;font-variant:normal;font-weight:bold;font-stretch:normal;font-size:17.5px;line-height:1.25;font-family:Roboto;-inkscape-font-specification:Roboto"
         y="219.63525"
         x="697.31122"
         id="tspan4945-1"
         sodipodi:role="line">Worker node</tspan></text>
  </g>
  <g
     id="g5736"
     transform="translate(-452.65454,-110.22833)">
    <g
       id="g5702">
      <rect
         style="fill:#4caf50;fill-opacity:1;stroke:#000000;stroke-width:2;stroke-miterlimit:4;stroke-dasharray:none;stroke-dashoffset:0;stroke-opacity:1"
         id="rect4875-62"
         width="93.473633"
         height="279.98984"
         x="458.65454"
         y="116.37767"
         ry="2.3896999" />
      <text
         xml:space="preserve"
         style="font-style:normal;font-weight:normal;line-height:0%;font-family:sans-serif;letter-spacing:0px;word-spacing:0px;fill:#000000;fill-opacity:1;stroke:none;stroke-width:1px;stroke-linecap:butt;stroke-linejoin:miter;stroke-opacity:1"
         x="473.61707"
         y="133.44574"
         id="text4943"><tspan
           sodipodi:role="line"
           id="tspan4945"
           x="473.61707"
           y="133.44574"
           style="font-style:normal;font-variant:normal;font-weight:bold;font-stretch:normal;font-size:17.5px;line-height:1.25;font-family:Roboto;-inkscape-font-specification:Roboto">Neutron</tspan></text>
    </g>
    <g
       transform="translate(92.470278,-29.165452)"
       id="g5056">
      <rect
         style="fill:#fafafa;fill-opacity:1;stroke:#000000;stroke-width:2;stroke-miterlimit:4;stroke-dasharray:none;stroke-dashoffset:0;stroke-opacity:1"
         id="rect4875-2"
         width="72.813637"
         height="17.952511"
         x="376.51425"
         y="172.40108"
         ry="2.3896999" />
      <text
         xml:space="preserve"
         style="font-style:normal;font-weight:normal;line-height:0%;font-family:sans-serif;letter-spacing:0px;word-spacing:0px;fill:#000000;fill-opacity:1;stroke:none;stroke-width:1px;stroke-linecap:butt;stroke-linejoin:miter;stroke-opacity:1"
         x="400.55841"
         y="185.75966"
         id="text4943-3"><tspan
           sodipodi:role="line"
           id="tspan4945-6"
           x="400.55841"
           y="185.75966"
           style="font-style:normal;font-variant:normal;font-weight:bold;font-stretch:normal;font-size:12.5px;line-height:1.25;font-family:Roboto;-inkscape-font-specification:Roboto">Port</tspan></text>
    </g>
    <g
       transform="translate(92.470278,-34.065019)"
       id="g5061">
      <rect
         style="fill:#fafafa;fill-opacity:1;stroke:#000000;stroke-width:2;stroke-miterlimit:4;stroke-dasharray:none;stroke-dashoffset:0;stroke-opacity:1"
         id="rect4875-2-7"
         width="72.813637"
         height="17.952511"
         x="376.51425"
         y="200.23466"
         ry="2.3896999" />
      <text
         xml:space="preserve"
         style="font-style:normal;font-weight:normal;line-height:0%;font-family:sans-serif;letter-spacing:0px;word-spacing:0px;fill:#000000;fill-opacity:1;stroke:none;stroke-width:1px;stroke-linecap:butt;stroke-linejoin:miter;stroke-opacity:1"
         x="388.79999"
         y="213.83739"
         id="text4943-3-0"><tspan
           sodipodi:role="line"
           id="tspan4945-6-6"
           x="388.79999"
           y="213.83739"
           style="font-style:normal;font-variant:normal;font-weight:bold;font-stretch:normal;font-size:12.5px;line-height:1.25;font-family:Roboto;-inkscape-font-specification:Roboto">Network</tspan></text>
    </g>
    <g
       transform="translate(92.470278,-38.964555)"
       id="g5066">
      <rect
         style="fill:#fafafa;fill-opacity:1;stroke:#000000;stroke-width:2;stroke-miterlimit:4;stroke-dasharray:none;stroke-dashoffset:0;stroke-opacity:1"
         id="rect4875-2-0"
         width="72.813637"
         height="17.952511"
         x="376.51425"
         y="228.06822"
         ry="2.3896999" />
      <text
         xml:space="preserve"
         style="font-style:normal;font-weight:normal;line-height:0%;font-family:sans-serif;letter-spacing:0px;word-spacing:0px;fill:#000000;fill-opacity:1;stroke:none;stroke-width:1px;stroke-linecap:butt;stroke-linejoin:miter;stroke-opacity:1"
         x="392.96869"
         y="241.67094"
         id="text4943-3-2"><tspan
           sodipodi:role="line"
           id="tspan4945-6-61"
           x="392.96869"
           y="241.67094"
           style="font-style:normal;font-variant:normal;font-weight:bold;font-stretch:normal;font-size:12.5px;line-height:1.25;font-family:Roboto;-inkscape-font-specification:Roboto">Subnet</tspan></text>
    </g>
    <g
       transform="translate(92.470278,-43.864152)"
       id="g5071">
      <rect
         style="fill:#fafafa;fill-opacity:1;stroke:#000000;stroke-width:2;stroke-miterlimit:4;stroke-dasharray:none;stroke-dashoffset:0;stroke-opacity:1"
         id="rect4875-2-9"
         width="72.813637"
         height="17.952511"
         x="376.51425"
         y="255.90179"
         ry="2.3896999" />
      <text
         xml:space="preserve"
         style="font-style:normal;font-weight:normal;line-height:0%;font-family:sans-serif;letter-spacing:0px;word-spacing:0px;fill:#000000;fill-opacity:1;stroke:none;stroke-width:1px;stroke-linecap:butt;stroke-linejoin:miter;stroke-opacity:1"
         x="393.78961"
         y="269.26038"
         id="text4943-3-8"><tspan
           sodipodi:role="line"
           id="tspan4945-6-7"
           x="393.78961"
           y="269.26038"
           style="font-style:normal;font-variant:normal;font-weight:bold;font-stretch:normal;font-size:12.5px;line-height:1.25;font-family:Roboto;-inkscape-font-specification:Roboto">Router</tspan></text>
    </g>
    <g
       transform="translate(92.470278,-45.722099)"
       id="g5159">
      <rect
         style="fill:#fafafa;fill-opacity:1;stroke:#000000;stroke-width:2;stroke-miterlimit:4;stroke-dasharray:none;stroke-dashoffset:0;stroke-opacity:1"
         id="rect4875-2-9-9"
         width="72.813637"
         height="17.952511"
         x="376.51425"
         y="280.69376"
         ry="2.3896999" />
      <text
         id="text4943-3-8-2"
         y="294.11337"
         x="403.19208"
         style="font-style:normal;font-weight:normal;line-height:0%;font-family:sans-serif;letter-spacing:0px;word-spacing:0px;fill:#000000;fill-opacity:1;stroke:none;stroke-width:1px;stroke-linecap:butt;stroke-linejoin:miter;stroke-opacity:1"
         xml:space="preserve"><tspan
           style="font-style:normal;font-variant:normal;font-weight:bold;font-stretch:normal;font-size:12.5px;line-height:1.25;font-family:Roboto;-inkscape-font-specification:Roboto"
           y="294.11337"
           x="403.19208"
           id="tspan4945-6-7-0"
           sodipodi:role="line">VIP</tspan></text>
    </g>
    <g
       id="g5713">
      <g
         id="g5707">
        <rect
           ry="2.3896999"
           y="259.04907"
           x="468.87549"
           height="130.0403"
           width="72.843231"
           id="rect4875-62-3"
           style="fill:#81c784;fill-opacity:1;stroke:#000000;stroke-width:2;stroke-miterlimit:4;stroke-dasharray:none;stroke-dashoffset:0;stroke-opacity:1" />
        <text
           id="text4943-7"
           y="273.99991"
           x="505.20737"
           style="font-style:normal;font-weight:normal;line-height:0%;font-family:sans-serif;letter-spacing:0px;word-spacing:0px;fill:#000000;fill-opacity:1;stroke:none;stroke-width:1px;stroke-linecap:butt;stroke-linejoin:miter;stroke-opacity:1"
           xml:space="preserve"><tspan
             style="font-style:normal;font-variant:normal;font-weight:bold;font-stretch:normal;font-size:17.5px;line-height:100%;font-family:Roboto;-inkscape-font-specification:Roboto;text-align:center;text-anchor:middle"
             y="273.99991"
             x="505.20737"
             id="tspan4945-5"
             sodipodi:role="line">Neutron</tspan><tspan
             id="tspan5142"
             style="font-style:normal;font-variant:normal;font-weight:bold;font-stretch:normal;font-size:17.5px;line-height:100%;font-family:Roboto;-inkscape-font-specification:Roboto;text-align:center;text-anchor:middle"
             y="291.49991"
             x="505.20737"
             sodipodi:role="line">lbaasv2</tspan></text>
      </g>
      <g
         id="g5191"
         transform="translate(78.765798,-31.949235)">
        <rect
           ry="2.3896999"
           y="353.06903"
           x="395.71991"
           height="17.952484"
           width="61.622799"
           id="rect4875-2-9-9-2"
           style="fill:#fafafa;fill-opacity:1;stroke:#000000;stroke-width:2;stroke-miterlimit:4;stroke-dasharray:none;stroke-dashoffset:0;stroke-opacity:1" />
        <text
           xml:space="preserve"
           style="font-style:normal;font-weight:normal;line-height:0%;font-family:sans-serif;letter-spacing:0px;word-spacing:0px;fill:#000000;fill-opacity:1;stroke:none;stroke-width:1px;stroke-linecap:butt;stroke-linejoin:miter;stroke-opacity:1"
           x="403.29828"
           y="366.59543"
           id="text4943-3-8-2-8"><tspan
             sodipodi:role="line"
             id="tspan4945-6-7-0-9"
             x="403.29828"
             y="366.59543"
             style="font-style:normal;font-variant:normal;font-weight:bold;font-stretch:normal;font-size:12.5px;line-height:1.25;font-family:Roboto;-inkscape-font-specification:Roboto">Listener</tspan></text>
      </g>
      <g
         id="g5223"
         transform="translate(96.032398,-30.527329)">
        <rect
           ry="2.3896999"
           y="373.53754"
           x="378.45331"
           height="17.952484"
           width="61.622799"
           id="rect4875-2-9-9-2-3"
           style="fill:#fafafa;fill-opacity:1;stroke:#000000;stroke-width:2;stroke-miterlimit:4;stroke-dasharray:none;stroke-dashoffset:0;stroke-opacity:1" />
        <text
           xml:space="preserve"
           style="font-style:normal;font-weight:normal;line-height:0%;font-family:sans-serif;letter-spacing:0px;word-spacing:0px;fill:#000000;fill-opacity:1;stroke:none;stroke-width:1px;stroke-linecap:butt;stroke-linejoin:miter;stroke-opacity:1"
           x="396.52667"
           y="387.14026"
           id="text4943-3-8-2-8-6"><tspan
             sodipodi:role="line"
             id="tspan4945-6-7-0-9-1"
             x="396.52667"
             y="387.14026"
             style="font-style:normal;font-variant:normal;font-weight:bold;font-stretch:normal;font-size:12.5px;line-height:1.25;font-family:Roboto;-inkscape-font-specification:Roboto">Pool</tspan></text>
      </g>
      <g
         id="g5255"
         transform="translate(84.244528,-31.722124)">
        <rect
           ry="2.3896999"
           y="396.62274"
           x="390.24118"
           height="17.952484"
           width="61.622799"
           id="rect4875-2-9-9-2-3-9"
           style="fill:#fafafa;fill-opacity:1;stroke:#000000;stroke-width:2;stroke-miterlimit:4;stroke-dasharray:none;stroke-dashoffset:0;stroke-opacity:1" />
        <text
           xml:space="preserve"
           style="font-style:normal;font-weight:normal;line-height:0%;font-family:sans-serif;letter-spacing:0px;word-spacing:0px;fill:#000000;fill-opacity:1;stroke:none;stroke-width:1px;stroke-linecap:butt;stroke-linejoin:miter;stroke-opacity:1"
           x="397.28244"
           y="410.22546"
           id="text4943-3-8-2-8-6-3"><tspan
             sodipodi:role="line"
             id="tspan4945-6-7-0-9-1-1"
             x="397.28244"
             y="410.22546"
             style="font-style:normal;font-variant:normal;font-weight:bold;font-stretch:normal;font-size:12.5px;line-height:1.25;font-family:Roboto;-inkscape-font-specification:Roboto">Member</tspan></text>
      </g>
      <g
         id="g5287"
         transform="translate(96.670248,-29.165452)">
        <rect
           ry="2.3896999"
           y="328.39484"
           x="377.81546"
           height="17.952484"
           width="61.622799"
           id="rect4875-2-9-9-2-3-4"
           style="fill:#fafafa;fill-opacity:1;stroke:#000000;stroke-width:2;stroke-miterlimit:4;stroke-dasharray:none;stroke-dashoffset:0;stroke-opacity:1" />
        <text
           xml:space="preserve"
           style="font-style:normal;font-weight:normal;line-height:0%;font-family:sans-serif;letter-spacing:0px;word-spacing:0px;fill:#000000;fill-opacity:1;stroke:none;stroke-width:1px;stroke-linecap:butt;stroke-linejoin:miter;stroke-opacity:1"
           x="401.15005"
           y="341.81442"
           id="text4943-3-8-2-8-6-7"><tspan
             sodipodi:role="line"
             id="tspan4945-6-7-0-9-1-8"
             x="401.15005"
             y="341.81442"
             style="font-style:normal;font-variant:normal;font-weight:bold;font-stretch:normal;font-size:12.5px;line-height:1.25;font-family:Roboto;-inkscape-font-specification:Roboto">LB</tspan></text>
      </g>
    </g>
  </g>
  <g
     id="g5422"
     transform="translate(-360.73113,-139.39378)">
    <rect
       ry="2.3896999"
       y="235.75832"
       x="739.03076"
       height="38.956814"
       width="56.974342"
       id="rect4875-7"
       style="fill:#0091ea;fill-opacity:1;stroke:#000000;stroke-width:2;stroke-miterlimit:4;stroke-dasharray:none;stroke-dashoffset:0;stroke-opacity:1" />
    <text
       xml:space="preserve"
       style="font-style:normal;font-weight:normal;line-height:0%;font-family:sans-serif;letter-spacing:0px;word-spacing:0px;fill:#000000;fill-opacity:1;stroke:none;stroke-width:1px;stroke-linecap:butt;stroke-linejoin:miter;stroke-opacity:1"
       x="745.79248"
       y="259.86319"
       id="text4943-3-03-7"><tspan
         sodipodi:role="line"
         id="tspan4945-6-610-4"
         x="745.79248"
         y="259.86319"
         style="font-style:normal;font-variant:normal;font-weight:bold;font-stretch:normal;font-size:12.5px;line-height:1.25;font-family:Roboto;-inkscape-font-specification:Roboto">Kubelet</tspan></text>
  </g>
  <g
     id="g5492"
     transform="translate(-358.08461,-139.39378)">
    <rect
       ry="2.3896999"
       y="347.95151"
       x="737.99774"
       height="38.956814"
       width="56.974342"
       id="rect4875-5"
       style="fill:#82b1ff;fill-opacity:1;stroke:#000000;stroke-width:2;stroke-miterlimit:4;stroke-dasharray:none;stroke-dashoffset:0;stroke-opacity:1" />
    <rect
       ry="2.3896999"
       y="341.8707"
       x="744.38428"
       height="38.956814"
       width="56.974342"
       id="rect4875-5-3"
       style="fill:#82b1ff;fill-opacity:1;stroke:#000000;stroke-width:2;stroke-miterlimit:4;stroke-dasharray:none;stroke-dashoffset:0;stroke-opacity:1" />
    <g
       id="g5487">
      <rect
         style="fill:#82b1ff;fill-opacity:1;stroke:#000000;stroke-width:2;stroke-miterlimit:4;stroke-dasharray:none;stroke-dashoffset:0;stroke-opacity:1"
         id="rect4875-5-0"
         width="56.974342"
         height="38.956814"
         x="750.77075"
         y="335.78989"
         ry="2.3896999" />
      <text
         xml:space="preserve"
         style="font-style:normal;font-weight:normal;line-height:0%;font-family:sans-serif;letter-spacing:0px;word-spacing:0px;fill:#000000;fill-opacity:1;stroke:none;stroke-width:1px;stroke-linecap:butt;stroke-linejoin:miter;stroke-opacity:1"
         x="764.81702"
         y="359.89474"
         id="text4943-3-03-7-8"><tspan
           sodipodi:role="line"
           id="tspan4945-6-610-4-6"
           x="764.81702"
           y="359.89474"
           style="font-style:normal;font-variant:normal;font-weight:bold;font-stretch:normal;font-size:12.5px;line-height:1.25;font-family:Roboto;-inkscape-font-specification:Roboto">Pods</tspan></text>
    </g>
  </g>
  <g
     id="g5525"
     transform="translate(-359.69813,-110.98344)">
    <rect
       ry="2.3896999"
       y="143.13278"
       x="620.93835"
       height="38.956818"
       width="64.522263"
       id="rect4875-35"
       style="fill:#ffc107;fill-opacity:1;stroke:#000000;stroke-width:2;stroke-miterlimit:4;stroke-dasharray:none;stroke-dashoffset:0;stroke-opacity:1" />
    <text
       id="text4943-3-03-7-88"
       y="159.18102"
       x="653.01331"
       style="font-style:normal;font-weight:normal;line-height:0%;font-family:sans-serif;letter-spacing:0px;word-spacing:0px;fill:#000000;fill-opacity:1;stroke:none;stroke-width:1px;stroke-linecap:butt;stroke-linejoin:miter;stroke-opacity:1"
       xml:space="preserve"><tspan
         style="font-style:normal;font-variant:normal;font-weight:bold;font-stretch:normal;font-size:12.5px;line-height:1.25;font-family:Roboto;-inkscape-font-specification:Roboto;text-align:center;text-anchor:middle"
         y="159.18102"
         x="653.01331"
         id="tspan4945-6-610-4-4"
         sodipodi:role="line">Kuryr</tspan><tspan
         id="tspan5508"
         style="font-style:normal;font-variant:normal;font-weight:bold;font-stretch:normal;font-size:12.5px;line-height:1.25;font-family:Roboto;-inkscape-font-specification:Roboto;text-align:center;text-anchor:middle"
         y="174.80602"
         x="653.01331"
         sodipodi:role="line">Controller</tspan></text>
  </g>
  <g
     id="g5552"
     transform="translate(-359.69813,-139.39378)">
    <rect
       ry="2.3896999"
       y="291.39389"
       x="620.93835"
       height="38.956818"
       width="64.522263"
       id="rect4875-35-3"
       style="fill:#ffc107;fill-opacity:1;stroke:#000000;stroke-width:2;stroke-miterlimit:4;stroke-dasharray:none;stroke-dashoffset:0;stroke-opacity:1" />
    <text
       xml:space="preserve"
       style="font-style:normal;font-weight:normal;line-height:0%;font-family:sans-serif;letter-spacing:0px;word-spacing:0px;fill:#000000;fill-opacity:1;stroke:none;stroke-width:1px;stroke-linecap:butt;stroke-linejoin:miter;stroke-opacity:1"
       x="652.87903"
       y="307.44214"
       id="text4943-3-03-7-88-1"><tspan
         sodipodi:role="line"
         id="tspan4945-6-610-4-4-4"
         x="652.87903"
         y="307.44214"
         style="font-style:normal;font-variant:normal;font-weight:bold;font-stretch:normal;font-size:12.5px;line-height:1.25;font-family:Roboto;-inkscape-font-specification:Roboto;text-align:center;text-anchor:middle">Kuryr</tspan><tspan
         sodipodi:role="line"
         x="652.87903"
         y="323.06714"
         style="font-style:normal;font-variant:normal;font-weight:bold;font-stretch:normal;font-size:12.5px;line-height:1.25;font-family:Roboto;-inkscape-font-specification:Roboto;text-align:center;text-anchor:middle"
         id="tspan5508-9">CNI</tspan></text>
  </g>
  <g
     id="g5570"
     transform="translate(-353.09764,-139.39378)">
    <rect
       ry="2.3896999"
       y="347.35953"
       x="505.40332"
       height="38.956814"
       width="56.974342"
       id="rect4875-3"
       style="fill:#4caf50;fill-opacity:1;stroke:#000000;stroke-width:2;stroke-miterlimit:4;stroke-dasharray:none;stroke-dashoffset:0;stroke-opacity:1" />
    <text
       xml:space="preserve"
       style="font-style:normal;font-weight:normal;line-height:0%;font-family:sans-serif;letter-spacing:0px;word-spacing:0px;fill:#000000;fill-opacity:1;stroke:none;stroke-width:1px;stroke-linecap:butt;stroke-linejoin:miter;stroke-opacity:1"
       x="533.85388"
       y="371.28128"
       id="text4943-3-03-7-88-2"><tspan
         sodipodi:role="line"
         x="533.85388"
         y="371.28128"
         style="font-style:normal;font-variant:normal;font-weight:bold;font-stretch:normal;font-size:12.5px;line-height:1.25;font-family:Roboto;-inkscape-font-specification:Roboto;text-align:center;text-anchor:middle"
         id="tspan5508-6">OVS</tspan></text>
  </g>
  <g
     id="g5599"
     transform="translate(-351.69813,-139.39378)">
    <rect
       ry="2.3896999"
       y="236.62379"
       x="504.00381"
       height="38.956814"
       width="56.974342"
       id="rect4875"
       style="fill:#4caf50;fill-opacity:1;stroke:#000000;stroke-width:2;stroke-miterlimit:4;stroke-dasharray:none;stroke-dashoffset:0;stroke-opacity:1" />
    <text
       xml:space="preserve"
       style="font-style:normal;font-weight:normal;line-height:0%;font-family:sans-serif;letter-spacing:0px;word-spacing:0px;fill:#000000;fill-opacity:1;stroke:none;stroke-width:1px;stroke-linecap:butt;stroke-linejoin:miter;stroke-opacity:1"
       x="532.42688"
       y="251.43301"
       id="text4943-3-03-7-88-6"><tspan
         sodipodi:role="line"
         x="532.42688"
         y="251.43301"
         style="font-style:normal;font-variant:normal;font-weight:bold;font-stretch:normal;font-size:12.5px;line-height:1.25;font-family:Roboto;-inkscape-font-specification:Roboto;text-align:center;text-anchor:middle"
         id="tspan5508-4">Neutron</tspan><tspan
         id="tspan5597"
         sodipodi:role="line"
         x="532.42688"
         y="267.05801"
         style="font-style:normal;font-variant:normal;font-weight:bold;font-stretch:normal;font-size:12.5px;line-height:1.25;font-family:Roboto;-inkscape-font-specification:Roboto;text-align:center;text-anchor:middle">agent</tspan></text>
  </g>
  <g
     transform="matrix(0,-0.72464518,0.72464518,0,-185.07114,481.10312)"
     id="layer1"
     inkscape:label="Layer 1">
    <path
       sodipodi:nodetypes="ccccccccccc"
       inkscape:connector-curvature="0"
       id="path7655-6"
       d="m 502.98085,457.88803 -5.58483,0.024 5.58483,5.5167 5.39588,-5.34245 -5.39588,-0.10228 v -53.65079 -3.07984 h 5.39588 l -5.39588,-5.95691 -5.58483,5.95691 h 5.58483"
       style="fill:#000000;fill-opacity:1;fill-rule:evenodd;stroke:#000000;stroke-width:2.75997138;stroke-linecap:butt;stroke-linejoin:miter;stroke-miterlimit:4;stroke-dasharray:none;stroke-opacity:1" />
  </g>
  <g
     transform="matrix(0.72464518,0,0,0.72464518,-168.18435,-137.51293)"
     id="layer1-9"
     inkscape:label="Layer 1">
    <path
       sodipodi:nodetypes="cccccc"
       inkscape:connector-curvature="0"
       id="path7655-6-5"
       d="m 481.70493,468.92792 -5.58483,0.024 5.58483,5.5167 5.39588,-5.34245 -5.39588,-0.10228 V 376.7335"
       style="fill:#000000;fill-opacity:1;fill-rule:evenodd;stroke:#000000;stroke-width:2.75997138;stroke-linecap:butt;stroke-linejoin:miter;stroke-miterlimit:4;stroke-dasharray:none;stroke-opacity:1" />
  </g>
  <g
     id="g7922"
     transform="translate(-1.015625e-6,58.149338)">
    <rect
       ry="2.3896999"
       y="-52.149338"
       x="477.9473"
       height="212.83914"
       width="114.5513"
       id="rect7862"
       style="fill:#db212f;fill-opacity:1;stroke:#000000;stroke-width:2;stroke-miterlimit:4;stroke-dasharray:none;stroke-dashoffset:0;stroke-opacity:1" />
    <g
       transform="translate(-452.16841,-110.37767)"
       id="g5790">
      <g
         id="g5784">
        <rect
           ry="2.3896999"
           y="116.37767"
           x="940.65454"
           height="140.18156"
           width="93.473633"
           id="rect4875-62-1"
           style="fill:#0091ea;fill-opacity:1;stroke:#000000;stroke-width:2;stroke-miterlimit:4;stroke-dasharray:none;stroke-dashoffset:0;stroke-opacity:1" />
        <text
           id="text4943-2"
           y="136.16693"
           x="986.69122"
           style="font-style:normal;font-weight:normal;line-height:0%;font-family:sans-serif;letter-spacing:0px;word-spacing:0px;fill:#000000;fill-opacity:1;stroke:none;stroke-width:1px;stroke-linecap:butt;stroke-linejoin:miter;stroke-opacity:1"
           xml:space="preserve"><tspan
             style="font-style:normal;font-variant:normal;font-weight:bold;font-stretch:normal;font-size:17.5px;line-height:77.99999714%;font-family:Roboto;-inkscape-font-specification:Roboto;text-align:center;text-anchor:middle"
             y="136.16693"
             x="986.69122"
             id="tspan4945-54"
             sodipodi:role="line">K8s API</tspan><tspan
             id="tspan5402"
             style="font-style:normal;font-variant:normal;font-weight:bold;font-stretch:normal;font-size:17.5px;line-height:77.99999714%;font-family:Roboto;-inkscape-font-specification:Roboto;text-align:center;text-anchor:middle"
             y="149.81693"
             x="986.69122"
             sodipodi:role="line">server</tspan></text>
      </g>
      <g
         id="g5379"
         transform="translate(84.430578,-17.165452)">
        <rect
           ry="2.3896999"
           y="175.4281"
           x="866.55396"
           height="17.952511"
           width="72.813637"
           id="rect4875-2-5"
           style="fill:#fafafa;fill-opacity:1;stroke:#000000;stroke-width:2;stroke-miterlimit:4;stroke-dasharray:none;stroke-dashoffset:0;stroke-opacity:1" />
        <text
           id="text4943-3-03"
           y="189.03082"
           x="891.85541"
           style="font-style:normal;font-weight:normal;line-height:0%;font-family:sans-serif;letter-spacing:0px;word-spacing:0px;fill:#000000;fill-opacity:1;stroke:none;stroke-width:1px;stroke-linecap:butt;stroke-linejoin:miter;stroke-opacity:1"
           xml:space="preserve"><tspan
             style="font-style:normal;font-variant:normal;font-weight:bold;font-stretch:normal;font-size:12.5px;line-height:1.25;font-family:Roboto;-inkscape-font-specification:Roboto"
             y="189.03082"
             x="891.85541"
             id="tspan4945-6-610"
             sodipodi:role="line">Pod</tspan></text>
      </g>
      <g
         id="g5371"
         transform="translate(62.015418,3.7738356)">
        <rect
           ry="2.3896999"
           y="225.776"
           x="888.96912"
           height="17.952511"
           width="72.813637"
           id="rect4875-2-3"
           style="fill:#fafafa;fill-opacity:1;stroke:#000000;stroke-width:2;stroke-miterlimit:4;stroke-dasharray:none;stroke-dashoffset:0;stroke-opacity:1" />
        <text
           id="text4943-3-20"
           y="237.92609"
           x="891.85541"
           style="font-style:normal;font-weight:normal;line-height:0%;font-family:sans-serif;letter-spacing:0px;word-spacing:0px;fill:#000000;fill-opacity:1;stroke:none;stroke-width:1px;stroke-linecap:butt;stroke-linejoin:miter;stroke-opacity:1"
           xml:space="preserve"><tspan
             style="font-style:normal;font-variant:normal;font-weight:bold;font-stretch:normal;font-size:12.5px;line-height:1.25;font-family:Roboto;-inkscape-font-specification:Roboto"
             y="237.92609"
             x="891.85541"
             id="tspan4945-6-615"
             sodipodi:role="line">Namespace</tspan></text>
      </g>
      <g
         id="g5363"
         transform="translate(74.457438,-81.628554)">
        <rect
           ry="2.3896999"
           y="263.65359"
           x="876.5271"
           height="17.952511"
           width="72.813637"
           id="rect4875-2-4"
           style="fill:#fafafa;fill-opacity:1;stroke:#000000;stroke-width:2;stroke-miterlimit:4;stroke-dasharray:none;stroke-dashoffset:0;stroke-opacity:1" />
        <text
           id="text4943-3-7"
           y="277.18002"
           x="891.85541"
           style="font-style:normal;font-weight:normal;line-height:0%;font-family:sans-serif;letter-spacing:0px;word-spacing:0px;fill:#000000;fill-opacity:1;stroke:none;stroke-width:1px;stroke-linecap:butt;stroke-linejoin:miter;stroke-opacity:1"
           xml:space="preserve"><tspan
             style="font-style:normal;font-variant:normal;font-weight:bold;font-stretch:normal;font-size:12.5px;line-height:1.25;font-family:Roboto;-inkscape-font-specification:Roboto"
             y="277.18002"
             x="891.85541"
             id="tspan4945-6-65"
             sodipodi:role="line">Service</tspan></text>
      </g>
      <g
         id="g5355"
         transform="translate(57.293978,-86.909006)">
        <rect
           ry="2.3896999"
           y="292.69647"
           x="893.69055"
           height="17.952511"
           width="72.813637"
           id="rect4875-2-37"
           style="fill:#fafafa;fill-opacity:1;stroke:#000000;stroke-width:2;stroke-miterlimit:4;stroke-dasharray:none;stroke-dashoffset:0;stroke-opacity:1" />
        <text
           id="text4943-3-4"
           y="306.05505"
           x="901.83807"
           style="font-style:normal;font-weight:normal;line-height:0%;font-family:sans-serif;letter-spacing:0px;word-spacing:0px;fill:#000000;fill-opacity:1;stroke:none;stroke-width:1px;stroke-linecap:butt;stroke-linejoin:miter;stroke-opacity:1"
           xml:space="preserve"><tspan
             style="font-style:normal;font-variant:normal;font-weight:bold;font-stretch:normal;font-size:12.5px;line-height:1.25;font-family:Roboto;-inkscape-font-specification:Roboto"
             y="306.05505"
             x="901.83807"
             id="tspan4945-6-5"
             sodipodi:role="line">Endpoints</tspan></text>
      </g>
    </g>
    <text
       id="text4943-2-3"
       y="-32.691193"
       x="535.29987"
       style="font-style:normal;font-weight:normal;line-height:0%;font-family:sans-serif;letter-spacing:0px;word-spacing:0px;fill:#000000;fill-opacity:1;stroke:none;stroke-width:1px;stroke-linecap:butt;stroke-linejoin:miter;stroke-opacity:1"
       xml:space="preserve"><tspan
         style="font-style:normal;font-variant:normal;font-weight:bold;font-stretch:normal;font-size:17.5px;line-height:77.99999714%;font-family:Roboto;-inkscape-font-specification:Roboto;text-align:center;text-anchor:middle"
         y="-32.691193"
         x="535.29987"
         id="tspan4945-54-6"
         sodipodi:role="line">OpenShift</tspan><tspan
         id="tspan5402-7"
         style="font-style:normal;font-variant:normal;font-weight:bold;font-stretch:normal;font-size:17.5px;line-height:77.99999714%;font-family:Roboto;-inkscape-font-specification:Roboto;text-align:center;text-anchor:middle"
         y="-19.041193"
         x="535.29987"
         sodipodi:role="line">API server</tspan></text>
  </g>
  <g
     id="g5879"
     transform="translate(-452.16841,-106.85127)">
    <g
       inkscape:label="Layer 1"
       id="layer1-9-0"
       transform="matrix(0,-0.72464518,0.72464518,0,537.94586,502.98008)" />
    <text
       id="text4943-3-8-2-8-6-7-8"
       y="151.08385"
       x="786.09473"
       style="font-style:normal;font-weight:normal;line-height:0%;font-family:sans-serif;letter-spacing:0px;word-spacing:0px;fill:#000000;fill-opacity:1;stroke:none;stroke-width:1px;stroke-linecap:butt;stroke-linejoin:miter;stroke-opacity:1"
       xml:space="preserve"><tspan
         style="font-style:normal;font-variant:normal;font-weight:bold;font-stretch:normal;font-size:12.5px;line-height:1.25;font-family:Roboto;-inkscape-font-specification:Roboto"
         y="151.08385"
         x="786.09473"
         id="tspan4945-6-7-0-9-1-8-7"
         sodipodi:role="line">Watch CRUD events</tspan></text>
  </g>
  <g
     id="g5873"
     transform="translate(-452.16841,-106.85127)">
    <g
       inkscape:label="Layer 1"
       id="layer1-9-0-1"
       transform="matrix(0,-0.72464518,0.72464518,0,536.81555,521.84254)">
      <path
         style="fill:#000000;fill-opacity:1;fill-rule:evenodd;stroke:#000000;stroke-width:2.75997138;stroke-linecap:butt;stroke-linejoin:miter;stroke-miterlimit:4;stroke-dasharray:none;stroke-opacity:1"
         d="m 481.70493,548.96709 -5.58483,0.024 5.58483,5.5167 5.39588,-5.34245 -5.39588,-0.10228 v -216.4891"
         id="path7655-6-5-4-7"
         inkscape:connector-curvature="0"
         sodipodi:nodetypes="cccccc" />
    </g>
    <text
       id="text4943-3-8-2-8-6-7-8-2"
       y="169.94632"
       x="786.26562"
       style="font-style:normal;font-weight:normal;line-height:0%;font-family:sans-serif;letter-spacing:0px;word-spacing:0px;fill:#000000;fill-opacity:1;stroke:none;stroke-width:1px;stroke-linecap:butt;stroke-linejoin:miter;stroke-opacity:1"
       xml:space="preserve"><tspan
         style="font-style:normal;font-variant:normal;font-weight:bold;font-stretch:normal;font-size:12.5px;line-height:1.25;font-family:Roboto;-inkscape-font-specification:Roboto"
         y="169.94632"
         x="786.26562"
         id="tspan4945-6-7-0-9-1-8-7-7"
         sodipodi:role="line">Annotate resources</tspan></text>
  </g>
  <g
     id="g5938"
     transform="translate(-452.16841,-112.74121)">
    <g
       inkscape:label="Layer 1"
       id="layer1-9-0-1-2"
       transform="matrix(0,-0.72464518,0.72464518,0,288.93604,516.36533)">
      <path
         style="fill:#000000;fill-opacity:1;fill-rule:evenodd;stroke:#000000;stroke-width:2.75997138;stroke-linecap:butt;stroke-linejoin:miter;stroke-miterlimit:4;stroke-dasharray:none;stroke-opacity:1"
         d="m 481.4622,370.41517 5.58483,-0.024 -5.58483,-5.5167 -5.39588,5.34245 5.39588,0.10228 v 216.4891"
         id="path7655-6-5-4-7-6"
         inkscape:connector-curvature="0"
         sodipodi:nodetypes="cccccc" />
    </g>
    <text
       id="text4943-3-8-2-8-6-7-8-2-1"
       y="164.46912"
       x="584.87225"
       style="font-style:normal;font-weight:normal;line-height:0%;font-family:sans-serif;letter-spacing:0px;word-spacing:0px;fill:#000000;fill-opacity:1;stroke:none;stroke-width:1px;stroke-linecap:butt;stroke-linejoin:miter;stroke-opacity:1"
       xml:space="preserve"><tspan
         style="font-style:normal;font-variant:normal;font-weight:bold;font-stretch:normal;font-size:12.5px;line-height:1.25;font-family:Roboto;-inkscape-font-specification:Roboto"
         y="164.46912"
         x="584.87225"
         id="tspan4945-6-7-0-9-1-8-7-7-0"
         sodipodi:role="line">Perform CRUD actions</tspan></text>
  </g>
  <g
     transform="matrix(0,-0.72464518,0.72464518,0,151.23064,480.23764)"
     id="layer1-97"
     inkscape:label="Layer 1">
    <path
       sodipodi:nodetypes="ccccccccccc"
       inkscape:connector-curvature="0"
       id="path7655-6-7"
       d="m 502.98085,457.88803 -5.58483,0.024 5.58483,5.5167 5.39588,-5.34245 -5.39588,-0.10228 v -53.65079 -3.07984 h 5.39588 l -5.39588,-5.95691 -5.58483,5.95691 h 5.58483"
       style="fill:#000000;fill-opacity:1;fill-rule:evenodd;stroke:#000000;stroke-width:2.75997138;stroke-linecap:butt;stroke-linejoin:miter;stroke-miterlimit:4;stroke-dasharray:none;stroke-opacity:1" />
  </g>
  <g
     transform="matrix(-0.72464518,0,0,-0.72464518,851.55879,550.58972)"
     id="layer1-9-0-7"
     inkscape:label="Layer 1" />
  <g
     id="g6166"
     transform="translate(-454.16841,-110.22833)">
    <text
       id="text4943-3-8-2-8-6-7-8-6"
       y="269.78607"
       x="786.03589"
       style="font-style:normal;font-weight:normal;line-height:0%;font-family:sans-serif;letter-spacing:0px;word-spacing:0px;fill:#000000;fill-opacity:1;stroke:none;stroke-width:1px;stroke-linecap:butt;stroke-linejoin:miter;stroke-opacity:1"
       xml:space="preserve"><tspan
         style="font-style:normal;font-variant:normal;font-weight:bold;font-stretch:normal;font-size:12.5px;line-height:1.25;font-family:Roboto;-inkscape-font-specification:Roboto"
         y="269.78607"
         x="786.03589"
         id="tspan4945-6-7-0-9-1-8-7-5"
         sodipodi:role="line">Watch CRUD ev</tspan></text>
    <text
       id="text4943-3-8-2-8-6-7-8-6-6"
       y="282.62646"
       x="785.83447"
       style="font-style:normal;font-weight:normal;line-height:0%;font-family:sans-serif;letter-spacing:0px;word-spacing:0px;fill:#000000;fill-opacity:1;stroke:none;stroke-width:1px;stroke-linecap:butt;stroke-linejoin:miter;stroke-opacity:1"
       xml:space="preserve"><tspan
         style="font-style:normal;font-variant:normal;font-weight:bold;font-stretch:normal;font-size:12.5px;line-height:1.25;font-family:Roboto;-inkscape-font-specification:Roboto"
         y="282.62646"
         x="785.83447"
         id="tspan4945-6-7-0-9-1-8-7-5-3"
         sodipodi:role="line">annotations</tspan></text>
  </g>
  <g
     id="g6144-9"
     transform="rotate(90,646.94172,-24.73233)">
    <path
       sodipodi:nodetypes="cccc"
       inkscape:connector-curvature="0"
       id="path6139-4"
       d="m 894.00646,248.89776 6.39072,-6.23424 6.39073,6.34375 z"
       style="fill:#000000;fill-opacity:1;fill-rule:evenodd;stroke:#000000;stroke-width:1px;stroke-linecap:butt;stroke-linejoin:miter;stroke-opacity:1" />
    <path
       inkscape:connector-curvature="0"
       id="path6141-8"
       d="m 900.24759,249.06463 v 80.17246 h -37.78416"
       style="fill:none;fill-rule:evenodd;stroke:#000000;stroke-width:2;stroke-linecap:butt;stroke-linejoin:miter;stroke-miterlimit:4;stroke-dasharray:none;stroke-opacity:1"
       sodipodi:nodetypes="ccc" />
  </g>
  <g
     transform="translate(-490.63898,-45.00083)"
     id="g6166-1">
    <text
       id="text4943-3-8-2-8-6-7-8-6-2"
       y="269.78607"
       x="786.03589"
       style="font-style:normal;font-weight:normal;line-height:0%;font-family:sans-serif;letter-spacing:0px;word-spacing:0px;fill:#000000;fill-opacity:1;stroke:none;stroke-width:1px;stroke-linecap:butt;stroke-linejoin:miter;stroke-opacity:1"
       xml:space="preserve"><tspan
         style="font-style:normal;font-variant:normal;font-weight:bold;font-stretch:normal;font-size:12.5px;line-height:1.25;font-family:Roboto;-inkscape-font-specification:Roboto"
         y="269.78607"
         x="786.03589"
         sodipodi:role="line"
         id="tspan6220">Add configure</tspan><tspan
         style="font-style:normal;font-variant:normal;font-weight:bold;font-stretch:normal;font-size:12.5px;line-height:1.25;font-family:Roboto;-inkscape-font-specification:Roboto"
         y="285.41107"
         x="786.03589"
         sodipodi:role="line"
         id="tspan6224"> veth</tspan></text>
  </g>
  <g
     transform="matrix(0.72464518,0,0,0.72464518,71.070604,-187.32232)"
     id="layer1-9-0-1-8"
     inkscape:label="Layer 1">
    <path
       sodipodi:nodetypes="cccccc"
       inkscape:connector-curvature="0"
       id="path7655-6-5-4-7-8"
       d="m 487.22487,521.36738 -5.58483,0.024 5.58483,5.5167 5.39588,-5.34245 -5.39588,-0.10228 v -75.73056"
       style="fill:#000000;fill-opacity:1;fill-rule:evenodd;stroke:#000000;stroke-width:2.75997138;stroke-linecap:butt;stroke-linejoin:miter;stroke-miterlimit:4;stroke-dasharray:none;stroke-opacity:1" />
  </g>
  <g
     id="g6144-9-6"
     transform="matrix(0,1,1,0,-32.665536,-671.67405)">
    <path
       sodipodi:nodetypes="cccc"
       inkscape:connector-curvature="0"
       id="path6139-4-3"
       d="m 894.00646,248.89776 6.39072,-6.23424 6.39073,6.34375 z"
       style="fill:#000000;fill-opacity:1;fill-rule:evenodd;stroke:#000000;stroke-width:1px;stroke-linecap:butt;stroke-linejoin:miter;stroke-opacity:1" />
    <path
       inkscape:connector-curvature="0"
       id="path6141-8-8"
       d="m 900.24759,249.06463 v 60.17246 h -37.78416"
       style="fill:none;fill-rule:evenodd;stroke:#000000;stroke-width:2;stroke-linecap:butt;stroke-linejoin:miter;stroke-miterlimit:4;stroke-dasharray:none;stroke-opacity:1"
       sodipodi:nodetypes="ccc" />
  </g>
  <g
     transform="translate(-583.97957,-47.490212)"
     id="g6166-1-5">
    <text
       id="text4943-3-8-2-8-6-7-8-6-2-6"
       y="287.78607"
       x="802.03589"
       style="font-style:normal;font-weight:normal;line-height:0%;font-family:sans-serif;letter-spacing:0px;word-spacing:0px;fill:#000000;fill-opacity:1;stroke:none;stroke-width:1px;stroke-linecap:butt;stroke-linejoin:miter;stroke-opacity:1"
       xml:space="preserve"><tspan
         style="font-style:normal;font-variant:normal;font-weight:bold;font-stretch:normal;font-size:12.5px;line-height:1.25;font-family:Roboto;-inkscape-font-specification:Roboto"
         y="287.78607"
         x="802.03589"
         sodipodi:role="line"
         id="tspan6224-1">os-vif plug</tspan></text>
  </g>
  <g
     id="g6144-9-5"
     transform="rotate(180,597.4884,216.33748)">
    <path
       sodipodi:nodetypes="cccc"
       inkscape:connector-curvature="0"
       id="path6139-4-9"
       d="m 894.00646,288.89776 6.39072,-6.23424 6.39073,6.34375 z"
       style="fill:#000000;fill-opacity:1;fill-rule:evenodd;stroke:#000000;stroke-width:1px;stroke-linecap:butt;stroke-linejoin:miter;stroke-opacity:1" />
    <path
       inkscape:connector-curvature="0"
       id="path6141-8-84"
       d="m 900.24759,289.06463 v 26.17246 h -83.78416"
       style="fill:none;fill-rule:evenodd;stroke:#000000;stroke-width:2;stroke-linecap:butt;stroke-linejoin:miter;stroke-miterlimit:4;stroke-dasharray:none;stroke-opacity:1"
       sodipodi:nodetypes="ccc" />
  </g>
  <g
     transform="translate(-496.76033,-157.55812)"
     id="g6166-1-5-3">
    <text
       id="text4943-3-8-2-8-6-7-8-6-2-6-0"
       y="285.78607"
       x="798.03589"
       style="font-style:normal;font-weight:normal;line-height:0%;font-family:sans-serif;letter-spacing:0px;word-spacing:0px;fill:#000000;fill-opacity:1;stroke:none;stroke-width:1px;stroke-linecap:butt;stroke-linejoin:miter;stroke-opacity:1"
       xml:space="preserve"><tspan
         style="font-style:normal;font-variant:normal;font-weight:bold;font-stretch:normal;font-size:12.5px;line-height:1.25;font-family:Roboto;-inkscape-font-specification:Roboto"
         y="285.78607"
         x="798.03589"
         sodipodi:role="line"
         id="tspan6224-1-4">execute</tspan></text>
  </g>
  <g
     transform="matrix(0.04291469,0,0,0.04291469,420.80981,89.995858)"
     id="g7803-5">
    <path
       id="path3985-3"
       d="m 165.4,234.58 -91.447,33.275 c 1.172,14.661 3.6972,29.144 7.2524,43.333 l 86.858,-31.631 c -2.8164,-14.686 -3.8215,-29.819 -2.6637,-44.977"
       inkscape:connector-curvature="0"
       style="fill:#db212f" />
    <path
       id="path3989-5"
       d="m 569.5,133.46 c -6.3787,-13.155 -13.755,-25.87 -22.3,-37.849 l -91.422,33.275 c 10.641,10.882 19.562,23.114 26.864,36.194 z"
       inkscape:connector-curvature="0"
       style="fill:#db212f" />
    <path
       id="path3993-6"
       d="m 368.3,107.57 c 19.022,8.8754 35.502,20.983 49.396,35.182 l 91.425,-33.278 C 483.802,73.94 449.305,44.245 407.031,24.523 276.341,-36.419 120.411,20.3321 59.471,151.003 39.749,193.292 32.418,238.216 35.856,281.703 l 91.436,-33.271 c 1.5166,-19.811 6.3538,-39.661 15.215,-58.694 39.604,-84.915 140.89,-121.76 225.79,-82.173"
       inkscape:connector-curvature="0"
       style="fill:#db212f" />
    <path
       id="path3997-2"
       d="M 86.9,309.09 0.024,340.731 c 7.984,31.673 21.832,61.766 40.854,88.548 l 91.23,-33.211 C 108.689,372.02 93.119,341.597 86.9,309.089"
       inkscape:connector-curvature="0"
       style="fill:#ea2227" />
    <path
       id="path4001-9"
       d="m 465.8,274.64 c -1.4455,19.8 -6.4497,39.661 -15.336,58.708 -39.604,84.919 -140.88,121.77 -225.79,82.17 -19.047,-8.8826 -35.64,-20.894 -49.492,-35.118 l -91.234,33.215 c 25.266,35.537 59.727,65.239 102.01,84.976 130.7,60.931 286.6,4.1802 347.55,-126.5 19.733,-42.282 27.02,-87.188 23.529,-130.65 l -91.205,33.2 z"
       inkscape:connector-curvature="0"
       style="fill:#db212f" />
    <path
       id="path4005-1"
       d="m 488.3,163.01 -86.869,31.62 c 16.135,28.906 23.753,62.199 21.26,95.673 l 91.234,-33.19 C 511.3146,224.371 502.581,192.414 488.3,163.01"
       inkscape:connector-curvature="0"
       style="fill:#ea2227" />
  </g>
  <g
     id="g6144-2"
     transform="matrix(1,0,0,-1,-491.36266,352.36374)">
    <path
       sodipodi:nodetypes="cccc"
       inkscape:connector-curvature="0"
       id="path6139-7"
       d="m 986.00646,294.89776 6.39072,-6.23424 6.39073,6.34375 z"
       style="fill:#000000;fill-opacity:1;fill-rule:evenodd;stroke:#000000;stroke-width:1px;stroke-linecap:butt;stroke-linejoin:miter;stroke-opacity:1" />
    <path
       inkscape:connector-curvature="0"
       id="path6141-0"
       d="m 992.24759,295.06463 v 9.92246 H 818.21343"
       style="fill:none;fill-rule:evenodd;stroke:#000000;stroke-width:2;stroke-linecap:butt;stroke-linejoin:miter;stroke-miterlimit:4;stroke-dasharray:none;stroke-opacity:1"
       sodipodi:nodetypes="ccc" />
  </g>
  <g
     id="g5879-9"
     transform="translate(-452.30883,7.0913878)">
    <g
       inkscape:label="Layer 1"
       id="layer1-9-0-3"
       transform="matrix(0,-0.72464518,0.72464518,0,537.94586,502.98008)">
      <path
         style="fill:#000000;fill-opacity:1;fill-rule:evenodd;stroke:#000000;stroke-width:2.75997138;stroke-linecap:butt;stroke-linejoin:miter;stroke-miterlimit:4;stroke-dasharray:none;stroke-opacity:1"
         d="m 481.70493,548.96709 -5.58483,0.024 5.58483,5.5167 5.39588,-5.34245 -5.39588,-0.10228 v -216.4891"
         id="path7655-6-5-4-6"
         inkscape:connector-curvature="0"
         sodipodi:nodetypes="cccccc" />
    </g>
  </g>
  <text
     xml:space="preserve"
     style="font-style:normal;font-weight:normal;font-size:25.78125px;line-height:12.18749905px;font-family:sans-serif;letter-spacing:0px;word-spacing:0px;fill:#000000;fill-opacity:1;stroke:none;stroke-width:0.9375px;stroke-linecap:butt;stroke-linejoin:miter;stroke-opacity:1"
     x="226.40625"
     y="26.357946"
     id="text16650"><tspan
       sodipodi:role="line"
       id="tspan16648"
       x="226.40625"
       y="26.357946"
       style="font-style:normal;font-variant:normal;font-weight:normal;font-stretch:normal;font-family:Roboto;-inkscape-font-specification:Roboto;stroke-width:0.9375px">Control plane</tspan></text>
  <text
     xml:space="preserve"
     style="font-style:normal;font-weight:normal;font-size:21.84682465px;line-height:18.76874924px;font-family:sans-serif;letter-spacing:0px;word-spacing:0px;fill:#000000;fill-opacity:1;stroke:none;stroke-width:0.79442996px;stroke-linecap:butt;stroke-linejoin:miter;stroke-opacity:1"
     x="218.17377"
     y="202.48793"
     id="text16650-3"><tspan
       sodipodi:role="line"
       id="tspan16648-6"
       x="218.17377"
       y="202.48793"
       style="font-style:normal;font-variant:normal;font-weight:normal;font-stretch:normal;line-height:18.76874924px;font-family:Roboto;-inkscape-font-specification:Roboto;stroke-width:0.79442996px">data</tspan><tspan
       sodipodi:role="line"
       x="218.17377"
       y="221.47003"
       style="font-style:normal;font-variant:normal;font-weight:normal;font-stretch:normal;line-height:18.76874924px;font-family:Roboto;-inkscape-font-specification:Roboto;stroke-width:0.79442996px"
       id="tspan16670">plane</tspan></text>
</svg>
