<?xml version="1.0" encoding="UTF-8" standalone="no"?>
<!-- Created with Inkscape (http://www.inkscape.org/) -->

<svg
   xmlns:dc="http://purl.org/dc/elements/1.1/"
   xmlns:cc="http://creativecommons.org/ns#"
   xmlns:rdf="http://www.w3.org/1999/02/22-rdf-syntax-ns#"
   xmlns:svg="http://www.w3.org/2000/svg"
   xmlns="http://www.w3.org/2000/svg"
   xmlns:sodipodi="http://sodipodi.sourceforge.net/DTD/sodipodi-0.dtd"
   xmlns:inkscape="http://www.inkscape.org/namespaces/inkscape"
   width="560.44519"
   height="337.64911"
   viewBox="0 0 525.41736 316.54605"
   id="svg14476"
   version="1.1"
   inkscape:version="0.92.0 r"
   sodipodi:docname="openshift_demo_deployment.svg">
  <defs
     id="defs14478" />
  <sodipodi:namedview
     id="base"
     pagecolor="#ffffff"
     bordercolor="#666666"
     borderopacity="1.0"
     inkscape:pageopacity="0.0"
     inkscape:pageshadow="2"
     inkscape:zoom="0.9899495"
     inkscape:cx="141.55988"
     inkscape:cy="-22.694492"
     inkscape:document-units="px"
     inkscape:current-layer="layer1"
     showgrid="false"
     units="px"
     inkscape:window-width="1920"
     inkscape:window-height="1016"
     inkscape:window-x="0"
     inkscape:window-y="27"
     inkscape:window-maximized="1"
     fit-margin-top="5"
     fit-margin-left="5"
     fit-margin-right="5"
     fit-margin-bottom="5" />
  <metadata
     id="metadata14481">
    <rdf:RDF>
      <cc:Work
         rdf:about="">
        <dc:format>image/svg+xml</dc:format>
        <dc:type
           rdf:resource="http://purl.org/dc/dcmitype/StillImage" />
        <dc:title />
      </cc:Work>
    </rdf:RDF>
  </metadata>
  <g
     inkscape:label="Layer 1"
     inkscape:groupmode="layer"
     id="layer1"
     transform="translate(-163.35559,-131.23154)">
    <g
       id="g15247"
       transform="translate(421.42857,205.12436)">
      <g
         transform="translate(-363.38796,-233.25324)"
         id="g5570">
        <rect
           style="fill:#4caf50;fill-opacity:1;stroke:#000000;stroke-width:2;stroke-miterlimit:4;stroke-dasharray:none;stroke-dashoffset:0;stroke-opacity:1"
           id="rect4875-3"
           width="119.329"
           height="122.54694"
           x="505.40332"
           y="347.35953"
           ry="2.3896999" />
        <text
           id="text4943-3-03-7-88-2"
           y="361.28128"
           x="533.85388"
           style="font-style:normal;font-weight:normal;font-size:40px;line-height:125%;font-family:sans-serif;letter-spacing:0px;word-spacing:0px;fill:#000000;fill-opacity:1;stroke:none;stroke-width:1px;stroke-linecap:butt;stroke-linejoin:miter;stroke-opacity:1"
           xml:space="preserve"><tspan
             id="tspan5508-6"
             style="font-style:normal;font-variant:normal;font-weight:bold;font-stretch:normal;font-size:12.5px;font-family:Roboto;-inkscape-font-specification:Roboto;text-align:center;text-anchor:middle"
             y="361.28128"
             x="533.85388"
             sodipodi:role="line">r620-01</tspan></text>
      </g>
      <g
         id="g15228">
        <g
           id="g15081"
           transform="translate(-22)">
          <rect
             style="fill:#00bfa5;fill-opacity:1;stroke:#000000;stroke-width:2;stroke-miterlimit:4;stroke-dasharray:none;stroke-dashoffset:0;stroke-opacity:1"
             id="rect4875-2-5"
             width="108.25127"
             height="88.158112"
             x="168.14908"
             y="140.56207"
             ry="2.3896999" />
          <text
             xml:space="preserve"
             style="font-style:normal;font-weight:normal;font-size:40px;line-height:125%;font-family:sans-serif;letter-spacing:0px;word-spacing:0px;fill:#000000;fill-opacity:1;stroke:none;stroke-width:1px;stroke-linecap:butt;stroke-linejoin:miter;stroke-opacity:1"
             x="172.32408"
             y="153.02039"
             id="text4943-3-03"><tspan
               sodipodi:role="line"
               id="tspan4945-6-610"
               x="172.32408"
               y="153.02039"
               style="font-style:normal;font-variant:normal;font-weight:bold;font-stretch:normal;font-size:12.5px;font-family:Roboto;-inkscape-font-specification:Roboto">OpenShift master</tspan></text>
        </g>
        <g
           id="g15193"
           transform="translate(-4,4)">
          <rect
             style="fill:#a7ffeb;fill-opacity:1;stroke:#000000;stroke-width:2;stroke-miterlimit:4;stroke-dasharray:none;stroke-dashoffset:0;stroke-opacity:1"
             id="rect4875-2-5-2"
             width="72.813637"
             height="17.952511"
             x="155.09831"
             y="157.83618"
             ry="2.3896999" />
          <text
             xml:space="preserve"
             style="font-style:normal;font-weight:normal;font-size:40px;line-height:125%;font-family:sans-serif;letter-spacing:0px;word-spacing:0px;fill:#000000;fill-opacity:1;stroke:none;stroke-width:1px;stroke-linecap:butt;stroke-linejoin:miter;stroke-opacity:1"
             x="162.21436"
             y="171.19476"
             id="text4943-3-03-1"><tspan
               sodipodi:role="line"
               id="tspan4945-6-610-2"
               x="162.21436"
               y="171.19476"
               style="font-style:normal;font-variant:normal;font-weight:bold;font-stretch:normal;font-size:12.5px;font-family:Roboto;-inkscape-font-specification:Roboto">API server</tspan></text>
        </g>
        <g
           id="g15198"
           transform="translate(-3.5241089,4.177063)">
          <rect
             style="fill:#a7ffeb;fill-opacity:1;stroke:#000000;stroke-width:2;stroke-miterlimit:4;stroke-dasharray:none;stroke-dashoffset:0;stroke-opacity:1"
             id="rect4875-2-5-2-0"
             width="72.813637"
             height="17.952511"
             x="154.62242"
             y="180.21056"
             ry="2.3896999" />
          <text
             xml:space="preserve"
             style="font-style:normal;font-weight:normal;font-size:40px;line-height:125%;font-family:sans-serif;letter-spacing:0px;word-spacing:0px;fill:#000000;fill-opacity:1;stroke:none;stroke-width:1px;stroke-linecap:butt;stroke-linejoin:miter;stroke-opacity:1"
             x="163.22467"
             y="193.81328"
             id="text4943-3-03-1-7"><tspan
               sodipodi:role="line"
               id="tspan4945-6-610-2-3"
               x="163.22467"
               y="193.81328"
               style="font-style:normal;font-variant:normal;font-weight:bold;font-stretch:normal;font-size:12.5px;font-family:Roboto;-inkscape-font-specification:Roboto">scheduler</tspan></text>
        </g>
        <g
           id="g15203"
           transform="translate(-3.1611601,4)">
          <g
             transform="translate(-9.0913729,2.7779195)"
             id="g15164">
            <rect
               ry="2.3896999"
               y="200.16107"
               x="163.35085"
               height="17.952511"
               width="72.813637"
               id="rect4875-2-5-2-0-1"
               style="fill:#a7ffeb;fill-opacity:1;stroke:#000000;stroke-width:2;stroke-miterlimit:4;stroke-dasharray:none;stroke-dashoffset:0;stroke-opacity:1" />
            <text
               id="text4943-3-03-1-7-1"
               y="212.41492"
               x="177.79721"
               style="font-style:normal;font-weight:normal;font-size:40px;line-height:125%;font-family:sans-serif;letter-spacing:0px;word-spacing:0px;fill:#000000;fill-opacity:1;stroke:none;stroke-width:1px;stroke-linecap:butt;stroke-linejoin:miter;stroke-opacity:1"
               xml:space="preserve"><tspan
                 style="font-style:normal;font-variant:normal;font-weight:bold;font-stretch:normal;font-size:12.5px;font-family:Roboto;-inkscape-font-specification:Roboto"
                 y="212.41492"
                 x="177.79721"
                 id="tspan4945-6-610-2-3-9"
                 sodipodi:role="line">registry</tspan></text>
          </g>
        </g>
      </g>
    </g>
    <g
       transform="translate(0,28.250225)"
       id="g15401-0" />
    <g
       id="g5083"
       transform="translate(-137.14286,110)">
      <g
         id="g5078">
        <rect
           style="fill:#4caf50;fill-opacity:1;stroke:#000000;stroke-width:2;stroke-miterlimit:4;stroke-dasharray:none;stroke-dashoffset:0;stroke-opacity:1"
           id="rect4875-3-0-7"
           width="182.71738"
           height="210.93532"
           x="453.35559"
           y="120.84227"
           ry="2.3896999" />
        <text
           id="text4943-3-03-7-88-2-6-2"
           y="134.76402"
           x="481.80615"
           style="font-style:normal;font-weight:normal;font-size:40px;line-height:125%;font-family:sans-serif;letter-spacing:0px;word-spacing:0px;fill:#000000;fill-opacity:1;stroke:none;stroke-width:1px;stroke-linecap:butt;stroke-linejoin:miter;stroke-opacity:1"
           xml:space="preserve"><tspan
             id="tspan5508-6-4-6"
             style="font-style:normal;font-variant:normal;font-weight:bold;font-stretch:normal;font-size:12.5px;font-family:Roboto;-inkscape-font-specification:Roboto;text-align:center;text-anchor:middle"
             y="134.76402"
             x="481.80615"
             sodipodi:role="line">r730-01</tspan></text>
      </g>
      <g
         transform="translate(0,8.393064)"
         id="g4511">
        <g
           id="g4441">
          <rect
             style="fill:#ff7043;fill-opacity:1;stroke:#000000;stroke-width:2;stroke-miterlimit:4;stroke-dasharray:none;stroke-dashoffset:0;stroke-opacity:1"
             id="rect4875-2-5-8-2"
             width="82.410042"
             height="68.035583"
             x="457.48929"
             y="147.29807"
             ry="2.3896999" />
          <text
             xml:space="preserve"
             style="font-style:normal;font-weight:normal;font-size:40px;line-height:125%;font-family:sans-serif;letter-spacing:0px;word-spacing:0px;fill:#000000;fill-opacity:1;stroke:none;stroke-width:1px;stroke-linecap:butt;stroke-linejoin:miter;stroke-opacity:1"
             x="461.66431"
             y="159.75638"
             id="text4943-3-03-5-0"><tspan
               sodipodi:role="line"
               id="tspan4945-6-610-8-2"
               x="461.66431"
               y="159.75638"
               style="font-style:normal;font-variant:normal;font-weight:bold;font-stretch:normal;font-size:12.5px;font-family:Roboto;-inkscape-font-specification:Roboto">Glance</tspan></text>
          <rect
             style="fill:#a7ffeb;fill-opacity:1;stroke:#000000;stroke-width:2;stroke-miterlimit:4;stroke-dasharray:none;stroke-dashoffset:0;stroke-opacity:1"
             id="rect4875-2-5-2-6-0"
             width="72.813637"
             height="17.952511"
             x="462.48672"
             y="168.57217"
             ry="2.3896999" />
          <text
             xml:space="preserve"
             style="font-style:normal;font-weight:normal;font-size:40px;line-height:125%;font-family:sans-serif;letter-spacing:0px;word-spacing:0px;fill:#000000;fill-opacity:1;stroke:none;stroke-width:1px;stroke-linecap:butt;stroke-linejoin:miter;stroke-opacity:1"
             x="489.26221"
             y="181.93076"
             id="text4943-3-03-1-0-9"><tspan
               sodipodi:role="line"
               id="tspan4945-6-610-2-6-9"
               x="489.26221"
               y="181.93076"
               style="font-style:normal;font-variant:normal;font-weight:bold;font-stretch:normal;font-size:12.5px;font-family:Roboto;-inkscape-font-specification:Roboto">API</tspan></text>
          <rect
             style="fill:#a7ffeb;fill-opacity:1;stroke:#000000;stroke-width:2;stroke-miterlimit:4;stroke-dasharray:none;stroke-dashoffset:0;stroke-opacity:1"
             id="rect4875-2-5-2-0-1-6-5"
             width="72.813637"
             height="17.952511"
             x="462.48672"
             y="191.67499"
             ry="2.3896999" />
          <text
             xml:space="preserve"
             style="font-style:normal;font-weight:normal;font-size:40px;line-height:125%;font-family:sans-serif;letter-spacing:0px;word-spacing:0px;fill:#000000;fill-opacity:1;stroke:none;stroke-width:1px;stroke-linecap:butt;stroke-linejoin:miter;stroke-opacity:1"
             x="476.93311"
             y="203.92883"
             id="text4943-3-03-1-7-1-0-1"><tspan
               sodipodi:role="line"
               id="tspan4945-6-610-2-3-9-7-0"
               x="476.93311"
               y="203.92883"
               style="font-style:normal;font-variant:normal;font-weight:bold;font-stretch:normal;font-size:12.5px;font-family:Roboto;-inkscape-font-specification:Roboto">registry</tspan></text>
        </g>
        <g
           id="g4430"
           transform="translate(-0.04818726,-1.156268)">
          <rect
             style="fill:#ff7043;fill-opacity:1;stroke:#000000;stroke-width:2;stroke-miterlimit:4;stroke-dasharray:none;stroke-dashoffset:0;stroke-opacity:1"
             id="rect4875-2-5-8-2-9"
             width="83.167732"
             height="68.035583"
             x="457.53748"
             y="221.65634"
             ry="2.3896999" />
          <text
             xml:space="preserve"
             style="font-style:normal;font-weight:normal;font-size:40px;line-height:125%;font-family:sans-serif;letter-spacing:0px;word-spacing:0px;fill:#000000;fill-opacity:1;stroke:none;stroke-width:1px;stroke-linecap:butt;stroke-linejoin:miter;stroke-opacity:1"
             x="461.71249"
             y="234.11465"
             id="text4943-3-03-5-0-3"><tspan
               sodipodi:role="line"
               id="tspan4945-6-610-8-2-7"
               x="461.71249"
               y="234.11465"
               style="font-style:normal;font-variant:normal;font-weight:bold;font-stretch:normal;font-size:12.5px;font-family:Roboto;-inkscape-font-specification:Roboto">Nova</tspan></text>
          <rect
             style="fill:#a7ffeb;fill-opacity:1;stroke:#000000;stroke-width:2;stroke-miterlimit:4;stroke-dasharray:none;stroke-dashoffset:0;stroke-opacity:1"
             id="rect4875-2-5-2-6-0-8"
             width="72.813637"
             height="17.952511"
             x="462.48672"
             y="242.93045"
             ry="2.3896999" />
          <text
             xml:space="preserve"
             style="font-style:normal;font-weight:normal;font-size:40px;line-height:125%;font-family:sans-serif;letter-spacing:0px;word-spacing:0px;fill:#000000;fill-opacity:1;stroke:none;stroke-width:1px;stroke-linecap:butt;stroke-linejoin:miter;stroke-opacity:1"
             x="489.26221"
             y="256.28903"
             id="text4943-3-03-1-0-9-7"><tspan
               sodipodi:role="line"
               id="tspan4945-6-610-2-6-9-4"
               x="489.26221"
               y="256.28903"
               style="font-style:normal;font-variant:normal;font-weight:bold;font-stretch:normal;font-size:12.5px;font-family:Roboto;-inkscape-font-specification:Roboto">API</tspan></text>
          <rect
             style="fill:#a7ffeb;fill-opacity:1;stroke:#000000;stroke-width:2;stroke-miterlimit:4;stroke-dasharray:none;stroke-dashoffset:0;stroke-opacity:1"
             id="rect4875-2-5-2-0-1-6-5-1"
             width="72.813637"
             height="17.952511"
             x="462.48672"
             y="266.03326"
             ry="2.3896999" />
          <text
             xml:space="preserve"
             style="font-style:normal;font-weight:normal;font-size:40px;line-height:125%;font-family:sans-serif;letter-spacing:0px;word-spacing:0px;fill:#000000;fill-opacity:1;stroke:none;stroke-width:1px;stroke-linecap:butt;stroke-linejoin:miter;stroke-opacity:1"
             x="471.08899"
             y="278.28711"
             id="text4943-3-03-1-7-1-0-1-9"><tspan
               sodipodi:role="line"
               id="tspan4945-6-610-2-3-9-7-0-0"
               x="471.08899"
               y="278.28711"
               style="font-style:normal;font-variant:normal;font-weight:bold;font-stretch:normal;font-size:12.5px;font-family:Roboto;-inkscape-font-specification:Roboto">scheduler</tspan></text>
        </g>
      </g>
      <g
         transform="translate(-12)"
         id="g4533">
        <g
           id="g4401"
           transform="translate(104.5432,-183.41415)">
          <rect
             style="fill:#ff7043;fill-opacity:1;stroke:#000000;stroke-width:2;stroke-miterlimit:4;stroke-dasharray:none;stroke-dashoffset:0;stroke-opacity:1"
             id="rect4875-2-5-8-2-9-5"
             width="82.662567"
             height="152.8884"
             x="456.54764"
             y="308.71222"
             ry="2.3896999" />
          <text
             xml:space="preserve"
             style="font-style:normal;font-weight:normal;font-size:40px;line-height:125%;font-family:sans-serif;letter-spacing:0px;word-spacing:0px;fill:#000000;fill-opacity:1;stroke:none;stroke-width:1px;stroke-linecap:butt;stroke-linejoin:miter;stroke-opacity:1"
             x="460.72266"
             y="321.17053"
             id="text4943-3-03-5-0-3-6"><tspan
               sodipodi:role="line"
               id="tspan4945-6-610-8-2-7-2"
               x="460.72266"
               y="321.17053"
               style="font-style:normal;font-variant:normal;font-weight:bold;font-stretch:normal;font-size:12.5px;font-family:Roboto;-inkscape-font-specification:Roboto">Neutron</tspan></text>
          <g
             id="g4371">
            <rect
               ry="2.3896999"
               y="329.98633"
               x="461.49689"
               height="17.952511"
               width="72.813637"
               id="rect4875-2-5-2-6-0-8-9"
               style="fill:#a7ffeb;fill-opacity:1;stroke:#000000;stroke-width:2;stroke-miterlimit:4;stroke-dasharray:none;stroke-dashoffset:0;stroke-opacity:1" />
            <text
               id="text4943-3-03-1-0-9-7-1"
               y="343.34491"
               x="488.27237"
               style="font-style:normal;font-weight:normal;font-size:40px;line-height:125%;font-family:sans-serif;letter-spacing:0px;word-spacing:0px;fill:#000000;fill-opacity:1;stroke:none;stroke-width:1px;stroke-linecap:butt;stroke-linejoin:miter;stroke-opacity:1"
               xml:space="preserve"><tspan
                 style="font-style:normal;font-variant:normal;font-weight:bold;font-stretch:normal;font-size:12.5px;font-family:Roboto;-inkscape-font-specification:Roboto"
                 y="343.34491"
                 x="488.27237"
                 id="tspan4945-6-610-2-6-9-4-2"
                 sodipodi:role="line">API</tspan></text>
          </g>
          <g
             transform="translate(0,-0.52410889)"
             id="g4376">
            <rect
               ry="2.3896999"
               y="351.832"
               x="461.49689"
               height="17.952511"
               width="72.813637"
               id="rect4875-2-5-2-6-0-8-9-9"
               style="fill:#a7ffeb;fill-opacity:1;stroke:#000000;stroke-width:2;stroke-miterlimit:4;stroke-dasharray:none;stroke-dashoffset:0;stroke-opacity:1" />
            <text
               id="text4943-3-03-1-0-9-7-1-2"
               y="365.19058"
               x="471.03604"
               style="font-style:normal;font-weight:normal;font-size:40px;line-height:125%;font-family:sans-serif;letter-spacing:0px;word-spacing:0px;fill:#000000;fill-opacity:1;stroke:none;stroke-width:1px;stroke-linecap:butt;stroke-linejoin:miter;stroke-opacity:1"
               xml:space="preserve"><tspan
                 style="font-style:normal;font-variant:normal;font-weight:bold;font-stretch:normal;font-size:12.5px;font-family:Roboto;-inkscape-font-specification:Roboto"
                 y="365.19058"
                 x="471.03604"
                 id="tspan4945-6-610-2-6-9-4-2-0"
                 sodipodi:role="line">Metadata</tspan></text>
          </g>
          <g
             transform="translate(0,0.07354736)"
             id="g4386">
            <rect
               ry="2.3896999"
               y="372.93481"
               x="461.49689"
               height="17.952511"
               width="72.813637"
               id="rect4875-2-5-2-0-1-6-5-1-7-2"
               style="fill:#a7ffeb;fill-opacity:1;stroke:#000000;stroke-width:2;stroke-miterlimit:4;stroke-dasharray:none;stroke-dashoffset:0;stroke-opacity:1" />
            <text
               id="text4943-3-03-1-7-1-0-1-9-0-3"
               y="385.18866"
               x="484.10062"
               style="font-style:normal;font-weight:normal;font-size:40px;line-height:125%;font-family:sans-serif;letter-spacing:0px;word-spacing:0px;fill:#000000;fill-opacity:1;stroke:none;stroke-width:1px;stroke-linecap:butt;stroke-linejoin:miter;stroke-opacity:1"
               xml:space="preserve"><tspan
                 style="font-style:normal;font-variant:normal;font-weight:bold;font-stretch:normal;font-size:12.5px;font-family:Roboto;-inkscape-font-specification:Roboto"
                 y="385.18866"
                 x="484.10062"
                 id="tspan4945-6-610-2-3-9-7-0-0-9-75"
                 sodipodi:role="line">dhcp</tspan></text>
          </g>
          <g
             transform="translate(0,-5.357666)"
             id="g4381">
            <rect
               ry="2.3896999"
               y="400.06644"
               x="461.49689"
               height="17.952511"
               width="72.813637"
               id="rect4875-2-5-2-0-1-6-5-1-7-3-9"
               style="fill:#a7ffeb;fill-opacity:1;stroke:#000000;stroke-width:2;stroke-miterlimit:4;stroke-dasharray:none;stroke-dashoffset:0;stroke-opacity:1" />
            <text
               id="text4943-3-03-1-7-1-0-1-9-0-6-2"
               y="412.32028"
               x="492.5784"
               style="font-style:normal;font-weight:normal;font-size:40px;line-height:125%;font-family:sans-serif;letter-spacing:0px;word-spacing:0px;fill:#000000;fill-opacity:1;stroke:none;stroke-width:1px;stroke-linecap:butt;stroke-linejoin:miter;stroke-opacity:1"
               xml:space="preserve"><tspan
                 style="font-style:normal;font-variant:normal;font-weight:bold;font-stretch:normal;font-size:12.5px;font-family:Roboto;-inkscape-font-specification:Roboto"
                 y="412.32028"
                 x="492.5784"
                 id="tspan4945-6-610-2-3-9-7-0-0-9-0-2"
                 sodipodi:role="line">l3</tspan></text>
          </g>
          <g
             transform="translate(0,-11.436462)"
             id="g4391">
            <rect
               ry="2.3896999"
               y="427.84564"
               x="461.49689"
               height="17.952511"
               width="72.813637"
               id="rect4875-2-5-2-0-1-6-5-1-7-6-8"
               style="fill:#a7ffeb;fill-opacity:1;stroke:#000000;stroke-width:2;stroke-miterlimit:4;stroke-dasharray:none;stroke-dashoffset:0;stroke-opacity:1" />
            <text
               id="text4943-3-03-1-7-1-0-1-9-0-2-9"
               y="440.09949"
               x="471.16727"
               style="font-style:normal;font-weight:normal;font-size:40px;line-height:125%;font-family:sans-serif;letter-spacing:0px;word-spacing:0px;fill:#000000;fill-opacity:1;stroke:none;stroke-width:1px;stroke-linecap:butt;stroke-linejoin:miter;stroke-opacity:1"
               xml:space="preserve"><tspan
                 style="font-style:normal;font-variant:normal;font-weight:bold;font-stretch:normal;font-size:12.5px;font-family:Roboto;-inkscape-font-specification:Roboto"
                 y="440.09949"
                 x="471.16727"
                 id="tspan4945-6-610-2-3-9-7-0-0-9-6-7"
                 sodipodi:role="line">metadata</tspan></text>
          </g>
          <g
             transform="translate(0,-14.484771)"
             id="g4396">
            <rect
               ry="2.3896999"
               y="452.59436"
               x="461.49689"
               height="17.952511"
               width="72.813637"
               id="rect4875-2-5-2-0-1-6-5-1-7-1-3"
               style="fill:#a7ffeb;fill-opacity:1;stroke:#000000;stroke-width:2;stroke-miterlimit:4;stroke-dasharray:none;stroke-dashoffset:0;stroke-opacity:1" />
            <text
               id="text4943-3-03-1-7-1-0-1-9-0-8-6"
               y="464.84818"
               x="488.06485"
               style="font-style:normal;font-weight:normal;font-size:40px;line-height:125%;font-family:sans-serif;letter-spacing:0px;word-spacing:0px;fill:#000000;fill-opacity:1;stroke:none;stroke-width:1px;stroke-linecap:butt;stroke-linejoin:miter;stroke-opacity:1"
               xml:space="preserve"><tspan
                 style="font-style:normal;font-variant:normal;font-weight:bold;font-stretch:normal;font-size:12.5px;font-family:Roboto;-inkscape-font-specification:Roboto"
                 y="464.84818"
                 x="488.06485"
                 id="tspan4945-6-610-2-3-9-7-0-0-9-7-1"
                 sodipodi:role="line">ovs</tspan></text>
          </g>
        </g>
        <g
           id="g4503"
           transform="translate(83.357889,5.0507627)">
          <rect
             style="fill:#ff7043;fill-opacity:1;stroke:#000000;stroke-width:2;stroke-miterlimit:4;stroke-dasharray:none;stroke-dashoffset:0;stroke-opacity:1"
             id="rect4875-2-5-8-2-93"
             width="82.66259"
             height="44.296997"
             x="477.76083"
             y="278.40762"
             ry="2.3896999" />
          <text
             xml:space="preserve"
             style="font-style:normal;font-weight:normal;font-size:40px;line-height:125%;font-family:sans-serif;letter-spacing:0px;word-spacing:0px;fill:#000000;fill-opacity:1;stroke:none;stroke-width:1px;stroke-linecap:butt;stroke-linejoin:miter;stroke-opacity:1"
             x="481.93585"
             y="290.86594"
             id="text4943-3-03-5-0-1"><tspan
               sodipodi:role="line"
               id="tspan4945-6-610-8-2-9"
               x="481.93585"
               y="290.86594"
               style="font-style:normal;font-variant:normal;font-weight:bold;font-stretch:normal;font-size:12.5px;font-family:Roboto;-inkscape-font-specification:Roboto">Kuryr</tspan></text>
          <rect
             style="fill:#a7ffeb;fill-opacity:1;stroke:#000000;stroke-width:2;stroke-miterlimit:4;stroke-dasharray:none;stroke-dashoffset:0;stroke-opacity:1"
             id="rect4875-2-5-2-6-0-4"
             width="72.813637"
             height="17.952511"
             x="482.75827"
             y="299.68173"
             ry="2.3896999" />
          <text
             xml:space="preserve"
             style="font-style:normal;font-weight:normal;font-size:40px;line-height:125%;font-family:sans-serif;letter-spacing:0px;word-spacing:0px;fill:#000000;fill-opacity:1;stroke:none;stroke-width:1px;stroke-linecap:butt;stroke-linejoin:miter;stroke-opacity:1"
             x="491.53375"
             y="313.04031"
             id="text4943-3-03-1-0-9-78"><tspan
               sodipodi:role="line"
               id="tspan4945-6-610-2-6-9-45"
               x="491.53375"
               y="313.04031"
               style="font-style:normal;font-variant:normal;font-weight:bold;font-stretch:normal;font-size:12.5px;font-family:Roboto;-inkscape-font-specification:Roboto">Controller</tspan></text>
        </g>
      </g>
    </g>
    <g
       id="g5161">
      <g
         id="g5156">
        <rect
           style="fill:#4caf50;fill-opacity:1;stroke:#000000;stroke-width:2;stroke-miterlimit:4;stroke-dasharray:none;stroke-dashoffset:0;stroke-opacity:1"
           id="rect4875-3-0-7-4"
           width="92.308723"
           height="127.09267"
           x="169.35559"
           y="306.8945"
           ry="2.3896999" />
        <text
           id="text4943-3-03-7-88-2-6-2-7"
           y="320.81625"
           x="197.80615"
           style="font-style:normal;font-weight:normal;font-size:40px;line-height:125%;font-family:sans-serif;letter-spacing:0px;word-spacing:0px;fill:#000000;fill-opacity:1;stroke:none;stroke-width:1px;stroke-linecap:butt;stroke-linejoin:miter;stroke-opacity:1"
           xml:space="preserve"><tspan
             id="tspan5508-6-4-6-4"
             style="font-style:normal;font-variant:normal;font-weight:bold;font-stretch:normal;font-size:12.5px;font-family:Roboto;-inkscape-font-specification:Roboto;text-align:center;text-anchor:middle"
             y="320.81625"
             x="197.80615"
             sodipodi:role="line">r510-02</tspan></text>
      </g>
      <g
         transform="translate(0,-82)"
         id="g4940">
        <rect
           ry="2.3896999"
           y="414.94537"
           x="173.48929"
           height="44.296997"
           width="83.167725"
           id="rect4875-2-5-8-2-9-9"
           style="fill:#ff7043;fill-opacity:1;stroke:#000000;stroke-width:2;stroke-miterlimit:4;stroke-dasharray:none;stroke-dashoffset:0;stroke-opacity:1" />
        <text
           id="text4943-3-03-5-0-3-2"
           y="427.40369"
           x="177.66431"
           style="font-style:normal;font-weight:normal;font-size:40px;line-height:125%;font-family:sans-serif;letter-spacing:0px;word-spacing:0px;fill:#000000;fill-opacity:1;stroke:none;stroke-width:1px;stroke-linecap:butt;stroke-linejoin:miter;stroke-opacity:1"
           xml:space="preserve"><tspan
             style="font-style:normal;font-variant:normal;font-weight:bold;font-stretch:normal;font-size:12.5px;font-family:Roboto;-inkscape-font-specification:Roboto"
             y="427.40369"
             x="177.66431"
             id="tspan4945-6-610-8-2-7-0"
             sodipodi:role="line">Nova</tspan></text>
        <rect
           ry="2.3896999"
           y="436.21948"
           x="178.43854"
           height="17.952511"
           width="72.813637"
           id="rect4875-2-5-2-6-0-8-6"
           style="fill:#a7ffeb;fill-opacity:1;stroke:#000000;stroke-width:2;stroke-miterlimit:4;stroke-dasharray:none;stroke-dashoffset:0;stroke-opacity:1" />
        <text
           id="text4943-3-03-1-0-9-7-8"
           y="449.57806"
           x="189.21402"
           style="font-style:normal;font-weight:normal;font-size:40px;line-height:125%;font-family:sans-serif;letter-spacing:0px;word-spacing:0px;fill:#000000;fill-opacity:1;stroke:none;stroke-width:1px;stroke-linecap:butt;stroke-linejoin:miter;stroke-opacity:1"
           xml:space="preserve"><tspan
             style="font-style:normal;font-variant:normal;font-weight:bold;font-stretch:normal;font-size:12.5px;font-family:Roboto;-inkscape-font-specification:Roboto"
             y="449.57806"
             x="189.21402"
             id="tspan4945-6-610-2-6-9-4-9"
             sodipodi:role="line">Compute</tspan></text>
      </g>
      <g
         id="g5146">
        <g
           id="g4922"
           transform="translate(-91.601562,72)">
          <rect
             style="fill:#ff7043;fill-opacity:1;stroke:#000000;stroke-width:2;stroke-miterlimit:4;stroke-dasharray:none;stroke-dashoffset:0;stroke-opacity:1"
             id="rect4875-2-5-8-2-9-5-5"
             width="82.662567"
             height="45.812225"
             x="265.09085"
             y="311.35031"
             ry="2.3896999" />
          <text
             xml:space="preserve"
             style="font-style:normal;font-weight:normal;font-size:40px;line-height:125%;font-family:sans-serif;letter-spacing:0px;word-spacing:0px;fill:#000000;fill-opacity:1;stroke:none;stroke-width:1px;stroke-linecap:butt;stroke-linejoin:miter;stroke-opacity:1"
             x="269.26587"
             y="323.80862"
             id="text4943-3-03-5-0-3-6-0"><tspan
               sodipodi:role="line"
               id="tspan4945-6-610-8-2-7-2-4"
               x="269.26587"
               y="323.80862"
               style="font-style:normal;font-variant:normal;font-weight:bold;font-stretch:normal;font-size:12.5px;font-family:Roboto;-inkscape-font-specification:Roboto">Neutron</tspan></text>
          <g
             transform="translate(-191.45679,2.63808)"
             id="g4371-8">
            <rect
               ry="2.3896999"
               y="329.98633"
               x="461.49689"
               height="17.952511"
               width="72.813637"
               id="rect4875-2-5-2-6-0-8-9-7"
               style="fill:#a7ffeb;fill-opacity:1;stroke:#000000;stroke-width:2;stroke-miterlimit:4;stroke-dasharray:none;stroke-dashoffset:0;stroke-opacity:1" />
            <text
               id="text4943-3-03-1-0-9-7-1-1"
               y="343.34491"
               x="488.27237"
               style="font-style:normal;font-weight:normal;font-size:40px;line-height:125%;font-family:sans-serif;letter-spacing:0px;word-spacing:0px;fill:#000000;fill-opacity:1;stroke:none;stroke-width:1px;stroke-linecap:butt;stroke-linejoin:miter;stroke-opacity:1"
               xml:space="preserve"><tspan
                 style="font-style:normal;font-variant:normal;font-weight:bold;font-stretch:normal;font-size:12.5px;font-family:Roboto;-inkscape-font-specification:Roboto"
                 y="343.34491"
                 x="488.27237"
                 id="tspan4945-6-610-2-6-9-4-2-7"
                 sodipodi:role="line">ovs</tspan></text>
          </g>
        </g>
      </g>
    </g>
    <g
       id="g5183"
       transform="translate(260,56.857143)">
      <g
         transform="translate(-196.49638,-266.98513)"
         id="g5570-4">
        <rect
           style="fill:#4caf50;fill-opacity:1;stroke:#000000;stroke-width:2;stroke-miterlimit:4;stroke-dasharray:none;stroke-dashoffset:0;stroke-opacity:1"
           id="rect4875-3-0"
           width="106.47186"
           height="151.84135"
           x="505.40332"
           y="347.35953"
           ry="2.3896999" />
        <text
           id="text4943-3-03-7-88-2-6"
           y="361.28128"
           x="533.85388"
           style="font-style:normal;font-weight:normal;font-size:40px;line-height:125%;font-family:sans-serif;letter-spacing:0px;word-spacing:0px;fill:#000000;fill-opacity:1;stroke:none;stroke-width:1px;stroke-linecap:butt;stroke-linejoin:miter;stroke-opacity:1"
           xml:space="preserve"><tspan
             id="tspan5508-6-4"
             style="font-style:normal;font-variant:normal;font-weight:bold;font-stretch:normal;font-size:12.5px;font-family:Roboto;-inkscape-font-specification:Roboto;text-align:center;text-anchor:middle"
             y="361.28128"
             x="533.85388"
             sodipodi:role="line">r730-02</tspan></text>
      </g>
      <g
         id="g15435">
        <g
           id="g15081-4"
           transform="translate(144.89158,-33.731886)">
          <rect
             style="fill:#00bfa5;fill-opacity:1;stroke:#000000;stroke-width:2;stroke-miterlimit:4;stroke-dasharray:none;stroke-dashoffset:0;stroke-opacity:1"
             id="rect4875-2-5-8"
             width="95.036987"
             height="66.015251"
             x="168.14908"
             y="140.56207"
             ry="2.3896999" />
          <text
             xml:space="preserve"
             style="font-style:normal;font-weight:normal;font-size:40px;line-height:125%;font-family:sans-serif;letter-spacing:0px;word-spacing:0px;fill:#000000;fill-opacity:1;stroke:none;stroke-width:1px;stroke-linecap:butt;stroke-linejoin:miter;stroke-opacity:1"
             x="172.32408"
             y="153.02039"
             id="text4943-3-03-5"><tspan
               sodipodi:role="line"
               id="tspan4945-6-610-8"
               x="172.32408"
               y="153.02039"
               style="font-style:normal;font-variant:normal;font-weight:bold;font-stretch:normal;font-size:12.5px;font-family:Roboto;-inkscape-font-specification:Roboto">OpenShift node</tspan></text>
        </g>
        <g
           id="g15406">
          <rect
             style="fill:#a7ffeb;fill-opacity:1;stroke:#000000;stroke-width:2;stroke-miterlimit:4;stroke-dasharray:none;stroke-dashoffset:0;stroke-opacity:1"
             id="rect4875-2-5-2-6"
             width="72.813637"
             height="17.952511"
             x="317.9899"
             y="128.10429"
             ry="2.3896999" />
          <text
             xml:space="preserve"
             style="font-style:normal;font-weight:normal;font-size:40px;line-height:125%;font-family:sans-serif;letter-spacing:0px;word-spacing:0px;fill:#000000;fill-opacity:1;stroke:none;stroke-width:1px;stroke-linecap:butt;stroke-linejoin:miter;stroke-opacity:1"
             x="332.67126"
             y="141.46288"
             id="text4943-3-03-1-0"><tspan
               sodipodi:role="line"
               id="tspan4945-6-610-2-6"
               x="332.67126"
               y="141.46288"
               style="font-style:normal;font-variant:normal;font-weight:bold;font-stretch:normal;font-size:12.5px;font-family:Roboto;-inkscape-font-specification:Roboto">Kubelet</tspan></text>
        </g>
        <g
           id="g15401">
          <rect
             style="fill:#a7ffeb;fill-opacity:1;stroke:#000000;stroke-width:2;stroke-miterlimit:4;stroke-dasharray:none;stroke-dashoffset:0;stroke-opacity:1"
             id="rect4875-2-5-2-0-1-6"
             width="72.813637"
             height="17.952511"
             x="317.9899"
             y="151.20711"
             ry="2.3896999" />
          <text
             xml:space="preserve"
             style="font-style:normal;font-weight:normal;font-size:40px;line-height:125%;font-family:sans-serif;letter-spacing:0px;word-spacing:0px;fill:#000000;fill-opacity:1;stroke:none;stroke-width:1px;stroke-linecap:butt;stroke-linejoin:miter;stroke-opacity:1"
             x="326.53113"
             y="163.46095"
             id="text4943-3-03-1-7-1-0"><tspan
               sodipodi:role="line"
               id="tspan4945-6-610-2-3-9-7"
               x="326.53113"
               y="163.46095"
               style="font-style:normal;font-variant:normal;font-weight:bold;font-stretch:normal;font-size:12.5px;font-family:Roboto;-inkscape-font-specification:Roboto">Kuryr-CNI</tspan></text>
        </g>
      </g>
      <g
         transform="translate(-1.3032747)"
         id="g5009">
        <rect
           ry="2.3896999"
           y="179.45331"
           x="314.34393"
           height="45.812225"
           width="94.805428"
           id="rect4875-2-5-8-2-9-5-5-5"
           style="fill:#ff7043;fill-opacity:1;stroke:#000000;stroke-width:2;stroke-miterlimit:4;stroke-dasharray:none;stroke-dashoffset:0;stroke-opacity:1" />
        <text
           id="text4943-3-03-5-0-3-6-0-6"
           y="191.91162"
           x="318.51895"
           style="font-style:normal;font-weight:normal;font-size:40px;line-height:125%;font-family:sans-serif;letter-spacing:0px;word-spacing:0px;fill:#000000;fill-opacity:1;stroke:none;stroke-width:1px;stroke-linecap:butt;stroke-linejoin:miter;stroke-opacity:1"
           xml:space="preserve"><tspan
             style="font-style:normal;font-variant:normal;font-weight:bold;font-stretch:normal;font-size:12.5px;font-family:Roboto;-inkscape-font-specification:Roboto"
             y="191.91162"
             x="318.51895"
             id="tspan4945-6-610-8-2-7-2-4-3"
             sodipodi:role="line">Neutron</tspan></text>
        <g
           id="g4371-8-9"
           transform="translate(-142.20371,-129.25893)">
          <rect
             style="fill:#a7ffeb;fill-opacity:1;stroke:#000000;stroke-width:2;stroke-miterlimit:4;stroke-dasharray:none;stroke-dashoffset:0;stroke-opacity:1"
             id="rect4875-2-5-2-6-0-8-9-7-4"
             width="72.813637"
             height="17.952511"
             x="461.49689"
             y="329.98633"
             ry="2.3896999" />
          <text
             xml:space="preserve"
             style="font-style:normal;font-weight:normal;font-size:40px;line-height:125%;font-family:sans-serif;letter-spacing:0px;word-spacing:0px;fill:#000000;fill-opacity:1;stroke:none;stroke-width:1px;stroke-linecap:butt;stroke-linejoin:miter;stroke-opacity:1"
             x="488.27237"
             y="343.34491"
             id="text4943-3-03-1-0-9-7-1-1-8"><tspan
               sodipodi:role="line"
               id="tspan4945-6-610-2-6-9-4-2-7-1"
               x="488.27237"
               y="343.34491"
               style="font-style:normal;font-variant:normal;font-weight:bold;font-stretch:normal;font-size:12.5px;font-family:Roboto;-inkscape-font-specification:Roboto">ovs</tspan></text>
        </g>
      </g>
    </g>
    <g
       transform="rotate(90,510.70362,432.05367)"
       id="layer1-9"
       inkscape:label="Layer 1"
       inkscape:transform-center-x="13.070971"
       inkscape:transform-center-y="-1.3886597" />
    <path
       id="path5279-9"
       style="fill:#000000;fill-opacity:1;fill-rule:evenodd;stroke:#000000;stroke-width:2;stroke-linecap:butt;stroke-linejoin:miter;stroke-miterlimit:4;stroke-dasharray:none;stroke-opacity:1"
       d="m 553.54287,379.26599 7.49067,-4.31919 -7.47143,-4.31919 z m -54.31898,-4.31808 h 54.32143"
       inkscape:connector-curvature="0"
       sodipodi:nodetypes="cccccc" />
    <path
       id="path5279-9-8-8"
       style="fill:#000000;fill-opacity:1;fill-rule:evenodd;stroke:#000000;stroke-width:2;stroke-linecap:butt;stroke-linejoin:miter;stroke-miterlimit:4;stroke-dasharray:none;stroke-opacity:1"
       d="m 269.74345,370.62984 -7.49067,4.31919 7.47143,4.31919 z m 37.14176,8.63615 7.49067,-4.31919 -7.47143,-4.31919 z m -36.31898,-4.31808 h 36.32143"
       inkscape:connector-curvature="0"
       sodipodi:nodetypes="cccccccccc" />
    <path
       id="path5279-9-8-8-5"
       style="fill:#000000;fill-opacity:1;fill-rule:evenodd;stroke:#000000;stroke-width:2;stroke-linecap:butt;stroke-linejoin:miter;stroke-miterlimit:4;stroke-dasharray:none;stroke-opacity:1"
       d="m 627.42651,299.07699 -4.31919,-7.49067 -4.31919,7.47144 z m -8.63615,11.14176 4.31919,7.49067 4.31919,-7.47143 z m 4.31808,-10.31898 v 10.32143"
       inkscape:connector-curvature="0"
       sodipodi:nodetypes="cccccccccc" />
  </g>
</svg>
