<?xml version="1.0" encoding="UTF-8" standalone="no"?>
<!-- Created with Inkscape (http://www.inkscape.org/) -->

<svg
   xmlns:dc="http://purl.org/dc/elements/1.1/"
   xmlns:cc="http://creativecommons.org/ns#"
   xmlns:rdf="http://www.w3.org/1999/02/22-rdf-syntax-ns#"
   xmlns:svg="http://www.w3.org/2000/svg"
   xmlns="http://www.w3.org/2000/svg"
   xmlns:sodipodi="http://sodipodi.sourceforge.net/DTD/sodipodi-0.dtd"
   xmlns:inkscape="http://www.inkscape.org/namespaces/inkscape"
   width="511.92975mm"
   height="312.92276mm"
   viewBox="0 0 1813.9244 1108.7814"
   id="svg2"
   version="1.1"
   inkscape:version="0.92.0 r"
   sodipodi:docname="openshift_router.svg"
   inkscape:export-filename="/home/celebdor/Pictures/openshift_router_complete.png"
   inkscape:export-xdpi="87.671799"
   inkscape:export-ydpi="87.671799">
  <defs
     id="defs4">
    <linearGradient
       y2="688.53943"
       x2="431.22809"
       y1="690.01862"
       x1="429.74899"
       gradientUnits="userSpaceOnUse"
       id="SVGID_3_">
      <stop
         id="stop2888"
         style="stop-color:#C63827"
         offset="0" />
      <stop
         id="stop2890"
         style="stop-color:#88221A"
         offset="1" />
    </linearGradient>
    <linearGradient
       y2="660.28339"
       x2="401.867"
       y1="663.08112"
       x1="399.06931"
       gradientUnits="userSpaceOnUse"
       id="SVGID_5_">
      <stop
         id="stop2902"
         style="stop-color:#88221A"
         offset="0" />
      <stop
         id="stop2904"
         style="stop-color:#C43827"
         offset="1" />
    </linearGradient>
    <clipPath
       id="SVGID_6_">
      <path
         inkscape:connector-curvature="0"
         d="m 402.137,666.088 -5.523,-5.463 c 0.002,-1.463 1.193,-2.75 2.659,-2.877 l 5.522,5.463 c -1.463,0.129 -2.655,1.415 -2.658,2.877 z"
         id="use2909" />
    </clipPath>
    <linearGradient
       y2="649.50812"
       x2="428.87079"
       y1="668.42767"
       x1="409.9512"
       gradientUnits="userSpaceOnUse"
       id="SVGID_7_">
      <stop
         id="stop2914"
         style="stop-color:#88221A"
         offset="0" />
      <stop
         id="stop2916"
         style="stop-color:#C43827"
         offset="1" />
    </linearGradient>
  </defs>
  <sodipodi:namedview
     id="base"
     pagecolor="#ffffff"
     bordercolor="#666666"
     borderopacity="1.0"
     inkscape:pageopacity="0.0"
     inkscape:pageshadow="2"
     inkscape:zoom="0.49497475"
     inkscape:cx="1262.0059"
     inkscape:cy="540.39941"
     inkscape:document-units="px"
     inkscape:current-layer="layer1"
     showgrid="false"
     units="mm"
     inkscape:window-width="1920"
     inkscape:window-height="1016"
     inkscape:window-x="0"
     inkscape:window-y="27"
     inkscape:window-maximized="1"
     fit-margin-top="5"
     fit-margin-left="5"
     fit-margin-right="5"
     fit-margin-bottom="5" />
  <metadata
     id="metadata7">
    <rdf:RDF>
      <cc:Work
         rdf:about="">
        <dc:format>image/svg+xml</dc:format>
        <dc:type
           rdf:resource="http://purl.org/dc/dcmitype/StillImage" />
        <dc:title></dc:title>
      </cc:Work>
    </rdf:RDF>
  </metadata>
  <g
     inkscape:label="Layer 1"
     inkscape:groupmode="layer"
     id="layer1"
     transform="translate(12.451043,-111.37067)">
    <rect
       rx="24.348022"
       ry="24.348022"
       y="716.10529"
       x="1375.8309"
       height="204.17"
       width="403.68045"
       id="rect12196-43-7-5-7-7-7-2-3"
       style="opacity:1;fill:#03a9f4;fill-opacity:1;stroke:#1b1b1b;stroke-width:5.35993576;stroke-miterlimit:0.30000001;stroke-dasharray:none;stroke-dashoffset:0;stroke-opacity:1" />
    <g
       id="g7067"
       transform="matrix(1.7866452,0,0,1.7866452,-667.40028,-739.57423)">
      <g
         transform="translate(395.45347,-54.232911)"
         id="g12901">
        <rect
           rx="13.627789"
           ry="13.627789"
           y="669.44775"
           x="749.03607"
           height="192.62384"
           width="225.94319"
           id="rect12196-43-7-5-7-7-7-2"
           style="opacity:1;fill:#03a9f4;fill-opacity:1;stroke:#1b1b1b;stroke-width:3;stroke-miterlimit:0.30000001;stroke-dasharray:none;stroke-dashoffset:0;stroke-opacity:1" />
        <text
           id="text17778-4-1-5-89-2"
           y="711.51056"
           x="755.86987"
           style="font-style:normal;font-weight:normal;font-size:25px;line-height:125%;font-family:Sans;letter-spacing:0px;word-spacing:0px;fill:#000000;fill-opacity:1;stroke:none;stroke-width:1px;stroke-linecap:butt;stroke-linejoin:miter;stroke-opacity:1"
           xml:space="preserve"><tspan
             style="font-style:normal;font-variant:normal;font-weight:bold;font-stretch:normal;font-size:35px;font-family:Roboto;-inkscape-font-specification:'Roboto Bold';fill:#ffffff;fill-opacity:1"
             y="711.51056"
             x="755.86987"
             id="tspan17780-31-0-9-4-5"
             sodipodi:role="line">Worker VM 1</tspan></text>
      </g>
      <g
         transform="translate(-5.5423227)"
         id="g7046">
        <g
           id="g12885"
           transform="translate(395.45347,-64.590054)">
          <g
             id="g12880">
            <rect
               style="opacity:1;fill:#ffc107;fill-opacity:1;stroke:none;stroke-width:1.20000005;stroke-miterlimit:0.30000001;stroke-dasharray:none;stroke-dashoffset:0;stroke-opacity:1"
               id="rect12196-43-7-0-4-2-6-7-6"
               width="50.848278"
               height="53.343899"
               x="763.73541"
               y="731.37518"
               ry="11.074348" />
            <text
               id="text7253-8-96"
               y="769.29712"
               x="789.02771"
               style="font-style:normal;font-weight:normal;font-size:40px;line-height:64.99999762%;font-family:Sans;text-align:center;letter-spacing:0px;word-spacing:0px;text-anchor:middle;fill:#ffffff;fill-opacity:1;stroke:none;stroke-width:1px;stroke-linecap:butt;stroke-linejoin:miter;stroke-opacity:1"
               xml:space="preserve"><tspan
                 id="tspan7257-8-5"
                 style="font-style:normal;font-variant:normal;font-weight:bold;font-stretch:condensed;font-size:30px;line-height:64.99999762%;font-family:'Open Sans Condensed';-inkscape-font-specification:'Open Sans Condensed, Bold Condensed';text-align:center;text-anchor:middle;fill:#ffffff;fill-opacity:1"
                 y="769.29712"
                 x="789.02771"
                 sodipodi:role="line">Pod</tspan></text>
          </g>
          <text
             id="text9474-1-9-3-16"
             style="font-variant:normal;font-weight:normal;font-size:30.02148056px;font-family:'DejaVu Sans';-inkscape-font-specification:DejaVuSans;writing-mode:lr-tb;fill:#ffffff;fill-opacity:1;fill-rule:nonzero;stroke:none"
             x="815.09705"
             y="770.00891"
             inkscape:export-xdpi="266.23114"
             inkscape:export-ydpi="266.23114">
            <tspan
               style="font-style:normal;font-variant:normal;font-weight:bold;font-stretch:normal;font-family:'Roboto Condensed';-inkscape-font-specification:'Roboto Condensed,  Bold'"
               id="tspan9476-3-6-2-2"
               sodipodi:role="line"
               y="770.00891"
               x="815.09705">10.0.0.18/24</tspan>
          </text>
        </g>
        <g
           id="g12893"
           transform="translate(395.45347,-60.232911)">
          <g
             id="g12875">
            <rect
               style="opacity:1;fill:#ffc107;fill-opacity:1;stroke:none;stroke-width:1.20000005;stroke-miterlimit:0.30000001;stroke-dasharray:none;stroke-dashoffset:0;stroke-opacity:1"
               id="rect12196-43-7-0-4-2-6-7-0-4"
               width="50.848278"
               height="53.343899"
               x="763.37231"
               y="789.86072"
               ry="11.074348" />
            <text
               id="text7253-8-9-0"
               y="827.78265"
               x="788.66461"
               style="font-style:normal;font-weight:normal;font-size:40px;line-height:64.99999762%;font-family:Sans;text-align:center;letter-spacing:0px;word-spacing:0px;text-anchor:middle;fill:#ffffff;fill-opacity:1;stroke:none;stroke-width:1px;stroke-linecap:butt;stroke-linejoin:miter;stroke-opacity:1"
               xml:space="preserve"><tspan
                 id="tspan7257-8-9-4"
                 style="font-style:normal;font-variant:normal;font-weight:bold;font-stretch:condensed;font-size:30px;line-height:64.99999762%;font-family:'Open Sans Condensed';-inkscape-font-specification:'Open Sans Condensed, Bold Condensed';text-align:center;text-anchor:middle;fill:#ffffff;fill-opacity:1"
                 y="827.78265"
                 x="788.66461"
                 sodipodi:role="line">Pod</tspan></text>
          </g>
          <text
             id="text9474-1-9-3-1-6"
             style="font-variant:normal;font-weight:normal;font-size:30.02148056px;font-family:'DejaVu Sans';-inkscape-font-specification:DejaVuSans;writing-mode:lr-tb;fill:#ffffff;fill-opacity:1;fill-rule:nonzero;stroke:none"
             x="815.46014"
             y="827.21906"
             inkscape:export-xdpi="266.23114"
             inkscape:export-ydpi="266.23114">
            <tspan
               style="font-style:normal;font-variant:normal;font-weight:bold;font-stretch:normal;font-family:'Roboto Condensed';-inkscape-font-specification:'Roboto Condensed,  Bold'"
               id="tspan9476-3-6-2-7-83"
               sodipodi:role="line"
               y="827.21906"
               x="815.46014">10.0.0.5/24</tspan>
          </text>
        </g>
      </g>
    </g>
    <text
       id="text17778-4-1-5-89-2-8"
       y="780.75037"
       x="1396.1189"
       style="font-style:normal;font-weight:normal;font-size:44.66613007px;line-height:125%;font-family:Sans;letter-spacing:0px;word-spacing:0px;fill:#000000;fill-opacity:1;stroke:none;stroke-width:1.78664517px;stroke-linecap:butt;stroke-linejoin:miter;stroke-opacity:1"
       xml:space="preserve"><tspan
         style="font-style:normal;font-variant:normal;font-weight:bold;font-stretch:normal;font-size:62.53258514px;font-family:Roboto;-inkscape-font-specification:'Roboto Bold';fill:#ffffff;fill-opacity:1;stroke-width:1.78664517px"
         y="780.75037"
         x="1396.1189"
         id="tspan17780-31-0-9-4-5-5"
         sodipodi:role="line">Worker VM 2</tspan></text>
    <g
       id="g7030"
       transform="matrix(1.7866452,0,0,1.7866452,-679.30957,-729.52434)">
      <g
         transform="translate(-11.515158,-22.5)"
         id="g6983">
        <rect
           style="opacity:1;fill:#ffc107;fill-opacity:1;stroke:none;stroke-width:1.20000005;stroke-miterlimit:0.30000001;stroke-dasharray:none;stroke-dashoffset:0;stroke-opacity:1"
           id="rect12196-43-7-0-4-2-6-7-2-2"
           width="50.848278"
           height="53.343899"
           x="1170.3409"
           y="886.97021"
           ry="11.074348" />
        <text
           id="text7253-8-4-3"
           y="924.89215"
           x="1195.6332"
           style="font-style:normal;font-weight:normal;font-size:40px;line-height:64.99999762%;font-family:Sans;text-align:center;letter-spacing:0px;word-spacing:0px;text-anchor:middle;fill:#ffffff;fill-opacity:1;stroke:none;stroke-width:1px;stroke-linecap:butt;stroke-linejoin:miter;stroke-opacity:1"
           xml:space="preserve"><tspan
             id="tspan7257-8-4-4"
             style="font-style:normal;font-variant:normal;font-weight:bold;font-stretch:condensed;font-size:30px;line-height:64.99999762%;font-family:'Open Sans Condensed';-inkscape-font-specification:'Open Sans Condensed, Bold Condensed';text-align:center;text-anchor:middle;fill:#ffffff;fill-opacity:1"
             y="924.89215"
             x="1195.6332"
             sodipodi:role="line">Pod</tspan></text>
      </g>
      <text
         id="text9474-1-9-3-1-1-7"
         style="font-variant:normal;font-weight:normal;font-size:30.02148056px;font-family:'DejaVu Sans';-inkscape-font-specification:DejaVuSans;writing-mode:lr-tb;fill:#ffffff;fill-opacity:1;fill-rule:nonzero;stroke:none"
         x="1211.0448"
         y="901.82855"
         inkscape:export-xdpi="266.23114"
         inkscape:export-ydpi="266.23114">
        <tspan
           style="font-style:normal;font-variant:normal;font-weight:bold;font-stretch:normal;font-family:'Roboto Condensed';-inkscape-font-specification:'Roboto Condensed,  Bold'"
           id="tspan9476-3-6-2-7-3-3"
           sodipodi:role="line"
           y="901.82855"
           x="1211.0448">10.0.0.17/24</tspan>
      </text>
    </g>
    <text
       id="text9474-1-9-3-1-9-8"
       style="font-variant:normal;font-weight:normal;font-size:53.63773346px;font-family:'DejaVu Sans';-inkscape-font-specification:DejaVuSans;writing-mode:lr-tb;fill:#000000;fill-opacity:1;fill-rule:nonzero;stroke:none;stroke-width:1.78664517;stroke-opacity:1"
       x="1.1536151"
       y="822.97437"
       inkscape:export-xdpi="266.23114"
       inkscape:export-ydpi="266.23114">
      <tspan
         style="font-style:normal;font-variant:normal;font-weight:bold;font-stretch:normal;font-family:'Roboto Condensed';-inkscape-font-specification:'Roboto Condensed,  Bold';fill:#000000;fill-opacity:1;stroke:none;stroke-width:1.78664517;stroke-opacity:1"
         id="tspan9476-3-6-2-7-8-6"
         sodipodi:role="line"
         y="822.97437"
         x="1.1536151">172.30.18.101/16</tspan>
    </text>
    <text
       id="text9474-1-9-3-1-9-9-8"
       style="font-variant:normal;font-weight:normal;font-size:53.63773346px;font-family:'DejaVu Sans';-inkscape-font-specification:DejaVuSans;writing-mode:lr-tb;fill:#000000;fill-opacity:1;fill-rule:nonzero;stroke:none;stroke-width:1.78664517;stroke-opacity:1"
       x="71.364319"
       y="772.42084"
       inkscape:export-xdpi="266.23114"
       inkscape:export-ydpi="266.23114">
      <tspan
         style="font-style:normal;font-variant:normal;font-weight:bold;font-stretch:normal;font-family:Roboto;-inkscape-font-specification:'Roboto Bold';fill:#000000;fill-opacity:1;stroke:none;stroke-width:1.78664517;stroke-opacity:1"
         id="tspan9476-3-6-2-7-8-9-3"
         sodipodi:role="line"
         y="772.42084"
         x="71.364319">ROUTER VIP</tspan>
    </text>
    <g
       id="g7275"
       transform="matrix(1.7866452,0,0,1.7866452,-667.40028,-739.57423)">
      <g
         transform="translate(724.88178,39.581765)"
         id="g7281">
        <rect
           ry="14.902745"
           y="673.54578"
           x="114.597"
           height="172.04094"
           width="199.91472"
           id="rect12196-43-7-5-7-7-7"
           style="opacity:1;fill:#03a9f4;fill-opacity:1;stroke:#1b1b1b;stroke-width:3;stroke-miterlimit:0.30000001;stroke-dasharray:none;stroke-dashoffset:0;stroke-opacity:1"
           rx="14.902745" />
      </g>
      <g
         transform="translate(0,22.5)"
         id="g7233">
        <g
           id="g24874"
           transform="matrix(0.06199563,0,0,0.06199563,1000.9106,725.92174)">
          <path
             transform="translate(-2446.4,-488.95)"
             d="m 825.89,119.83 c -14.78,0 -28.02,1.97 -39.74,5.92 -11.72,3.82 -22.1,9.11 -31.14,15.86 -8.92,6.62 -16.56,14.52 -22.93,23.69 -6.37,9.04 -11.59,18.85 -15.67,29.42 -3.95,10.45 -6.87,21.4 -8.79,32.87 -1.78,11.33 -2.67,22.61 -2.67,33.81 0,11.34 0.89,22.74 2.67,34.2 1.92,11.34 4.84,22.29 8.79,32.86 4.08,10.45 9.3,20.26 15.67,29.43 6.37,9.04 14.01,16.94 22.93,23.69 9.04,6.62 19.42,11.91 31.14,15.86 11.72,3.82 24.97,5.73 39.74,5.73 14.78,0 27.96,-1.91 39.55,-5.73 11.72,-3.95 22.04,-9.24 30.95,-15.86 8.92,-6.75 16.56,-14.65 22.93,-23.69 6.37,-9.17 11.53,-18.98 15.48,-29.43 4.07,-10.57 7,-21.52 8.79,-32.86 1.91,-11.46 2.86,-22.86 2.86,-34.2 0,-11.2 -0.95,-22.48 -2.86,-33.81 -1.79,-11.47 -4.72,-22.42 -8.79,-32.87 -3.95,-10.57 -9.11,-20.38 -15.48,-29.42 -6.37,-9.17 -14.01,-17.07 -22.93,-23.69 -8.91,-6.75 -19.23,-12.04 -30.95,-15.86 -11.59,-3.95 -24.77,-5.92 -39.55,-5.92 z m 1065.9,0 c -13.9,0 -26.3,1.91 -37.1,5.73 -10.8,3.83 -19.9,9.05 -27.3,15.67 -7.4,6.5 -13.1,14.08 -17,22.74 -3.8,8.66 -5.8,17.83 -5.8,27.51 0,11.59 2.1,21.4 6.2,29.43 4,8.02 9.4,14.9 16,20.63 6.6,5.73 14.2,10.57 22.6,14.52 8.5,3.95 17.2,7.52 25.9,10.7 9,3.18 17.6,6.31 26,9.36 8.6,3.06 16.1,6.63 22.8,10.7 6.6,4.08 11.9,8.92 16,14.52 4.1,5.48 6.1,12.3 6.1,20.45 0,6.88 -1.2,12.99 -3.6,18.34 -2.4,5.22 -5.8,9.62 -10.1,13.18 -4.4,3.57 -9.6,6.24 -15.7,8.03 -6.1,1.78 -12.9,2.67 -20.2,2.67 -7.4,0 -14.4,-1.02 -20.9,-3.06 -6.3,-2.03 -12.2,-4.84 -17.6,-8.4 -5.3,-3.7 -10.1,-8.09 -14.3,-13.19 -4.1,-5.09 -7.5,-10.7 -10.3,-16.81 l -38.4,13.95 c 3.4,10.19 8.3,19.42 14.5,27.7 6.3,8.15 13.6,15.16 22.2,21.02 8.6,5.73 18.3,10.13 28.8,13.18 10.7,3.19 22.2,4.78 34.4,4.78 13.1,0 25.4,-1.79 36.7,-5.35 11.5,-3.7 21.4,-8.98 29.8,-15.86 8.4,-7.01 15,-15.54 19.7,-25.6 4.8,-10.19 7.3,-21.85 7.3,-34.97 0,-12.35 -2.1,-22.93 -6.2,-31.71 -4,-8.92 -9.4,-16.5 -16,-22.74 -6.6,-6.37 -14.2,-11.72 -22.7,-16.05 -8.5,-4.46 -17.1,-8.34 -26,-11.66 -8.8,-3.44 -17.5,-6.56 -26,-9.36 -8.4,-2.93 -15.9,-6.11 -22.6,-9.55 -6.6,-3.44 -11.9,-7.39 -16,-11.85 -4.1,-4.58 -6.1,-10.12 -6.1,-16.62 0,-10.44 3.7,-18.53 11.1,-24.26 7.3,-5.74 17.6,-8.6 30.7,-8.6 6.6,0 12.6,0.7 18,2.1 5.5,1.4 10.3,3.38 14.5,5.92 4.2,2.42 7.8,5.35 10.7,8.79 2.9,3.31 5.2,6.94 6.9,10.89 v 0.01 l 37.6,-12.61 c -2.4,-7.77 -6,-14.97 -10.7,-21.59 -4.7,-6.63 -10.6,-12.36 -17.8,-17.2 -7,-4.84 -15.2,-8.6 -24.6,-11.27 -9.4,-2.81 -19.9,-4.21 -31.5,-4.21 z m 748.2,4.58 v 39.17 h 77.5 V 398.4 h 40.7 V 163.58 h 77.4 v -39.17 z m -1632.6,0.02 v 273.97 0.01 h 52.9 V 297.53 h 64.6 c 11,0 21,-1.21 30,-3.63 9,-2.42 17,-5.74 23.8,-9.94 7,-4.33 13,-9.3 18,-14.9 5,-5.61 9,-11.59 12.2,-17.96 3.2,-6.5 5.6,-13.12 7.1,-19.87 1.5,-6.88 2.3,-13.63 2.3,-20.25 0,-10.58 -1.7,-21.02 -5,-31.34 -3.2,-10.31 -8.4,-19.55 -15.8,-27.7 -7.4,-8.28 -17,-14.9 -28.9,-19.87 -11.8,-5.1 -26.4,-7.64 -43.7,-7.64 z m 262.3,0 v 273.97 0.01 h 195.2 v -50.06 h -142.3 v -66.11 h 78.9 v -50.05 h -78.9 v -57.51 h 134.1 v -50.25 z m 252.2,0 V 398.4 h 52.5 V 238.67 c 0,-2.93 -0.1,-6.37 -0.4,-10.32 -0.1,-3.95 -0.3,-7.38 -0.7,-10.31 1.5,3.31 3.3,6.94 5.3,10.89 2.2,3.82 4.2,7.07 5.9,9.74 l 108.8,159.73 h 47 V 124.43 h -52.4 v 157.81 c 0,2.55 0.1,5.74 0.2,9.56 0.3,3.69 0.6,7.39 1,11.08 -1.7,-3.57 -3.6,-7.26 -5.8,-11.08 -2.1,-3.82 -4.1,-7.01 -5.7,-9.56 l -106,-157.81 z m 524.9,0 V 398.4 h 40.7 V 276.31 h 125 V 398.4 h 40.6 V 124.43 h -40.6 v 113.49 h -125 V 124.43 Z m 278.8,0 V 398.4 h 40.7 V 124.43 Z m 113.3,0 v 273.97 0.01 h 40.7 V 276.32 h 83.5 v -38.4 h -83.5 v -75.09 h 129.1 v -38.4 z m 452.2,1.77 c -1.7,0 -3.4,0.22 -5,0.65 -1.6,0.42 -3.1,1.03 -4.4,1.82 -1.4,0.79 -2.6,1.74 -3.7,2.85 -1.2,1.11 -2.1,2.36 -2.9,3.74 -0.8,1.37 -1.4,2.85 -1.8,4.44 -0.5,1.58 -0.7,3.25 -0.7,4.99 0,2.63 0.5,5.08 1.4,7.34 1,2.25 2.3,4.2 4,5.86 1.6,1.65 3.6,2.95 5.8,3.9 2.3,0.94 4.7,1.42 7.3,1.42 1.8,0 3.4,-0.22 5,-0.65 1.6,-0.43 3.1,-1.04 4.5,-1.82 1.3,-0.78 2.6,-1.73 3.7,-2.85 1.1,-1.13 2.1,-2.38 2.9,-3.74 0.8,-1.36 1.4,-2.84 1.8,-4.44 0.4,-1.6 0.6,-3.27 0.6,-5.02 0,-1.74 -0.2,-3.41 -0.6,-4.99 -0.4,-1.59 -1,-3.07 -1.8,-4.44 -0.8,-1.38 -1.8,-2.63 -2.9,-3.74 -1.1,-1.11 -2.4,-2.06 -3.7,-2.85 -1.4,-0.79 -2.9,-1.4 -4.5,-1.82 -1.6,-0.43 -3.2,-0.65 -5,-0.65 z m 0,3.67 c 2.1,0 4.1,0.38 5.9,1.15 1.7,0.75 3.3,1.79 4.6,3.12 1.3,1.31 2.3,2.88 3,4.69 0.7,1.8 1.1,3.75 1.1,5.86 0,2.12 -0.4,4.08 -1.1,5.89 -0.7,1.8 -1.7,3.36 -3,4.69 -1.3,1.32 -2.9,2.36 -4.6,3.12 -1.8,0.75 -3.8,1.13 -5.9,1.13 -2.1,0 -4,-0.38 -5.8,-1.13 -1.8,-0.76 -3.3,-1.8 -4.6,-3.12 -1.3,-1.33 -2.3,-2.89 -3,-4.69 -0.8,-1.81 -1.1,-3.77 -1.1,-5.89 0,-2.11 0.3,-4.06 1.1,-5.86 0.7,-1.81 1.7,-3.38 3,-4.69 1.3,-1.33 2.8,-2.37 4.6,-3.12 1.8,-0.77 3.7,-1.15 5.8,-1.15 z m -7.3,4.04 v 21.56 h 3.8 v -8.63 h 3.2 l 4.1,8.63 h 4.4 c -0.7,-1.43 -1.4,-2.92 -2.2,-4.46 -0.8,-1.57 -1.5,-3.07 -2.2,-4.52 0.8,-0.25 1.5,-0.59 2,-1.02 0.6,-0.44 1.1,-0.92 1.4,-1.47 0.4,-0.55 0.7,-1.14 0.8,-1.75 0.2,-0.63 0.3,-1.27 0.3,-1.9 0,-0.81 -0.1,-1.6 -0.4,-2.37 -0.2,-0.78 -0.6,-1.47 -1.1,-2.07 -0.6,-0.6 -1.3,-1.08 -2.2,-1.45 -0.9,-0.36 -2.1,-0.55 -3.4,-0.55 z m 3.8,3.62 h 4.7 c 0.6,0 1.2,0.08 1.6,0.25 0.4,0.17 0.7,0.39 0.9,0.68 0.3,0.26 0.4,0.56 0.5,0.89 0.1,0.34 0.1,0.67 0.1,1 0,0.38 0,0.75 -0.1,1.1 -0.1,0.35 -0.3,0.66 -0.5,0.92 -0.3,0.27 -0.6,0.48 -1,0.63 -0.4,0.15 -0.9,0.22 -1.5,0.22 h -4.7 z m -2061.7,33.12 c 8.15,0 15.41,1.27 21.78,3.82 6.5,2.55 12.17,6.05 17.01,10.51 4.84,4.33 8.98,9.49 12.42,15.47 3.43,5.86 6.24,12.17 8.4,18.92 2.17,6.62 3.7,13.56 4.59,20.82 1.02,7.14 1.53,14.21 1.53,21.21 0,9.94 -1.15,20.25 -3.44,30.95 -2.29,10.58 -6.05,20.32 -11.28,29.24 -5.09,8.91 -11.84,16.24 -20.25,21.97 -8.28,5.73 -18.53,8.6 -30.76,8.6 -12.35,0 -22.74,-2.74 -31.14,-8.22 -8.41,-5.6 -15.22,-12.74 -20.45,-21.4 -5.09,-8.79 -8.78,-18.53 -11.08,-29.23 -2.29,-10.83 -3.44,-21.46 -3.44,-31.91 0,-6.62 0.45,-13.44 1.34,-20.44 1.02,-7.01 2.61,-13.88 4.78,-20.64 2.16,-6.75 4.97,-13.12 8.4,-19.1 3.44,-5.99 7.58,-11.21 12.42,-15.67 4.97,-4.58 10.64,-8.21 17.01,-10.89 6.49,-2.67 13.88,-4.01 22.16,-4.01 z m 234.41,4.02 h 66.9 c 7.1,0 13,1.14 17.7,3.44 4.7,2.29 8.4,5.22 11.1,8.78 2.8,3.57 4.7,7.52 5.7,11.85 1.2,4.2 1.8,8.28 1.8,12.23 0,4.33 -0.7,8.66 -2,12.99 -1.2,4.33 -3.3,8.22 -6.3,11.66 -2.8,3.43 -6.5,6.24 -11,8.4 -4.6,2.17 -10.3,3.25 -17,3.25 h -66.9 z"
             id="path8481"
             inkscape:connector-curvature="0"
             style="fill:#ffffff;fill-opacity:1" />
          <path
             d="m -2281,-254.37 -91.447,33.275 c 1.172,14.661 3.6972,29.144 7.2524,43.333 l 86.858,-31.631 c -2.8164,-14.686 -3.8215,-29.819 -2.6637,-44.977"
             id="path3985"
             inkscape:connector-curvature="0"
             style="fill:#db212f" />
          <path
             d="m -1876.9,-355.49 c -6.3787,-13.155 -13.755,-25.87 -22.3,-37.849 l -91.422,33.275 c 10.641,10.882 19.562,23.114 26.864,36.194 z"
             id="path3989"
             inkscape:connector-curvature="0"
             style="fill:#db212f" />
          <path
             d="m -2078.1,-381.38 c 19.022,8.8754 35.502,20.983 49.396,35.182 l 91.425,-33.278 c -25.319,-35.534 -59.816,-65.229 -102.09,-84.951 -130.69,-60.942 -286.62,-4.1909 -347.56,126.48 -19.722,42.289 -27.053,87.213 -23.615,130.7 l 91.436,-33.271 c 1.5166,-19.811 6.3538,-39.661 15.215,-58.694 39.604,-84.915 140.89,-121.76 225.79,-82.173"
             id="path3993"
             inkscape:connector-curvature="0"
             style="fill:#db212f" />
          <path
             d="m -2359.5,-179.86 -86.876,31.641 c 7.984,31.673 21.832,61.766 40.854,88.548 l 91.23,-33.211 c -23.419,-24.048 -38.989,-54.471 -45.208,-86.979"
             id="path3997"
             inkscape:connector-curvature="0"
             style="fill:#ea2227" />
          <path
             d="m -1980.6,-214.31 c -1.4455,19.8 -6.4497,39.661 -15.336,58.708 -39.604,84.919 -140.88,121.77 -225.79,82.17 -19.047,-8.8826 -35.64,-20.894 -49.492,-35.118 l -91.234,33.215 c 25.266,35.537 59.727,65.239 102.01,84.976 130.7,60.931 286.6,4.1802 347.55,-126.5 19.733,-42.282 27.02,-87.188 23.529,-130.65 l -91.205,33.2 z"
             id="path4001"
             inkscape:connector-curvature="0"
             style="fill:#db212f" />
          <path
             d="m -1958.1,-325.94 -86.869,31.62 c 16.135,28.906 23.753,62.199 21.26,95.673 l 91.234,-33.19 c -2.6104,-32.742 -11.344,-64.699 -25.625,-94.103"
             id="path4005"
             inkscape:connector-curvature="0"
             style="fill:#ea2227" />
        </g>
        <text
           id="text9474-1-9-3-3"
           style="font-variant:normal;font-weight:normal;font-size:24.1230526px;font-family:'DejaVu Sans';-inkscape-font-specification:DejaVuSans;writing-mode:lr-tb;fill:#ffffff;fill-opacity:1;fill-rule:nonzero;stroke:none;stroke-width:0.80352634"
           x="930.00732"
           y="739.28558"
           inkscape:export-xdpi="266.23114"
           inkscape:export-ydpi="266.23114">
          <tspan
             style="font-style:normal;font-variant:normal;font-weight:normal;font-stretch:normal;font-family:Overpass;-inkscape-font-specification:'Overpass Bold';stroke-width:0.80352634"
             id="tspan9476-3-6-2-6"
             sodipodi:role="line"
             y="739.28558"
             x="930.00732">ROUTER</tspan>
        </text>
      </g>
      <g
         inkscape:label="Layer 1"
         id="layer1-6-0"
         transform="matrix(0.26496637,0,0,0.26496637,875.50062,732.45567)">
        <g
           id="g13760-5"
           transform="matrix(0.9747037,0,0,0.9747037,6.9247568,10.008165)"
           style="stroke:none;stroke-opacity:1">
          <rect
             rx="8.2404203"
             y="188.75124"
             x="278.87204"
             height="201.8911"
             width="201.8911"
             id="rect4136-3"
             style="opacity:1;fill:#8bc34a;fill-opacity:1;stroke:none;stroke-width:5.13989592;stroke-miterlimit:4;stroke-dasharray:none;stroke-dashoffset:0;stroke-opacity:1" />
          <g
             transform="translate(-1.8216862,-5.96899)"
             id="g4210-2"
             style="stroke:none;stroke-opacity:1">
            <path
               style="fill:#ffffff;fill-opacity:1;fill-rule:evenodd;stroke:none;stroke-width:1px;stroke-linecap:butt;stroke-linejoin:miter;stroke-opacity:1"
               d="m 289.17847,308.80944 v -24.24367 h 41.41626 v -23.2335 l 35.35533,35.35533 -34.85026,34.85027 v -23.73859 z"
               id="path4138-1"
               inkscape:connector-curvature="0" />
            <g
               id="g4205-9"
               style="stroke:none;stroke-opacity:1">
              <path
                 inkscape:connector-curvature="0"
                 id="path4138-3-7"
                 d="m 404.74884,241.2191 v -21.9004 h 37.41318 v -20.98787 l 31.93806,31.93806 -31.48181,31.48183 v -21.44414 z"
                 style="fill:#ffffff;fill-opacity:1;fill-rule:evenodd;stroke:none;stroke-width:1px;stroke-linecap:butt;stroke-linejoin:miter;stroke-opacity:1" />
              <path
                 inkscape:connector-curvature="0"
                 id="path4138-3-3-6"
                 d="m 404.74884,306.84414 v -21.9004 h 37.41318 v -20.98787 l 31.93806,31.93806 -31.48181,31.48183 v -21.44414 z"
                 style="fill:#ffffff;fill-opacity:1;fill-rule:evenodd;stroke:none;stroke-width:1px;stroke-linecap:butt;stroke-linejoin:miter;stroke-opacity:1" />
              <path
                 inkscape:connector-curvature="0"
                 id="path4138-3-4-8"
                 d="m 404.74884,372.4691 v -21.9004 h 37.41318 v -20.98787 l 31.93806,31.93806 -31.48181,31.48183 v -21.44414 z"
                 style="fill:#ffffff;fill-opacity:1;fill-rule:evenodd;stroke:none;stroke-width:1px;stroke-linecap:butt;stroke-linejoin:miter;stroke-opacity:1" />
            </g>
          </g>
        </g>
      </g>
    </g>
    <text
       inkscape:export-ydpi="266.23114"
       inkscape:export-xdpi="266.23114"
       y="646.1568"
       x="34.630268"
       style="font-variant:normal;font-weight:normal;font-size:53.63773727px;font-family:'DejaVu Sans';-inkscape-font-specification:DejaVuSans;writing-mode:lr-tb;fill:#000000;fill-opacity:1;fill-rule:nonzero;stroke:none;stroke-width:1.78664517;stroke-opacity:1"
       id="text9474-1-9-3-1-9-8-3">
      <tspan
         x="34.630268"
         y="646.1568"
         sodipodi:role="line"
         id="tspan9476-3-6-2-7-8-6-8"
         style="font-style:normal;font-variant:normal;font-weight:bold;font-stretch:normal;font-family:'Roboto Condensed';-inkscape-font-specification:'Roboto Condensed,  Bold';fill:#000000;fill-opacity:1;stroke:none;stroke-width:1.78664517;stroke-opacity:1">10.12.21.70/22</tspan>
    </text>
    <text
       inkscape:export-ydpi="266.23114"
       inkscape:export-xdpi="266.23114"
       y="695.57898"
       x="290.77142"
       style="font-variant:normal;font-weight:normal;font-size:53.63773727px;font-family:'DejaVu Sans';-inkscape-font-specification:DejaVuSans;writing-mode:lr-tb;fill:#000000;fill-opacity:1;fill-rule:nonzero;stroke:none;stroke-width:1.78664517;stroke-opacity:1"
       id="text9474-1-9-3-1-9-9-8-0">
      <tspan
         x="290.77142"
         y="695.57898"
         sodipodi:role="line"
         id="tspan9476-3-6-2-7-8-9-3-9"
         style="font-style:normal;font-variant:normal;font-weight:bold;font-stretch:normal;font-family:Roboto;-inkscape-font-specification:'Roboto Bold';fill:#000000;fill-opacity:1;stroke:none;stroke-width:1.78664517;stroke-opacity:1">FIP</tspan>
    </text>
    <g
       id="g7152"
       transform="matrix(0,1.7866452,-1.7866452,0,2678.6014,-1459.451)"
       style="stroke:#ff0000;stroke-opacity:1">
      <g
         inkscape:label="Layer 1"
         id="layer1-7"
         transform="translate(593.80036,306.58137)"
         style="stroke:#ff0000;stroke-opacity:1">
        <path
           style="fill:#ff0000;fill-opacity:1;fill-rule:evenodd;stroke:#ff0000;stroke-width:3;stroke-linecap:butt;stroke-linejoin:miter;stroke-miterlimit:4;stroke-dasharray:none;stroke-opacity:1"
           d="m 502.98088,417.8132 h 5.39588 l -5.39588,-5.95691 -5.58483,5.95691 h 5.58483"
           id="path7655-6"
           inkscape:connector-curvature="0"
           sodipodi:nodetypes="ccccc" />
      </g>
      <path
         inkscape:connector-curvature="0"
         id="path7147"
         d="m 1196.1413,871.37851 v -83.53507 l -99.4944,-20.65522 V 746.53301 725.8778"
         style="fill:none;fill-rule:evenodd;stroke:#ff0000;stroke-width:2.83464575;stroke-linecap:butt;stroke-linejoin:miter;stroke-miterlimit:4;stroke-dasharray:none;stroke-opacity:1"
         sodipodi:nodetypes="ccccc" />
    </g>
    <g
       id="g7152-4"
       transform="matrix(0,1.7866452,-1.7866452,0,2678.6013,-1344.9919)"
       style="stroke:#ff0000;stroke-opacity:1">
      <g
         inkscape:label="Layer 1"
         id="layer1-7-1"
         transform="translate(593.80036,306.58137)"
         style="stroke:#ff0000;stroke-opacity:1">
        <path
           style="fill:#ff0000;fill-opacity:1;fill-rule:evenodd;stroke:#ff0000;stroke-width:3;stroke-linecap:butt;stroke-linejoin:miter;stroke-miterlimit:4;stroke-dasharray:none;stroke-opacity:1"
           d="m 502.98088,417.8132 h 5.39588 l -5.39588,-5.95691 -5.58483,5.95691 h 5.58483"
           id="path7655-6-6"
           inkscape:connector-curvature="0"
           sodipodi:nodetypes="ccccc" />
      </g>
      <path
         inkscape:connector-curvature="0"
         id="path7147-3"
         d="m 1149.2663,871.37851 v -94.18902 l -52.6194,-10.00127 V 746.53301 725.8778"
         style="fill:none;fill-rule:evenodd;stroke:#ff0000;stroke-width:2.83464575;stroke-linecap:butt;stroke-linejoin:miter;stroke-miterlimit:4;stroke-dasharray:none;stroke-opacity:1"
         sodipodi:nodetypes="ccccc" />
    </g>
    <g
       id="g7152-8"
       transform="matrix(0,-1.7866452,-1.7866452,0,2678.6013,2823.4267)"
       style="stroke:#ff0000;stroke-opacity:1">
      <g
         inkscape:label="Layer 1"
         id="layer1-7-5"
         transform="translate(593.80036,306.58137)"
         style="stroke:#ff0000;stroke-opacity:1">
        <path
           style="fill:#ff0000;fill-opacity:1;fill-rule:evenodd;stroke:#ff0000;stroke-width:3;stroke-linecap:butt;stroke-linejoin:miter;stroke-miterlimit:4;stroke-dasharray:none;stroke-opacity:1"
           d="m 502.98088,417.8132 h 5.39588 l -5.39588,-5.95691 -5.58483,5.95691 h 5.58483"
           id="path7655-6-5"
           inkscape:connector-curvature="0"
           sodipodi:nodetypes="ccccc" />
      </g>
      <path
         inkscape:connector-curvature="0"
         id="path7147-0"
         d="m 1168.0163,871.37851 v -83.53507 l -71.3694,-20.65522 V 746.53301 725.8778"
         style="fill:none;fill-rule:evenodd;stroke:#ff0000;stroke-width:2.83464575;stroke-linecap:butt;stroke-linejoin:miter;stroke-miterlimit:4;stroke-dasharray:none;stroke-opacity:1"
         sodipodi:nodetypes="ccccc" />
    </g>
    <g
       id="g8477"
       transform="matrix(1.7866452,0,0,1.7866452,-709.91985,-454.98713)">
      <rect
         rx="14.902745"
         style="opacity:1;fill:#03a9f4;fill-opacity:1;stroke:#1b1b1b;stroke-width:3;stroke-miterlimit:0.30000001;stroke-dasharray:none;stroke-dashoffset:0;stroke-opacity:1"
         id="rect12196-43-7-5-7-7-7-5"
         width="165.82207"
         height="172.04095"
         x="620.57837"
         y="553.8418"
         ry="14.902745" />
      <g
         inkscape:label="Layer 1"
         id="layer1-6-0-2"
         transform="matrix(0.26496637,0,0,0.26496637,603.56148,573.16992)">
        <g
           id="g13760-5-6"
           transform="matrix(0.9747037,0,0,0.9747037,6.9247568,10.008165)"
           style="stroke:none;stroke-opacity:1">
          <rect
             rx="8.2404203"
             y="188.75124"
             x="278.87204"
             height="201.8911"
             width="201.8911"
             id="rect4136-3-9"
             style="opacity:1;fill:#8bc34a;fill-opacity:1;stroke:none;stroke-width:5.13989592;stroke-miterlimit:4;stroke-dasharray:none;stroke-dashoffset:0;stroke-opacity:1" />
          <g
             transform="translate(-1.8216862,-5.96899)"
             id="g4210-2-4"
             style="stroke:none;stroke-opacity:1">
            <path
               style="fill:#ffffff;fill-opacity:1;fill-rule:evenodd;stroke:none;stroke-width:1px;stroke-linecap:butt;stroke-linejoin:miter;stroke-opacity:1"
               d="m 289.17847,308.80944 v -24.24367 h 41.41626 v -23.2335 l 35.35533,35.35533 -34.85026,34.85027 v -23.73859 z"
               id="path4138-1-4"
               inkscape:connector-curvature="0" />
            <g
               id="g4205-9-6"
               style="stroke:none;stroke-opacity:1">
              <path
                 inkscape:connector-curvature="0"
                 id="path4138-3-7-0"
                 d="m 404.74884,241.2191 v -21.9004 h 37.41318 v -20.98787 l 31.93806,31.93806 -31.48181,31.48183 v -21.44414 z"
                 style="fill:#ffffff;fill-opacity:1;fill-rule:evenodd;stroke:none;stroke-width:1px;stroke-linecap:butt;stroke-linejoin:miter;stroke-opacity:1" />
              <path
                 inkscape:connector-curvature="0"
                 id="path4138-3-3-6-7"
                 d="m 404.74884,306.84414 v -21.9004 h 37.41318 v -20.98787 l 31.93806,31.93806 -31.48181,31.48183 v -21.44414 z"
                 style="fill:#ffffff;fill-opacity:1;fill-rule:evenodd;stroke:none;stroke-width:1px;stroke-linecap:butt;stroke-linejoin:miter;stroke-opacity:1" />
              <path
                 inkscape:connector-curvature="0"
                 id="path4138-3-4-8-4"
                 d="m 404.74884,372.4691 v -21.9004 h 37.41318 v -20.98787 l 31.93806,31.93806 -31.48181,31.48183 v -21.44414 z"
                 style="fill:#ffffff;fill-opacity:1;fill-rule:evenodd;stroke:none;stroke-width:1px;stroke-linecap:butt;stroke-linejoin:miter;stroke-opacity:1" />
            </g>
          </g>
        </g>
      </g>
      <g
         transform="translate(-0.94437875)"
         id="g8442">
        <text
           id="text9474-1-9-3-3-1"
           style="font-variant:normal;font-weight:normal;font-size:24.1230526px;font-family:'DejaVu Sans';-inkscape-font-specification:DejaVuSans;writing-mode:lr-tb;fill:#ffffff;fill-opacity:1;fill-rule:nonzero;stroke:none;stroke-width:0.80352634"
           x="662.70685"
           y="608.79645"
           inkscape:export-xdpi="266.23114"
           inkscape:export-ydpi="266.23114">
          <tspan
             style="font-style:normal;font-variant:normal;font-weight:normal;font-stretch:normal;font-family:Roboto;-inkscape-font-specification:Roboto;stroke-width:0.80352634"
             id="tspan9476-3-6-2-6-5"
             sodipodi:role="line"
             y="608.79645"
             x="662.70685">ROUTER LB</tspan>
        </text>
        <g
           transform="matrix(0.06610062,0,0,0.06610062,624.89768,525.07561)"
           id="layer1-9"
           inkscape:label="Layer 1">
          <g
             transform="matrix(1.2456163,0,0,1.2456163,-83.268902,156.16595)"
             inkscape:label="Layer 1"
             id="layer1-8">
            <g
               id="g7616-4"
               transform="translate(-122,44.000001)">
              <g
                 style="fill:#c798e2;fill-opacity:1"
                 transform="matrix(1.1475092,0,0,1.1475092,87.661383,133.31054)"
                 id="g6888-8">
                <g
                   style="fill:#c798e2;fill-opacity:1"
                   id="g6890-2"
                   enable-background="new    ">
                  <g
                     style="fill:#c798e2;fill-opacity:1"
                     id="g6892-8">
                    <polygon
                       id="polygon6894-8"
                       points="182.733,165.755 351.604,106.679 521.525,165.729 352.659,224.801 "
                       stroke-miterlimit="10"
                       style="fill:#c798e2;fill-opacity:1;stroke:#ffffff;stroke-width:4;stroke-miterlimit:10" />
                  </g>
                  <g
                     style="fill:#c798e2;fill-opacity:1"
                     id="g6896-6">
                    <polygon
                       id="polygon6898-9"
                       points="351.754,465.079 352.659,224.801 521.525,165.729 520.626,405.996 "
                       stroke-miterlimit="10"
                       style="fill:#c798e2;fill-opacity:1;stroke:#ffffff;stroke-width:4;stroke-miterlimit:10" />
                  </g>
                  <g
                     style="fill:#c798e2;fill-opacity:1"
                     id="g6900-5">
                    <polygon
                       id="polygon6902-5"
                       points="181.833,406.029 182.733,165.755 352.659,224.801 351.754,465.079 "
                       stroke-miterlimit="10"
                       style="fill:#c798e2;fill-opacity:1;stroke:#ffffff;stroke-width:4;stroke-miterlimit:10" />
                  </g>
                </g>
              </g>
              <g
                 transform="matrix(5.3278657,0,0,5.3278657,-880.16742,-1005.5465)"
                 id="g7569-2">
                <g
                   id="g7554-67">
                  <ellipse
                     ry="4.8945951"
                     rx="5.0033641"
                     cy="280.32138"
                     cx="305.06479"
                     id="path7550-6"
                     style="opacity:1;fill:#c798e2;fill-opacity:1;stroke:none;stroke-width:1;stroke-miterlimit:4;stroke-dasharray:none;stroke-opacity:1" />
                  <path
                     sodipodi:nodetypes="ccccc"
                     inkscape:connector-curvature="0"
                     id="path7552-5"
                     d="m 300.375,281.73718 h -9.0625 v -3.3125 h 9.125 z"
                     style="fill:#c798e2;fill-opacity:1;fill-rule:evenodd;stroke:none;stroke-width:1px;stroke-linecap:butt;stroke-linejoin:miter;stroke-opacity:1" />
                </g>
              </g>
              <g
                 id="g7554-6-7"
                 transform="matrix(-5.3278657,0,0,5.3278657,1855.3736,-1003.9971)">
                <ellipse
                   style="opacity:1;fill:#c798e2;fill-opacity:1;stroke:none;stroke-width:1;stroke-miterlimit:4;stroke-dasharray:none;stroke-opacity:1"
                   id="path7550-5-7"
                   cx="305.06479"
                   cy="280.32138"
                   rx="5.0033641"
                   ry="4.8945951" />
                <path
                   style="fill:#c798e2;fill-opacity:1;fill-rule:evenodd;stroke:none;stroke-width:1px;stroke-linecap:butt;stroke-linejoin:miter;stroke-opacity:1"
                   d="m 300.375,281.73718 h -9.0625 v -3.3125 h 9.125 z"
                   id="path7552-2-8"
                   inkscape:connector-curvature="0"
                   sodipodi:nodetypes="ccccc" />
              </g>
            </g>
          </g>
        </g>
        <text
           xml:space="preserve"
           style="font-style:normal;font-weight:normal;font-size:23.70663834px;line-height:125%;font-family:Sans;letter-spacing:0px;word-spacing:0px;fill:#ffffff;fill-opacity:1;stroke:none;stroke-width:0.55798012px;stroke-linecap:butt;stroke-linejoin:miter;stroke-opacity:1"
           x="674.50342"
           y="583.5871"
           id="text12610"><tspan
             sodipodi:role="line"
             id="tspan12612"
             x="674.50342"
             y="583.5871"
             style="font-style:normal;font-variant:normal;font-weight:bold;font-stretch:normal;font-family:Roboto;-inkscape-font-specification:'Roboto Bold';fill:#ffffff;fill-opacity:1;stroke-width:0.55798012px">NEUTRON</tspan></text>
      </g>
    </g>
    <path
       style="fill:#000000;fill-opacity:1;fill-rule:evenodd;stroke:#000000;stroke-width:5.35993576;stroke-linecap:butt;stroke-linejoin:miter;stroke-miterlimit:4;stroke-dasharray:none;stroke-opacity:1"
       d="m 127.19998,708.54591 h 355.51345 2.75129 v 9.64053 l 10.64289,-9.64053 -10.64289,-9.97812 v 9.97812"
       id="path7655-6-8-6"
       inkscape:connector-curvature="0"
       sodipodi:nodetypes="ccccccc" />
    <path
       style="fill:#000000;fill-opacity:1;fill-rule:evenodd;stroke:#000000;stroke-width:5.35993576;stroke-linecap:butt;stroke-linejoin:miter;stroke-miterlimit:4;stroke-dasharray:none;stroke-opacity:1"
       d="m 592.87561,709.12896 h 417.56319 2.7512 v 9.64051 l 10.643,-9.64051 -10.643,-9.97811 v 9.97811"
       id="path7655-6-8-6-2"
       inkscape:connector-curvature="0"
       sodipodi:nodetypes="ccccccc" />
    <g
       id="g8477-3"
       transform="matrix(1.7866452,0,0,1.7866452,-241.79905,-857.75161)">
      <rect
         rx="14.902745"
         style="opacity:1;fill:#03a9f4;fill-opacity:1;stroke:#1b1b1b;stroke-width:3;stroke-miterlimit:0.30000001;stroke-dasharray:none;stroke-dashoffset:0;stroke-opacity:1"
         id="rect12196-43-7-5-7-7-7-5-6"
         width="165.82207"
         height="172.04095"
         x="620.57837"
         y="553.8418"
         ry="14.902745" />
      <g
         inkscape:label="Layer 1"
         id="layer1-6-0-2-7"
         transform="matrix(0.26496637,0,0,0.26496637,603.56148,573.16992)">
        <g
           id="g13760-5-6-5"
           transform="matrix(0.9747037,0,0,0.9747037,6.9247568,10.008165)"
           style="stroke:none;stroke-opacity:1">
          <rect
             rx="8.2404203"
             y="188.75124"
             x="278.87204"
             height="201.8911"
             width="201.8911"
             id="rect4136-3-9-3"
             style="opacity:1;fill:#8bc34a;fill-opacity:1;stroke:none;stroke-width:5.13989592;stroke-miterlimit:4;stroke-dasharray:none;stroke-dashoffset:0;stroke-opacity:1" />
          <g
             transform="translate(-1.8216862,-5.96899)"
             id="g4210-2-4-5"
             style="stroke:none;stroke-opacity:1">
            <path
               style="fill:#ffffff;fill-opacity:1;fill-rule:evenodd;stroke:none;stroke-width:1px;stroke-linecap:butt;stroke-linejoin:miter;stroke-opacity:1"
               d="m 289.17847,308.80944 v -24.24367 h 41.41626 v -23.2335 l 35.35533,35.35533 -34.85026,34.85027 v -23.73859 z"
               id="path4138-1-4-6"
               inkscape:connector-curvature="0" />
            <g
               id="g4205-9-6-2"
               style="stroke:none;stroke-opacity:1">
              <path
                 inkscape:connector-curvature="0"
                 id="path4138-3-7-0-9"
                 d="m 404.74884,241.2191 v -21.9004 h 37.41318 v -20.98787 l 31.93806,31.93806 -31.48181,31.48183 v -21.44414 z"
                 style="fill:#ffffff;fill-opacity:1;fill-rule:evenodd;stroke:none;stroke-width:1px;stroke-linecap:butt;stroke-linejoin:miter;stroke-opacity:1" />
              <path
                 inkscape:connector-curvature="0"
                 id="path4138-3-3-6-7-1"
                 d="m 404.74884,306.84414 v -21.9004 h 37.41318 v -20.98787 l 31.93806,31.93806 -31.48181,31.48183 v -21.44414 z"
                 style="fill:#ffffff;fill-opacity:1;fill-rule:evenodd;stroke:none;stroke-width:1px;stroke-linecap:butt;stroke-linejoin:miter;stroke-opacity:1" />
              <path
                 inkscape:connector-curvature="0"
                 id="path4138-3-4-8-4-2"
                 d="m 404.74884,372.4691 v -21.9004 h 37.41318 v -20.98787 l 31.93806,31.93806 -31.48181,31.48183 v -21.44414 z"
                 style="fill:#ffffff;fill-opacity:1;fill-rule:evenodd;stroke:none;stroke-width:1px;stroke-linecap:butt;stroke-linejoin:miter;stroke-opacity:1" />
            </g>
          </g>
        </g>
      </g>
      <g
         transform="translate(-0.94437875)"
         id="g8442-7">
        <text
           id="text9474-1-9-3-3-1-0"
           style="font-variant:normal;font-weight:normal;font-size:24.1230526px;font-family:'DejaVu Sans';-inkscape-font-specification:DejaVuSans;writing-mode:lr-tb;fill:#ffffff;fill-opacity:1;fill-rule:nonzero;stroke:none;stroke-width:0.80352634"
           x="641.71808"
           y="612.9942"
           inkscape:export-xdpi="266.23114"
           inkscape:export-ydpi="266.23114">
          <tspan
             style="font-style:normal;font-variant:normal;font-weight:normal;font-stretch:normal;font-family:Roboto;-inkscape-font-specification:Roboto;stroke-width:0.80352634"
             id="tspan9476-3-6-2-6-5-9"
             sodipodi:role="line"
             y="612.9942"
             x="641.71808">2ndDEMO LB</tspan>
        </text>
        <g
           transform="matrix(0.06610062,0,0,0.06610062,624.89768,525.07561)"
           id="layer1-9-3"
           inkscape:label="Layer 1">
          <g
             transform="matrix(1.2456163,0,0,1.2456163,-83.268902,156.16595)"
             inkscape:label="Layer 1"
             id="layer1-8-6">
            <g
               id="g7616-4-0"
               transform="translate(-122,44.000001)">
              <g
                 style="fill:#c798e2;fill-opacity:1"
                 transform="matrix(1.1475092,0,0,1.1475092,87.661383,133.31054)"
                 id="g6888-8-6">
                <g
                   style="fill:#c798e2;fill-opacity:1"
                   id="g6890-2-2"
                   enable-background="new    ">
                  <g
                     style="fill:#c798e2;fill-opacity:1"
                     id="g6892-8-6">
                    <polygon
                       id="polygon6894-8-1"
                       points="351.604,106.679 521.525,165.729 352.659,224.801 182.733,165.755 "
                       stroke-miterlimit="10"
                       style="fill:#c798e2;fill-opacity:1;stroke:#ffffff;stroke-width:4;stroke-miterlimit:10" />
                  </g>
                  <g
                     style="fill:#c798e2;fill-opacity:1"
                     id="g6896-6-8">
                    <polygon
                       id="polygon6898-9-7"
                       points="352.659,224.801 521.525,165.729 520.626,405.996 351.754,465.079 "
                       stroke-miterlimit="10"
                       style="fill:#c798e2;fill-opacity:1;stroke:#ffffff;stroke-width:4;stroke-miterlimit:10" />
                  </g>
                  <g
                     style="fill:#c798e2;fill-opacity:1"
                     id="g6900-5-9">
                    <polygon
                       id="polygon6902-5-2"
                       points="182.733,165.755 352.659,224.801 351.754,465.079 181.833,406.029 "
                       stroke-miterlimit="10"
                       style="fill:#c798e2;fill-opacity:1;stroke:#ffffff;stroke-width:4;stroke-miterlimit:10" />
                  </g>
                </g>
              </g>
              <g
                 transform="matrix(5.3278657,0,0,5.3278657,-880.16742,-1005.5465)"
                 id="g7569-2-0">
                <g
                   id="g7554-67-2">
                  <ellipse
                     ry="4.8945951"
                     rx="5.0033641"
                     cy="280.32138"
                     cx="305.06479"
                     id="path7550-6-3"
                     style="opacity:1;fill:#c798e2;fill-opacity:1;stroke:none;stroke-width:1;stroke-miterlimit:4;stroke-dasharray:none;stroke-opacity:1" />
                  <path
                     sodipodi:nodetypes="ccccc"
                     inkscape:connector-curvature="0"
                     id="path7552-5-7"
                     d="m 300.375,281.73718 h -9.0625 v -3.3125 h 9.125 z"
                     style="fill:#c798e2;fill-opacity:1;fill-rule:evenodd;stroke:none;stroke-width:1px;stroke-linecap:butt;stroke-linejoin:miter;stroke-opacity:1" />
                </g>
              </g>
              <g
                 id="g7554-6-7-5"
                 transform="matrix(-5.3278657,0,0,5.3278657,1855.3736,-1003.9971)">
                <ellipse
                   style="opacity:1;fill:#c798e2;fill-opacity:1;stroke:none;stroke-width:1;stroke-miterlimit:4;stroke-dasharray:none;stroke-opacity:1"
                   id="path7550-5-7-9"
                   cx="305.06479"
                   cy="280.32138"
                   rx="5.0033641"
                   ry="4.8945951" />
                <path
                   style="fill:#c798e2;fill-opacity:1;fill-rule:evenodd;stroke:none;stroke-width:1px;stroke-linecap:butt;stroke-linejoin:miter;stroke-opacity:1"
                   d="m 300.375,281.73718 h -9.0625 v -3.3125 h 9.125 z"
                   id="path7552-2-8-2"
                   inkscape:connector-curvature="0"
                   sodipodi:nodetypes="ccccc" />
              </g>
            </g>
          </g>
        </g>
        <text
           xml:space="preserve"
           style="font-style:normal;font-weight:normal;font-size:23.70663834px;line-height:125%;font-family:Sans;letter-spacing:0px;word-spacing:0px;fill:#ffffff;fill-opacity:1;stroke:none;stroke-width:0.55798012px;stroke-linecap:butt;stroke-linejoin:miter;stroke-opacity:1"
           x="674.50342"
           y="583.5871"
           id="text12610-2"><tspan
             sodipodi:role="line"
             id="tspan12612-8"
             x="674.50342"
             y="583.5871"
             style="font-style:normal;font-variant:normal;font-weight:bold;font-stretch:normal;font-family:Roboto;-inkscape-font-specification:'Roboto Bold';fill:#ffffff;fill-opacity:1;stroke-width:0.55798012px">NEUTRON</tspan></text>
      </g>
    </g>
    <path
       style="fill:#000000;fill-opacity:1;fill-rule:evenodd;stroke:#000000;stroke-width:5.35993624;stroke-linecap:butt;stroke-linejoin:miter;stroke-miterlimit:4;stroke-dasharray:none;stroke-opacity:1"
       d="m 596.55763,305.78464 h 353.63847 2.75128 v 9.64053 l 10.64289,-9.64053 -10.64289,-9.97812 v 9.97812"
       id="path7655-6-8-6-9"
       inkscape:connector-curvature="0"
       sodipodi:nodetypes="ccccccc" />
    <text
       id="text9474-1-9-3-1-9-8-7"
       style="font-variant:normal;font-weight:normal;font-size:53.63773727px;font-family:'DejaVu Sans';-inkscape-font-specification:DejaVuSans;writing-mode:lr-tb;fill:#000000;fill-opacity:1;fill-rule:nonzero;stroke:none;stroke-width:1.78664529;stroke-opacity:1"
       x="471.19061"
       y="405.03665"
       inkscape:export-xdpi="266.23114"
       inkscape:export-ydpi="266.23114">
      <tspan
         style="font-style:normal;font-variant:normal;font-weight:bold;font-stretch:normal;font-family:'Roboto Condensed';-inkscape-font-specification:'Roboto Condensed,  Bold';fill:#000000;fill-opacity:1;stroke:none;stroke-width:1.78664529;stroke-opacity:1"
         id="tspan9476-3-6-2-7-8-6-3"
         sodipodi:role="line"
         y="405.03665"
         x="471.19061">172.30.154.52/16</tspan>
    </text>
    <text
       id="text9474-1-9-3-1-9-9-8-6"
       style="font-variant:normal;font-weight:normal;font-size:53.63773727px;font-family:'DejaVu Sans';-inkscape-font-specification:DejaVuSans;writing-mode:lr-tb;fill:#000000;fill-opacity:1;fill-rule:nonzero;stroke:none;stroke-width:1.78664529;stroke-opacity:1"
       x="507.65137"
       y="354.48312"
       inkscape:export-xdpi="266.23114"
       inkscape:export-ydpi="266.23114">
      <tspan
         style="font-style:normal;font-variant:normal;font-weight:bold;font-stretch:normal;font-family:Roboto;-inkscape-font-specification:'Roboto Bold';fill:#000000;fill-opacity:1;stroke:none;stroke-width:1.78664529;stroke-opacity:1"
         id="tspan9476-3-6-2-7-8-9-3-1"
         sodipodi:role="line"
         y="354.48312"
         x="507.65137">2ndDEMO VIP</tspan>
    </text>
    <g
       id="g7152-2"
       transform="matrix(0,-1.7866452,-1.7866452,0,2618.3449,2472.1775)"
       style="stroke:#ff0000;stroke-opacity:1">
      <g
         inkscape:label="Layer 1"
         id="layer1-7-9"
         transform="translate(593.80036,306.58137)"
         style="stroke:#ff0000;stroke-opacity:1">
        <path
           style="fill:#f57f17;fill-opacity:1;fill-rule:evenodd;stroke:#f57f17;stroke-width:3;stroke-linecap:butt;stroke-linejoin:miter;stroke-miterlimit:4;stroke-dasharray:none;stroke-opacity:1"
           d="m 323.52443,384.23071 h 5.39588 l -5.39588,-5.95691 -5.58483,5.95691 h 5.58483"
           id="path7655-6-3"
           inkscape:connector-curvature="0"
           sodipodi:nodetypes="ccccc" />
      </g>
      <path
         inkscape:connector-curvature="0"
         id="path7147-1"
         d="M 1196.1413,871.37851 V 787.84344 L 917.19045,761.94096 v -51.08935 -18.5563"
         style="fill:none;fill-rule:evenodd;stroke:#f57f17;stroke-width:2.83464575;stroke-linecap:butt;stroke-linejoin:miter;stroke-miterlimit:4;stroke-dasharray:none;stroke-opacity:1"
         sodipodi:nodetypes="ccccc" />
    </g>
    <g
       id="g7152-2-9"
       transform="matrix(0,-1.7866452,-1.7866452,0,2618.3449,2441.8965)"
       style="stroke:#ff0000;stroke-opacity:1">
      <g
         inkscape:label="Layer 1"
         id="layer1-7-9-4"
         transform="translate(593.80036,306.58137)"
         style="stroke:#ff0000;stroke-opacity:1">
        <path
           style="fill:#f57f17;fill-opacity:1;fill-rule:evenodd;stroke:#f57f17;stroke-width:3;stroke-linecap:butt;stroke-linejoin:miter;stroke-miterlimit:4;stroke-dasharray:none;stroke-opacity:1"
           d="m 446.31042,384.23071 h 5.39588 l -5.39588,-5.95691 -5.58483,5.95691 h 5.58483"
           id="path7655-6-3-7"
           inkscape:connector-curvature="0"
           sodipodi:nodetypes="ccccc" />
      </g>
      <path
         inkscape:connector-curvature="0"
         id="path7147-1-8"
         d="M 1196.1413,871.37851 V 776.29946 L 1039.9764,758.7926 v -45.84208 -20.65521"
         style="fill:none;fill-rule:evenodd;stroke:#f57f17;stroke-width:2.83464575;stroke-linecap:butt;stroke-linejoin:miter;stroke-miterlimit:4;stroke-dasharray:none;stroke-opacity:1"
         sodipodi:nodetypes="ccccc" />
    </g>
    <g
       id="g7152-2-9-4"
       transform="matrix(0,-1.7866452,-1.7866452,0,2618.1345,2411.9642)"
       style="stroke:#ff0000;stroke-opacity:1">
      <g
         inkscape:label="Layer 1"
         id="layer1-7-9-4-5"
         transform="translate(593.80036,306.58137)"
         style="stroke:#ff0000;stroke-opacity:1">
        <path
           style="fill:#f57f17;fill-opacity:1;fill-rule:evenodd;stroke:#f57f17;stroke-width:3;stroke-linecap:butt;stroke-linejoin:miter;stroke-miterlimit:4;stroke-dasharray:none;stroke-opacity:1"
           d="m 492.48635,384.23071 h 5.39588 l -5.39588,-5.95691 -5.58483,5.95691 h 5.58483"
           id="path7655-6-3-7-0"
           inkscape:connector-curvature="0"
           sodipodi:nodetypes="ccccc" />
      </g>
      <path
         inkscape:connector-curvature="0"
         id="path7147-1-8-3"
         d="M 1196.1413,871.37851 V 762.65657 l -109.989,-12.25959 v -37.44646 -20.65521"
         style="fill:none;fill-rule:evenodd;stroke:#f57f17;stroke-width:2.83464575;stroke-linecap:butt;stroke-linejoin:miter;stroke-miterlimit:4;stroke-dasharray:none;stroke-opacity:1"
         sodipodi:nodetypes="ccccc" />
    </g>
    <g
       id="g7275-6"
       transform="matrix(1.7866452,0,0,1.7866452,-669.33449,-381.72637)">
      <g
         transform="translate(724.88178,39.581765)"
         id="g7281-1">
        <rect
           ry="14.902745"
           y="673.54578"
           x="114.597"
           height="172.04094"
           width="199.91472"
           id="rect12196-43-7-5-7-7-7-0"
           style="opacity:1;fill:#03a9f4;fill-opacity:1;stroke:#1b1b1b;stroke-width:3;stroke-miterlimit:0.30000001;stroke-dasharray:none;stroke-dashoffset:0;stroke-opacity:1"
           rx="14.902745" />
      </g>
      <g
         transform="translate(0,22.5)"
         id="g7233-6">
        <g
           id="g24874-3"
           transform="matrix(0.06199563,0,0,0.06199563,1000.9106,725.92174)">
          <path
             transform="translate(-2446.4,-488.95)"
             d="m 825.89,119.83 c -14.78,0 -28.02,1.97 -39.74,5.92 -11.72,3.82 -22.1,9.11 -31.14,15.86 -8.92,6.62 -16.56,14.52 -22.93,23.69 -6.37,9.04 -11.59,18.85 -15.67,29.42 -3.95,10.45 -6.87,21.4 -8.79,32.87 -1.78,11.33 -2.67,22.61 -2.67,33.81 0,11.34 0.89,22.74 2.67,34.2 1.92,11.34 4.84,22.29 8.79,32.86 4.08,10.45 9.3,20.26 15.67,29.43 6.37,9.04 14.01,16.94 22.93,23.69 9.04,6.62 19.42,11.91 31.14,15.86 11.72,3.82 24.97,5.73 39.74,5.73 14.78,0 27.96,-1.91 39.55,-5.73 11.72,-3.95 22.04,-9.24 30.95,-15.86 8.92,-6.75 16.56,-14.65 22.93,-23.69 6.37,-9.17 11.53,-18.98 15.48,-29.43 4.07,-10.57 7,-21.52 8.79,-32.86 1.91,-11.46 2.86,-22.86 2.86,-34.2 0,-11.2 -0.95,-22.48 -2.86,-33.81 -1.79,-11.47 -4.72,-22.42 -8.79,-32.87 -3.95,-10.57 -9.11,-20.38 -15.48,-29.42 -6.37,-9.17 -14.01,-17.07 -22.93,-23.69 -8.91,-6.75 -19.23,-12.04 -30.95,-15.86 -11.59,-3.95 -24.77,-5.92 -39.55,-5.92 z m 1065.9,0 c -13.9,0 -26.3,1.91 -37.1,5.73 -10.8,3.83 -19.9,9.05 -27.3,15.67 -7.4,6.5 -13.1,14.08 -17,22.74 -3.8,8.66 -5.8,17.83 -5.8,27.51 0,11.59 2.1,21.4 6.2,29.43 4,8.02 9.4,14.9 16,20.63 6.6,5.73 14.2,10.57 22.6,14.52 8.5,3.95 17.2,7.52 25.9,10.7 9,3.18 17.6,6.31 26,9.36 8.6,3.06 16.1,6.63 22.8,10.7 6.6,4.08 11.9,8.92 16,14.52 4.1,5.48 6.1,12.3 6.1,20.45 0,6.88 -1.2,12.99 -3.6,18.34 -2.4,5.22 -5.8,9.62 -10.1,13.18 -4.4,3.57 -9.6,6.24 -15.7,8.03 -6.1,1.78 -12.9,2.67 -20.2,2.67 -7.4,0 -14.4,-1.02 -20.9,-3.06 -6.3,-2.03 -12.2,-4.84 -17.6,-8.4 -5.3,-3.7 -10.1,-8.09 -14.3,-13.19 -4.1,-5.09 -7.5,-10.7 -10.3,-16.81 l -38.4,13.95 c 3.4,10.19 8.3,19.42 14.5,27.7 6.3,8.15 13.6,15.16 22.2,21.02 8.6,5.73 18.3,10.13 28.8,13.18 10.7,3.19 22.2,4.78 34.4,4.78 13.1,0 25.4,-1.79 36.7,-5.35 11.5,-3.7 21.4,-8.98 29.8,-15.86 8.4,-7.01 15,-15.54 19.7,-25.6 4.8,-10.19 7.3,-21.85 7.3,-34.97 0,-12.35 -2.1,-22.93 -6.2,-31.71 -4,-8.92 -9.4,-16.5 -16,-22.74 -6.6,-6.37 -14.2,-11.72 -22.7,-16.05 -8.5,-4.46 -17.1,-8.34 -26,-11.66 -8.8,-3.44 -17.5,-6.56 -26,-9.36 -8.4,-2.93 -15.9,-6.11 -22.6,-9.55 -6.6,-3.44 -11.9,-7.39 -16,-11.85 -4.1,-4.58 -6.1,-10.12 -6.1,-16.62 0,-10.44 3.7,-18.53 11.1,-24.26 7.3,-5.74 17.6,-8.6 30.7,-8.6 6.6,0 12.6,0.7 18,2.1 5.5,1.4 10.3,3.38 14.5,5.92 4.2,2.42 7.8,5.35 10.7,8.79 2.9,3.31 5.2,6.94 6.9,10.89 v 0.01 l 37.6,-12.61 c -2.4,-7.77 -6,-14.97 -10.7,-21.59 -4.7,-6.63 -10.6,-12.36 -17.8,-17.2 -7,-4.84 -15.2,-8.6 -24.6,-11.27 -9.4,-2.81 -19.9,-4.21 -31.5,-4.21 z m 748.2,4.58 v 39.17 h 77.5 V 398.4 h 40.7 V 163.58 h 77.4 v -39.17 z m -1632.6,0.02 v 273.97 0.01 h 52.9 V 297.53 h 64.6 c 11,0 21,-1.21 30,-3.63 9,-2.42 17,-5.74 23.8,-9.94 7,-4.33 13,-9.3 18,-14.9 5,-5.61 9,-11.59 12.2,-17.96 3.2,-6.5 5.6,-13.12 7.1,-19.87 1.5,-6.88 2.3,-13.63 2.3,-20.25 0,-10.58 -1.7,-21.02 -5,-31.34 -3.2,-10.31 -8.4,-19.55 -15.8,-27.7 -7.4,-8.28 -17,-14.9 -28.9,-19.87 -11.8,-5.1 -26.4,-7.64 -43.7,-7.64 z m 262.3,0 v 273.97 0.01 h 195.2 v -50.06 h -142.3 v -66.11 h 78.9 v -50.05 h -78.9 v -57.51 h 134.1 v -50.25 z m 252.2,0 V 398.4 h 52.5 V 238.67 c 0,-2.93 -0.1,-6.37 -0.4,-10.32 -0.1,-3.95 -0.3,-7.38 -0.7,-10.31 1.5,3.31 3.3,6.94 5.3,10.89 2.2,3.82 4.2,7.07 5.9,9.74 l 108.8,159.73 h 47 V 124.43 h -52.4 v 157.81 c 0,2.55 0.1,5.74 0.2,9.56 0.3,3.69 0.6,7.39 1,11.08 -1.7,-3.57 -3.6,-7.26 -5.8,-11.08 -2.1,-3.82 -4.1,-7.01 -5.7,-9.56 l -106,-157.81 z m 524.9,0 V 398.4 h 40.7 V 276.31 h 125 V 398.4 h 40.6 V 124.43 h -40.6 v 113.49 h -125 V 124.43 Z m 278.8,0 V 398.4 h 40.7 V 124.43 Z m 113.3,0 v 273.97 0.01 h 40.7 V 276.32 h 83.5 v -38.4 h -83.5 v -75.09 h 129.1 v -38.4 z m 452.2,1.77 c -1.7,0 -3.4,0.22 -5,0.65 -1.6,0.42 -3.1,1.03 -4.4,1.82 -1.4,0.79 -2.6,1.74 -3.7,2.85 -1.2,1.11 -2.1,2.36 -2.9,3.74 -0.8,1.37 -1.4,2.85 -1.8,4.44 -0.5,1.58 -0.7,3.25 -0.7,4.99 0,2.63 0.5,5.08 1.4,7.34 1,2.25 2.3,4.2 4,5.86 1.6,1.65 3.6,2.95 5.8,3.9 2.3,0.94 4.7,1.42 7.3,1.42 1.8,0 3.4,-0.22 5,-0.65 1.6,-0.43 3.1,-1.04 4.5,-1.82 1.3,-0.78 2.6,-1.73 3.7,-2.85 1.1,-1.13 2.1,-2.38 2.9,-3.74 0.8,-1.36 1.4,-2.84 1.8,-4.44 0.4,-1.6 0.6,-3.27 0.6,-5.02 0,-1.74 -0.2,-3.41 -0.6,-4.99 -0.4,-1.59 -1,-3.07 -1.8,-4.44 -0.8,-1.38 -1.8,-2.63 -2.9,-3.74 -1.1,-1.11 -2.4,-2.06 -3.7,-2.85 -1.4,-0.79 -2.9,-1.4 -4.5,-1.82 -1.6,-0.43 -3.2,-0.65 -5,-0.65 z m 0,3.67 c 2.1,0 4.1,0.38 5.9,1.15 1.7,0.75 3.3,1.79 4.6,3.12 1.3,1.31 2.3,2.88 3,4.69 0.7,1.8 1.1,3.75 1.1,5.86 0,2.12 -0.4,4.08 -1.1,5.89 -0.7,1.8 -1.7,3.36 -3,4.69 -1.3,1.32 -2.9,2.36 -4.6,3.12 -1.8,0.75 -3.8,1.13 -5.9,1.13 -2.1,0 -4,-0.38 -5.8,-1.13 -1.8,-0.76 -3.3,-1.8 -4.6,-3.12 -1.3,-1.33 -2.3,-2.89 -3,-4.69 -0.8,-1.81 -1.1,-3.77 -1.1,-5.89 0,-2.11 0.3,-4.06 1.1,-5.86 0.7,-1.81 1.7,-3.38 3,-4.69 1.3,-1.33 2.8,-2.37 4.6,-3.12 1.8,-0.77 3.7,-1.15 5.8,-1.15 z m -7.3,4.04 v 21.56 h 3.8 v -8.63 h 3.2 l 4.1,8.63 h 4.4 c -0.7,-1.43 -1.4,-2.92 -2.2,-4.46 -0.8,-1.57 -1.5,-3.07 -2.2,-4.52 0.8,-0.25 1.5,-0.59 2,-1.02 0.6,-0.44 1.1,-0.92 1.4,-1.47 0.4,-0.55 0.7,-1.14 0.8,-1.75 0.2,-0.63 0.3,-1.27 0.3,-1.9 0,-0.81 -0.1,-1.6 -0.4,-2.37 -0.2,-0.78 -0.6,-1.47 -1.1,-2.07 -0.6,-0.6 -1.3,-1.08 -2.2,-1.45 -0.9,-0.36 -2.1,-0.55 -3.4,-0.55 z m 3.8,3.62 h 4.7 c 0.6,0 1.2,0.08 1.6,0.25 0.4,0.17 0.7,0.39 0.9,0.68 0.3,0.26 0.4,0.56 0.5,0.89 0.1,0.34 0.1,0.67 0.1,1 0,0.38 0,0.75 -0.1,1.1 -0.1,0.35 -0.3,0.66 -0.5,0.92 -0.3,0.27 -0.6,0.48 -1,0.63 -0.4,0.15 -0.9,0.22 -1.5,0.22 h -4.7 z m -2061.7,33.12 c 8.15,0 15.41,1.27 21.78,3.82 6.5,2.55 12.17,6.05 17.01,10.51 4.84,4.33 8.98,9.49 12.42,15.47 3.43,5.86 6.24,12.17 8.4,18.92 2.17,6.62 3.7,13.56 4.59,20.82 1.02,7.14 1.53,14.21 1.53,21.21 0,9.94 -1.15,20.25 -3.44,30.95 -2.29,10.58 -6.05,20.32 -11.28,29.24 -5.09,8.91 -11.84,16.24 -20.25,21.97 -8.28,5.73 -18.53,8.6 -30.76,8.6 -12.35,0 -22.74,-2.74 -31.14,-8.22 -8.41,-5.6 -15.22,-12.74 -20.45,-21.4 -5.09,-8.79 -8.78,-18.53 -11.08,-29.23 -2.29,-10.83 -3.44,-21.46 -3.44,-31.91 0,-6.62 0.45,-13.44 1.34,-20.44 1.02,-7.01 2.61,-13.88 4.78,-20.64 2.16,-6.75 4.97,-13.12 8.4,-19.1 3.44,-5.99 7.58,-11.21 12.42,-15.67 4.97,-4.58 10.64,-8.21 17.01,-10.89 6.49,-2.67 13.88,-4.01 22.16,-4.01 z m 234.41,4.02 h 66.9 c 7.1,0 13,1.14 17.7,3.44 4.7,2.29 8.4,5.22 11.1,8.78 2.8,3.57 4.7,7.52 5.7,11.85 1.2,4.2 1.8,8.28 1.8,12.23 0,4.33 -0.7,8.66 -2,12.99 -1.2,4.33 -3.3,8.22 -6.3,11.66 -2.8,3.43 -6.5,6.24 -11,8.4 -4.6,2.17 -10.3,3.25 -17,3.25 h -66.9 z"
             id="path8481-2"
             inkscape:connector-curvature="0"
             style="fill:#ffffff;fill-opacity:1" />
          <path
             d="m -2281,-254.37 -91.447,33.275 c 1.172,14.661 3.6972,29.144 7.2524,43.333 l 86.858,-31.631 c -2.8164,-14.686 -3.8215,-29.819 -2.6637,-44.977"
             id="path3985-0"
             inkscape:connector-curvature="0"
             style="fill:#db212f" />
          <path
             d="m -1876.9,-355.49 c -6.3787,-13.155 -13.755,-25.87 -22.3,-37.849 l -91.422,33.275 c 10.641,10.882 19.562,23.114 26.864,36.194 z"
             id="path3989-6"
             inkscape:connector-curvature="0"
             style="fill:#db212f" />
          <path
             d="m -2078.1,-381.38 c 19.022,8.8754 35.502,20.983 49.396,35.182 l 91.425,-33.278 c -25.319,-35.534 -59.816,-65.229 -102.09,-84.951 -130.69,-60.942 -286.62,-4.1909 -347.56,126.48 -19.722,42.289 -27.053,87.213 -23.615,130.7 l 91.436,-33.271 c 1.5166,-19.811 6.3538,-39.661 15.215,-58.694 39.604,-84.915 140.89,-121.76 225.79,-82.173"
             id="path3993-1"
             inkscape:connector-curvature="0"
             style="fill:#db212f" />
          <path
             d="m -2359.5,-179.86 -86.876,31.641 c 7.984,31.673 21.832,61.766 40.854,88.548 l 91.23,-33.211 c -23.419,-24.048 -38.989,-54.471 -45.208,-86.979"
             id="path3997-5"
             inkscape:connector-curvature="0"
             style="fill:#ea2227" />
          <path
             d="m -1980.6,-214.31 c -1.4455,19.8 -6.4497,39.661 -15.336,58.708 -39.604,84.919 -140.88,121.77 -225.79,82.17 -19.047,-8.8826 -35.64,-20.894 -49.492,-35.118 l -91.234,33.215 c 25.266,35.537 59.727,65.239 102.01,84.976 130.7,60.931 286.6,4.1802 347.55,-126.5 19.733,-42.282 27.02,-87.188 23.529,-130.65 l -91.205,33.2 z"
             id="path4001-5"
             inkscape:connector-curvature="0"
             style="fill:#db212f" />
          <path
             d="m -1958.1,-325.94 -86.869,31.62 c 16.135,28.906 23.753,62.199 21.26,95.673 l 91.234,-33.19 c -2.6104,-32.742 -11.344,-64.699 -25.625,-94.103"
             id="path4005-4"
             inkscape:connector-curvature="0"
             style="fill:#ea2227" />
        </g>
        <text
           id="text9474-1-9-3-3-7"
           style="font-variant:normal;font-weight:normal;font-size:24.1230526px;font-family:'DejaVu Sans';-inkscape-font-specification:DejaVuSans;writing-mode:lr-tb;fill:#ffffff;fill-opacity:1;fill-rule:nonzero;stroke:none;stroke-width:0.80352634"
           x="930.00732"
           y="739.28558"
           inkscape:export-xdpi="266.23114"
           inkscape:export-ydpi="266.23114">
          <tspan
             style="font-style:normal;font-variant:normal;font-weight:normal;font-stretch:normal;font-family:Overpass;-inkscape-font-specification:'Overpass Bold';stroke-width:0.80352634"
             id="tspan9476-3-6-2-6-6"
             sodipodi:role="line"
             y="739.28558"
             x="930.00732">ROUTER</tspan>
        </text>
      </g>
      <g
         inkscape:label="Layer 1"
         id="layer1-6-0-5"
         transform="matrix(0.26496637,0,0,0.26496637,875.50062,732.45567)">
        <g
           id="g13760-5-69"
           transform="matrix(0.9747037,0,0,0.9747037,6.9247568,10.008165)"
           style="stroke:none;stroke-opacity:1">
          <rect
             rx="8.2404203"
             y="188.75124"
             x="278.87204"
             height="201.8911"
             width="201.8911"
             id="rect4136-3-3"
             style="opacity:1;fill:#8bc34a;fill-opacity:1;stroke:none;stroke-width:5.13989592;stroke-miterlimit:4;stroke-dasharray:none;stroke-dashoffset:0;stroke-opacity:1" />
          <g
             transform="translate(-1.8216862,-5.96899)"
             id="g4210-2-7"
             style="stroke:none;stroke-opacity:1">
            <path
               style="fill:#ffffff;fill-opacity:1;fill-rule:evenodd;stroke:none;stroke-width:1px;stroke-linecap:butt;stroke-linejoin:miter;stroke-opacity:1"
               d="m 289.17847,308.80944 v -24.24367 h 41.41626 v -23.2335 l 35.35533,35.35533 -34.85026,34.85027 v -23.73859 z"
               id="path4138-1-45"
               inkscape:connector-curvature="0" />
            <g
               id="g4205-9-2"
               style="stroke:none;stroke-opacity:1">
              <path
                 inkscape:connector-curvature="0"
                 id="path4138-3-7-5"
                 d="m 404.74884,241.2191 v -21.9004 h 37.41318 v -20.98787 l 31.93806,31.93806 -31.48181,31.48183 v -21.44414 z"
                 style="fill:#ffffff;fill-opacity:1;fill-rule:evenodd;stroke:none;stroke-width:1px;stroke-linecap:butt;stroke-linejoin:miter;stroke-opacity:1" />
              <path
                 inkscape:connector-curvature="0"
                 id="path4138-3-3-6-4"
                 d="m 404.74884,306.84414 v -21.9004 h 37.41318 v -20.98787 l 31.93806,31.93806 -31.48181,31.48183 v -21.44414 z"
                 style="fill:#ffffff;fill-opacity:1;fill-rule:evenodd;stroke:none;stroke-width:1px;stroke-linecap:butt;stroke-linejoin:miter;stroke-opacity:1" />
              <path
                 inkscape:connector-curvature="0"
                 id="path4138-3-4-8-7"
                 d="m 404.74884,372.4691 v -21.9004 h 37.41318 v -20.98787 l 31.93806,31.93806 -31.48181,31.48183 v -21.44414 z"
                 style="fill:#ffffff;fill-opacity:1;fill-rule:evenodd;stroke:none;stroke-width:1px;stroke-linecap:butt;stroke-linejoin:miter;stroke-opacity:1" />
            </g>
          </g>
        </g>
      </g>
    </g>
    <g
       id="g7152-2-9-44"
       transform="matrix(0,-1.7866452,-1.7866452,0,2150.2241,2874.942)"
       style="stroke:#000000;stroke-opacity:1">
      <g
         inkscape:label="Layer 1"
         id="layer1-7-9-4-3"
         transform="translate(593.80036,306.58137)"
         style="stroke:#000000;stroke-opacity:1">
        <path
           style="fill:#000000;fill-opacity:1;fill-rule:evenodd;stroke:#000000;stroke-width:3;stroke-linecap:butt;stroke-linejoin:miter;stroke-miterlimit:4;stroke-dasharray:none;stroke-opacity:1"
           d="m 419.02464,330.70861 h 5.39588 l -5.39588,-5.95691 -5.58483,5.95691 h 5.58483"
           id="path7655-6-3-7-07"
           inkscape:connector-curvature="0"
           sodipodi:nodetypes="ccccc" />
      </g>
      <path
         inkscape:connector-curvature="0"
         id="path7147-1-8-8"
         d="M 1196.1413,871.37851 V 776.29946 L 1012.6906,758.7926 v -99.36418 -20.65521"
         style="fill:none;fill-rule:evenodd;stroke:#000000;stroke-width:2.83464575;stroke-linecap:butt;stroke-linejoin:miter;stroke-miterlimit:4;stroke-dasharray:none;stroke-opacity:1"
         sodipodi:nodetypes="ccccc" />
    </g>
    <g
       id="g7152-2-3"
       transform="matrix(0,1.7866452,-1.7866452,0,2618.4178,-1108.8602)"
       style="stroke:#0000ff;stroke-opacity:1">
      <g
         inkscape:label="Layer 1"
         id="layer1-7-9-1"
         transform="translate(593.80036,306.58137)"
         style="stroke:#0000ff;stroke-opacity:1">
        <path
           style="fill:#0000ff;fill-opacity:1;fill-rule:evenodd;stroke:#0000ff;stroke-width:3;stroke-linecap:butt;stroke-linejoin:miter;stroke-miterlimit:4;stroke-dasharray:none;stroke-opacity:1"
           d="m 323.52443,384.23071 h 5.39588 l -5.39588,-5.95691 -5.58483,5.95691 h 5.58483"
           id="path7655-6-3-4"
           inkscape:connector-curvature="0"
           sodipodi:nodetypes="ccccc" />
      </g>
      <path
         inkscape:connector-curvature="0"
         id="path7147-1-9"
         d="M 1199.2897,838.84547 V 789.94235 L 917.19045,761.94096 v -51.08935 -18.5563"
         style="fill:none;fill-rule:evenodd;stroke:#0000ff;stroke-width:2.83464575;stroke-linecap:butt;stroke-linejoin:miter;stroke-miterlimit:4;stroke-dasharray:none;stroke-opacity:1"
         sodipodi:nodetypes="ccccc" />
    </g>
    <g
       id="g7152-2-3-2"
       transform="matrix(0,1.7866452,-1.7866452,0,2618.6013,-995.3733)"
       style="stroke:#0000ff;stroke-opacity:1">
      <g
         inkscape:label="Layer 1"
         id="layer1-7-9-1-0"
         transform="translate(593.80036,306.58137)"
         style="stroke:#0000ff;stroke-opacity:1">
        <path
           style="fill:#0000ff;fill-opacity:1;fill-rule:evenodd;stroke:#0000ff;stroke-width:3;stroke-linecap:butt;stroke-linejoin:miter;stroke-miterlimit:4;stroke-dasharray:none;stroke-opacity:1"
           d="m 323.52443,384.23071 h 5.39588 l -5.39588,-5.95691 -5.58483,5.95691 h 5.58483"
           id="path7655-6-3-4-6"
           inkscape:connector-curvature="0"
           sodipodi:nodetypes="ccccc" />
      </g>
      <path
         inkscape:connector-curvature="0"
         id="path7147-1-9-8"
         d="M 1153.1138,838.84547 V 770.00274 L 917.19045,744.10026 v -33.24865 -18.5563"
         style="fill:none;fill-rule:evenodd;stroke:#0000ff;stroke-width:2.83464575;stroke-linecap:butt;stroke-linejoin:miter;stroke-miterlimit:4;stroke-dasharray:none;stroke-opacity:1"
         sodipodi:nodetypes="ccccc" />
    </g>
    <g
       id="g7152-2-3-2-9"
       transform="matrix(0,1.7866452,-1.7866452,0,2618.8195,-748.63761)"
       style="stroke:#0000ff;stroke-opacity:1">
      <g
         inkscape:label="Layer 1"
         id="layer1-7-9-1-0-2"
         transform="translate(593.80036,306.58137)"
         style="stroke:#0000ff;stroke-opacity:1">
        <path
           style="fill:#0000ff;fill-opacity:1;fill-rule:evenodd;stroke:#0000ff;stroke-width:3;stroke-linecap:butt;stroke-linejoin:miter;stroke-miterlimit:4;stroke-dasharray:none;stroke-opacity:1"
           d="m 323.52443,384.23071 h 5.39588 l -5.39588,-5.95691 -5.58483,5.95691 h 5.58483"
           id="path7655-6-3-4-6-6"
           inkscape:connector-curvature="0"
           sodipodi:nodetypes="ccccc" />
      </g>
      <path
         inkscape:connector-curvature="0"
         id="path7147-1-9-8-6"
         d="M 1032.4267,838.84547 V 751.11259 L 917.19045,737.80354 v -26.95193 -18.5563"
         style="fill:none;fill-rule:evenodd;stroke:#0000ff;stroke-width:2.83464575;stroke-linecap:butt;stroke-linejoin:miter;stroke-miterlimit:4;stroke-dasharray:none;stroke-opacity:1"
         sodipodi:nodetypes="ccccc" />
    </g>
  </g>
</svg>
