<?xml version="1.0" encoding="UTF-8" standalone="no"?>
<!-- Created with Inkscape (http://www.inkscape.org/) -->

<svg
   xmlns:dc="http://purl.org/dc/elements/1.1/"
   xmlns:cc="http://creativecommons.org/ns#"
   xmlns:rdf="http://www.w3.org/1999/02/22-rdf-syntax-ns#"
   xmlns:svg="http://www.w3.org/2000/svg"
   xmlns="http://www.w3.org/2000/svg"
   xmlns:xlink="http://www.w3.org/1999/xlink"
   xmlns:sodipodi="http://sodipodi.sourceforge.net/DTD/sodipodi-0.dtd"
   xmlns:inkscape="http://www.inkscape.org/namespaces/inkscape"
   id="svg4155"
   version="1.1"
   inkscape:version="0.91 r13725"
   xml:space="preserve"
   width="1920"
   height="1080"
   viewBox="0 0 1920 1080"
   sodipodi:docname="contribution.svg"><metadata
     id="metadata4161"><rdf:RDF><cc:Work
         rdf:about=""><dc:format>image/svg+xml</dc:format><dc:type
           rdf:resource="http://purl.org/dc/dcmitype/StillImage" /><dc:title /></cc:Work></rdf:RDF></metadata><defs
     id="defs4159"><clipPath
       clipPathUnits="userSpaceOnUse"
       id="clipPath4169"><path
         d="M 0,0 612,0 612,792 0,792 0,0 Z"
         id="path4171"
         inkscape:connector-curvature="0"
         style="clip-rule:evenodd" /></clipPath><clipPath
       id="clipPath3207"
       clipPathUnits="userSpaceOnUse"><path
         id="path3209"
         d="m 584.035,499.044 188.819,0 0,21.947 -188.819,0 0,-21.947 z"
         inkscape:connector-curvature="0" /></clipPath><style
       id="style6431">.cls-1{fill:#008fd4;}</style></defs><sodipodi:namedview
     pagecolor="#ffffff"
     bordercolor="#666666"
     borderopacity="1"
     objecttolerance="10"
     gridtolerance="10"
     guidetolerance="10"
     inkscape:pageopacity="0"
     inkscape:pageshadow="2"
     inkscape:window-width="1920"
     inkscape:window-height="1016"
     id="namedview4157"
     showgrid="false"
     inkscape:zoom="0.60282638"
     inkscape:cx="1041.2259"
     inkscape:cy="693.73438"
     inkscape:window-x="0"
     inkscape:window-y="27"
     inkscape:window-maximized="1"
     inkscape:current-layer="g4163" /><g
     id="g4163"
     inkscape:groupmode="layer"
     inkscape:label="Ocata_contribution"
     transform="matrix(1.25,0,0,-1.25,0,1080)"><g
       id="g5336"
       transform="matrix(2.1819094,0,0,2.1819094,-280.92348,-893.18267)"
       inkscape:export-filename="/home/celebdor/Pictures/ocata_contribution_v2.png"
       inkscape:export-xdpi="145.52834"
       inkscape:export-ydpi="145.52834"><g
         id="g5324"><path
           d="m 252,729.8 c -12.9,0 -25.7,-2.1 -37.9,-6 -12.2,-4 -23.7,-9.9 -34.1,-17.4 -10.4,-7.6 -19.5,-16.7 -27.1,-27.1 -7.5,-10.4 -13.4,-21.9 -17.4,-34.1 -3.9,-12.3 -6,-25 -6,-37.9 0,-12.8 2.1,-25.6 6,-37.8 1.7,-5.3 3.8,-10.4 6.2,-15.4 l 110.3,53.2 0,0 0,0 0,0 0,0 0,0 0,0 0,0 0,122.5 z"
           style="fill:#004586;fill-opacity:1;fill-rule:evenodd;stroke:none"
           id="path4177"
           inkscape:connector-curvature="0" /><path
           d="m 141.7,554.1 c 3.2,-6.6 6.9,-12.8 11.2,-18.7 7.6,-10.4 16.7,-19.6 27.1,-27.1 10.4,-7.6 21.9,-13.4 34.1,-17.4 12.2,-4 25,-6 37.9,-6 5.3,0 10.6,0.4 15.9,1 l -15.9,121.4 0,0 0,0 0,0 0,0 0,0 -110.3,-53.2 z"
           style="fill:#ffd320;fill-opacity:1;fill-rule:evenodd;stroke:none"
           id="path4179"
           inkscape:connector-curvature="0" /><path
           d="m 267.9,485.9 c 7.4,1 14.8,2.7 21.9,5 12.2,4 23.7,9.8 34.1,17.4 10.4,7.5 19.5,16.7 27.1,27.1 6.5,8.9 11.7,18.7 15.6,29 l -114.6,42.9 0,0 0,0 0,0 0,0 15.9,-121.4 z"
           style="fill:#ff420e;fill-opacity:1;fill-rule:evenodd;stroke:none"
           id="path4181"
           inkscape:connector-curvature="0" /><path
           d="m 366.6,564.4 c 0.6,1.7 1.2,3.4 1.8,5.1 4,12.2 6,25 6,37.8 0,12.9 -2,25.6 -6,37.9 -1.1,3.2 -2.2,6.4 -3.6,9.5 L 252,607.3 l 0,0 0,0 0,0 0,0 114.6,-42.9 z"
           style="fill:#579d1c;fill-opacity:1;fill-rule:evenodd;stroke:none"
           id="path4183"
           inkscape:connector-curvature="0" /><path
           d="m 364.8,654.7 c -3.6,8.7 -8.3,17 -13.8,24.6 -7.6,10.4 -16.7,19.5 -27.1,27.1 -0.9,0.7 -1.9,1.4 -2.8,2 L 252,607.3 l 0,0 0,0 0,0 112.8,47.4 z"
           style="fill:#7e0021;fill-opacity:1;fill-rule:evenodd;stroke:none"
           id="path4185"
           inkscape:connector-curvature="0" /><path
           d="m 321.1,708.4 c -7.5,5.1 -15.6,9.4 -23.9,12.7 L 252,607.3 l 0,0 69.1,101.1 z"
           style="fill:#83caff;fill-opacity:1;fill-rule:evenodd;stroke:none"
           id="path4187"
           inkscape:connector-curvature="0" /><path
           d="m 297.2,721.1 c -6,2.4 -12.1,4.3 -18.3,5.7 L 252,607.3 l 0,0 45.2,113.8 z"
           style="fill:#314004;fill-opacity:1;fill-rule:evenodd;stroke:none"
           id="path4189"
           inkscape:connector-curvature="0" /><path
           d="m 278.9,726.8 c -4.7,1 -9.4,1.8 -14.2,2.3 L 252,607.3 l 0,0 26.9,119.5 z"
           style="fill:#aecf00;fill-opacity:1;fill-rule:evenodd;stroke:none"
           id="path4191"
           inkscape:connector-curvature="0" /><path
           d="m 264.7,729.1 c -2.1,0.2 -4.2,0.4 -6.4,0.5 l -6.3,-122.3 0,0 12.7,121.8 z"
           style="fill:#84580e;fill-opacity:1;fill-rule:evenodd;stroke:none"
           id="path4193"
           inkscape:connector-curvature="0" /><path
           d="m 258.3,729.6 c -2.1,0.1 -4.2,0.2 -6.3,0.2 l 0,-122.5 0,0 6.3,122.3 z"
           style="fill:#ff950e;fill-opacity:1;fill-rule:evenodd;stroke:none"
           id="path4195"
           inkscape:connector-curvature="0" /></g><g
         transform="translate(446.67299,367.8)"
         id="g5312"><path
           d="m 262.9,362 c -12.9,0 -25.7,-2 -37.9,-5.9 -12.2,-4 -23.7,-9.9 -34.1,-17.4 -10.4,-7.6 -19.5,-16.7 -27.1,-27.1 -7.6,-10.4 -13.4,-21.9 -17.4,-34.1 -1.5,-4.8 -2.8,-9.7 -3.7,-14.6 l 120.2,-23.3 0,0 0,0 0,0 0,0 0,0 0,122.4 z"
           style="fill:#83caff;fill-opacity:1;fill-rule:evenodd;stroke:none"
           id="path4279"
           inkscape:connector-curvature="0" /><path
           d="m 142.7,262.9 c -1.5,-7.7 -2.3,-15.5 -2.3,-23.3 0,-12.8 2,-25.6 6,-37.8 4,-12.2 9.8,-23.7 17.4,-34.1 6.1,-8.4 13.2,-15.9 21.2,-22.5 l 77.9,94.4 0,0 0,0 0,0 0,0 -120.2,23.3 z"
           style="fill:#004586;fill-opacity:1;fill-rule:evenodd;stroke:none"
           id="path4281"
           inkscape:connector-curvature="0" /><path
           d="m 185,145.2 c 1.9,-1.6 3.9,-3.2 5.9,-4.6 10.4,-7.6 21.9,-13.4 34.1,-17.4 12.2,-4 25,-6 37.9,-6 12.5,0 25,1.9 36.9,5.7 l -36.9,116.7 0,0 0,0 0,0 0,0 -77.9,-94.4 z"
           style="fill:#7e0021;fill-opacity:1;fill-rule:evenodd;stroke:none"
           id="path4283"
           inkscape:connector-curvature="0" /><path
           d="m 299.8,122.9 c 0.3,0.1 0.6,0.2 0.9,0.3 12.2,4 23.7,9.8 34.1,17.4 10.4,7.5 19.5,16.7 27.1,27.1 7.5,10.4 13.4,21.9 17.4,34.1 0.6,1.8 1.1,3.6 1.6,5.4 l -118,32.4 0,0 0,0 0,0 0,0 0,0 36.9,-116.7 z"
           style="fill:#ff420e;fill-opacity:1;fill-rule:evenodd;stroke:none"
           id="path4285"
           inkscape:connector-curvature="0" /><path
           d="m 380.9,207.2 c 2.9,10.6 4.4,21.5 4.4,32.4 0,11 -1.5,21.9 -4.4,32.5 l -118,-32.5 0,0 0,0 118,-32.4 z"
           style="fill:#579d1c;fill-opacity:1;fill-rule:evenodd;stroke:none"
           id="path4287"
           inkscape:connector-curvature="0" /><path
           d="m 380.9,272.1 c -0.5,1.8 -1,3.6 -1.6,5.4 -4,12.2 -9.9,23.7 -17.4,34.1 -0.6,0.7 -1.1,1.5 -1.7,2.3 l -97.3,-74.3 0,0 0,0 0,0 118,32.5 z"
           style="fill:#314004;fill-opacity:1;fill-rule:evenodd;stroke:none"
           id="path4289"
           inkscape:connector-curvature="0" /><path
           d="m 360.2,313.9 c -7.6,9.9 -16.7,18.7 -26.9,25.9 l -70.4,-100.2 0,0 97.3,74.3 z"
           style="fill:#ffd320;fill-opacity:1;fill-rule:evenodd;stroke:none"
           id="path4291"
           inkscape:connector-curvature="0" /><path
           d="m 333.3,339.8 c -7.7,5.4 -16,9.9 -24.7,13.4 l -45.7,-113.6 0,0 70.4,100.2 z"
           style="fill:#ae5cf1;fill-opacity:1;fill-rule:evenodd;stroke:none"
           id="path4293"
           inkscape:connector-curvature="0" /><path
           d="m 308.6,353.2 c -8.7,3.5 -17.8,6 -27.1,7.4 l -18.6,-121 0,0 45.7,113.6 z"
           style="fill:#4b1f6f;fill-opacity:1;fill-rule:evenodd;stroke:none"
           id="path4295"
           inkscape:connector-curvature="0" /><path
           d="m 281.5,360.6 c -6.1,1 -12.4,1.4 -18.6,1.4 l 0,-122.4 0,0 18.6,121 z"
           style="fill:#84580e;fill-opacity:1;fill-rule:evenodd;stroke:none"
           id="path4297"
           inkscape:connector-curvature="0" /></g><g
         transform="translate(-109.93779,365.77529)"
         id="g5099-5"><path
           d="m 553.83328,302.02471 -3,0 0,6 6,0 0,-6 -3,0 z"
           style="fill:#004586;fill-opacity:1;fill-rule:evenodd;stroke:none"
           id="path4197-6-0"
           inkscape:connector-curvature="0" /><path
           d="m 553.83328,287.92471 -3,0 0,6 6,0 0,-6 -3,0 z"
           style="fill:#ffd320;fill-opacity:1;fill-rule:evenodd;stroke:none"
           id="path4199-7-3"
           inkscape:connector-curvature="0" /><path
           d="m 553.83328,273.82471 -3,0 0,6 6,0 0,-6 -3,0 z"
           style="fill:#ff420e;fill-opacity:1;fill-rule:evenodd;stroke:none"
           id="path4201-5-6"
           inkscape:connector-curvature="0" /><path
           d="m 553.83328,259.72471 -3,0 0,6 6,0 0,-6 -3,0 z"
           style="fill:#579d1c;fill-opacity:1;fill-rule:evenodd;stroke:none"
           id="path4203-3-1"
           inkscape:connector-curvature="0" /><path
           d="m 553.83328,245.62471 -3,0 0,6 6,0 0,-6 -3,0 z"
           style="fill:#7e0021;fill-opacity:1;fill-rule:evenodd;stroke:none"
           id="path4205-5-0"
           inkscape:connector-curvature="0" /><path
           d="m 553.83328,231.52471 -3,0 0,6 6,0 0,-6 -3,0 z"
           style="fill:#83caff;fill-opacity:1;fill-rule:evenodd;stroke:none"
           id="path4207-6-6"
           inkscape:connector-curvature="0" /><path
           d="m 553.83328,217.42471 -3,0 0,6 6,0 0,-6 -3,0 z"
           style="fill:#314004;fill-opacity:1;fill-rule:evenodd;stroke:none"
           id="path4209-2-3"
           inkscape:connector-curvature="0" /><path
           d="m 553.83328,203.32471 -3,0 0,5.9 6,0 0,-5.9 -3,0 z"
           style="fill:#aecf00;fill-opacity:1;fill-rule:evenodd;stroke:none"
           id="path4211-9-2"
           inkscape:connector-curvature="0" /><path
           d="m 553.83328,189.12471 -3,0 0,6 6,0 0,-6 -3,0 z"
           style="fill:#4b1f6f;fill-opacity:1;fill-rule:evenodd;stroke:none"
           id="path4213-1-0"
           inkscape:connector-curvature="0" /><path
           d="m 553.83328,175.02471 -3,0 0,6 6,0 0,-6 -3,0 z"
           style="fill:#ff950e;fill-opacity:1;fill-rule:evenodd;stroke:none"
           id="path4215-2-6"
           inkscape:connector-curvature="0" /><g
           id="g4217-7-1"
           transform="translate(115.13328,-365.77529)"><text
             transform="matrix(1,0,0,-1,444.5,667.4)"
             style="font-variant:normal;font-weight:normal;font-size:10px;font-family:LiberationSans;-inkscape-font-specification:LiberationSans;writing-mode:lr-tb;fill:#000000;fill-opacity:1;fill-rule:nonzero;stroke:none"
             id="text4219-0-5"><tspan
               x="0 6.6999998 12 17.299999 20.190001 26.99 32.290001"
               y="0"
               sodipodi:role="line"
               id="tspan4221-9-5">Red Hat</tspan></text>
</g><g
           id="g4223-3-4"
           transform="translate(115.13328,-365.77529)"><text
             transform="matrix(1,0,0,-1,444.5,653.3)"
             style="font-variant:normal;font-weight:normal;font-size:10px;font-family:LiberationSans;-inkscape-font-specification:LiberationSans;writing-mode:lr-tb;fill:#000000;fill-opacity:1;fill-rule:nonzero;stroke:none"
             id="text4225-6-7"><tspan
               x="0 6.6999998 12 17.299999 24 29.299999"
               y="0"
               sodipodi:role="line"
               id="tspan4227-0-6">Huawei</tspan></text>
</g><g
           id="g4229-6-5"
           transform="translate(115.13328,-365.77529)"><text
             transform="matrix(1,0,0,-1,444.5,639.2)"
             style="font-variant:normal;font-weight:normal;font-size:10px;font-family:LiberationSans;-inkscape-font-specification:LiberationSans;writing-mode:lr-tb;fill:#000000;fill-opacity:1;fill-rule:nonzero;stroke:none"
             id="text4231-2-6"><tspan
               x="0 6.6999998 8.9899998 14.28 19.469999 24.67 27.76 34.450001 39.639999 44.93 47.919998 53.220001 61.419998"
               y="0"
               sodipodi:role="line"
               id="tspan4233-6-9">Cisco Systems</tspan></text>
</g><g
           id="g4235-1-3"
           transform="translate(115.13328,-365.77529)"><text
             transform="matrix(1,0,0,-1,444.5,625.1)"
             style="font-variant:normal;font-weight:normal;font-size:10px;font-family:LiberationSans;-inkscape-font-specification:LiberationSans;writing-mode:lr-tb;fill:#000000;fill-opacity:1;fill-rule:nonzero;stroke:none"
             id="text4237-8-7"><tspan
               x="0 6 12.8 17.99 20.190001 25.49 30.790001"
               y="0"
               sodipodi:role="line"
               id="tspan4239-7-4">Awcloud</tspan></text>
</g><g
           id="g4241-9-5"
           transform="translate(115.13328,-365.77529)"><text
             transform="matrix(1,0,0,-1,444.5,611)"
             style="font-variant:normal;font-weight:normal;font-size:10px;font-family:LiberationSans;-inkscape-font-specification:LiberationSans;writing-mode:lr-tb;fill:#000000;fill-opacity:1;fill-rule:nonzero;stroke:none"
             id="text4243-2-2"><tspan
               x="0 6.6999998 13.49"
               y="0"
               sodipodi:role="line"
               id="tspan4245-0-5">NEC</tspan></text>
</g><g
           id="g4247-2-4"
           transform="translate(115.13328,-365.77529)"><text
             transform="matrix(1,0,0,-1,444.5,596.9)"
             style="font-variant:normal;font-weight:normal;font-size:10px;font-family:LiberationSans;-inkscape-font-specification:LiberationSans;writing-mode:lr-tb;fill:#000000;fill-opacity:1;fill-rule:nonzero;stroke:none"
             id="text4249-3-7"><tspan
               x="0 8.1999998 10.49 13.49 18.690001 23.99 26.98 29.27"
               y="0"
               sodipodi:role="line"
               id="tspan4251-7-4">Mirantis</tspan></text>
</g><g
           id="g4253-5-4"
           transform="translate(115.13328,-365.77529)"><text
             transform="matrix(1,0,0,-1,444.5,582.8)"
             style="font-variant:normal;font-weight:normal;font-size:10px;font-family:LiberationSans;-inkscape-font-specification:LiberationSans;writing-mode:lr-tb;fill:#000000;fill-opacity:1;fill-rule:nonzero;stroke:none"
             id="text4255-9-3"><tspan
               x="0 6 12 18.690001 21.68 28.48 33.779999 36.68 41.98 47.279999 50.279999 55.48 58.470001 60.669998 65.970001"
               y="0"
               sodipodi:role="line"
               id="tspan4257-2-0">ZTE Corporation</tspan></text>
</g><g
           id="g4259-2-7"
           transform="translate(115.13328,-365.77529)"><text
             transform="matrix(1,0,0,-1,444.5,568.7)"
             style="font-variant:normal;font-weight:normal;font-size:10px;font-family:LiberationSans;-inkscape-font-specification:LiberationSans;writing-mode:lr-tb;fill:#000000;fill-opacity:1;fill-rule:nonzero;stroke:none"
             id="text4261-8-8"><tspan
               x="0 2.99 8.1899996 11.28 13.48 18.68 20.969999 23.959999"
               y="0"
               sodipodi:role="line"
               id="tspan4263-9-6">Infinite</tspan></text>
</g><g
           id="g4265-7-8"
           transform="translate(115.13328,-365.77529)"><text
             transform="matrix(1,0,0,-1,444.5,554.5)"
             style="font-variant:normal;font-weight:normal;font-size:10px;font-family:LiberationSans;-inkscape-font-specification:LiberationSans;writing-mode:lr-tb;fill:#000000;fill-opacity:1;fill-rule:nonzero;stroke:none"
             id="text4267-3-8"><tspan
               x="0 6 12 18.690001"
               y="0"
               sodipodi:role="line"
               id="tspan4269-6-4">AT&amp;T</tspan></text>
</g><g
           id="g4271-1-3"
           transform="translate(115.13328,-365.77529)"><text
             transform="matrix(1,0,0,-1,444.5,540.4)"
             style="font-variant:normal;font-weight:normal;font-size:10px;font-family:LiberationSans;-inkscape-font-specification:LiberationSans;writing-mode:lr-tb;fill:#000000;fill-opacity:1;fill-rule:nonzero;stroke:none"
             id="text4273-2-1"><tspan
               x="0 2.99 8.1899996 13.48 18.68 23.98"
               y="0"
               sodipodi:role="line"
               id="tspan4275-9-4">Inspur</tspan></text>
</g><g
           id="g4894-9"
           transform="translate(-2.72585,3.2)"><path
             d="m 556.55913,157.72793 -3,0 0,6 6,0 0,-6 -3,0 z"
             style="fill:#ae5cf1;fill-opacity:1;fill-rule:evenodd;stroke:none"
             id="path4313-3-2"
             inkscape:connector-curvature="0" /><text
             transform="scale(1,-1)"
             style="font-variant:normal;font-weight:normal;font-size:10px;font-family:LiberationSans;-inkscape-font-specification:LiberationSans;writing-mode:lr-tb;fill:#000000;fill-opacity:1;fill-rule:nonzero;stroke:none"
             id="text4363-1-0"
             x="562.35913"
             y="-157.32793"><tspan
               x="562.35913 566.05914 568.34912 573.54913 578.84912 584.04913 589.34912 594.54913 599.84912 605.04913 610.34912 615.54913"
               y="-157.32793"
               sodipodi:role="line"
               id="tspan4365-9-6">*independent</tspan></text>
</g><g
           id="g5049-8"
           transform="translate(-2.41433,8)"><path
             inkscape:connector-curvature="0"
             id="path4315-4-9"
             style="fill:#84580e;fill-opacity:1;fill-rule:evenodd;stroke:none"
             d="m 556.24761,139.4871 -3,0 0,6 6,0 0,-6 -3,0 z" /><g
             id="g4367-7-2"
             transform="translate(106.64761,-47.712912)"><text
               id="text4369-8-6"
               style="font-variant:normal;font-weight:normal;font-size:10px;font-family:LiberationSans;-inkscape-font-specification:LiberationSans;writing-mode:lr-tb;fill:#000000;fill-opacity:1;fill-rule:nonzero;stroke:none"
               transform="matrix(1,0,0,-1,455.4,186.8)"><tspan
                 id="tspan4371-4-6"
                 sodipodi:role="line"
                 y="0"
                 x="0 2.99 8.1899996 11.18 16.48">Intel</tspan></text>
</g></g></g></g><g
       id="g4413"
       transform="matrix(0.42215574,0,0,0.42215574,778.88987,210.68853)"><path
         id="path4357"
         d="m 656.95405,827.91789 c 78.4528,99.04 213.372,93.224 255.0832,41.5448 -24.908,16.512 -61.5696,29.1056 -90.2512,24.976 45.2424,-5.6544 59.6408,-26.5472 66.5808,-36.3536 -15.724,11.12 -55.624,35.4776 -96.1944,28.068 28.4952,-3.5096 61.2368,-16.9648 74.6664,-40.8408 -22.9472,16.9776 -61.3504,38.6568 -97.8144,30.272 31.4232,-4.2616 63.0064,-17.728 77.1256,-43.7496 -25.404,17.8032 -117.1016,54.7024 -189.196,-3.9168"
         inkscape:connector-curvature="0"
         style="fill:#231f20" /><path
         id="path4359"
         d="m 1115.3349,853.31469 c -78.3776,-99.2552 -216.47925,-92.5184 -258.19285,-40.8136 24.9168,-16.5432 71.8344,-35.2224 100.0776,-29.1024 -44.5496,7.6488 -69.6928,30.5952 -76.412,40.4632 15.4944,-11.1856 56.0816,-36.56 96.6568,-29.1496 -28.5032,3.5096 -61.6856,18.0432 -75.3528,41.8464 22.9416,-16.9464 62.2576,-39.5888 98.75285,-31.4328 -31.44725,4.4816 -63.72085,18.9792 -78.06565,44.9368 25.6376,-17.7504 120.50645,-55.5856 192.53605,3.252"
         inkscape:connector-curvature="0"
         style="fill:#231f20" /><path
         id="path4361"
         d="m 1036.9925,906.27949 1.328,-9.2376 c -31.0345,-0.1808 -60.82085,-5.1152 -89.29045,-14.5576 -23.7832,-7.9776 -50.4328,-20.7144 -79.956,-38.368 -36.9528,-22.5664 -62.5968,-37.0032 -76.624,-43.6168 -30.1904,-14.2744 -60.7424,-22.4048 -91.7552,-24.2896 35.7464,-1.3568 69.684,3.2304 102.2248,13.9208 23.9616,7.9728 50.956,20.8984 80.8136,38.8888 32.7416,19.3432 58.0448,32.9344 75.9456,40.9208 25.7104,11.1112 51.93605,19.4512 78.94085,24.9728 l 1.3352,-9.1672 29.2592,14.76 -32.2216,5.7736 z"
         inkscape:connector-curvature="0"
         style="clip-rule:evenodd;fill:#d42f1a;fill-rule:evenodd" /><polygon
         transform="matrix(0.8,0,0,-0.8,646.80765,913.37469)"
         id="polygon4363"
         points="111.766,283.925 108.548,226.514 97.562,283.925 90.083,283.925 79.355,226.514 75.988,283.925 65.995,283.925 72.877,202.224 82.86,202.224 94.199,258.864 105.411,202.224 114.899,202.224 122,283.925 "
         style="fill:#231f20" /><rect
         transform="scale(1,-1)"
         id="rect4365"
         height="65.360794"
         width="8.9832001"
         y="-751.59552"
         x="765.86847"
         style="fill:#231f20" /><path
         id="path4367"
         d="m 805.46845,686.23549 -8.8848,0 0,65.3952 10.6904,0 c 5.9912,0 10.736,-1.092 14.2664,-3.336 3.5352,-2.2496 5.2816,-6.7208 5.2816,-13.3728 0,-4.5264 -0.8928,-8.2288 -2.64,-11.0832 -1.7712,-2.8648 -4.976,-4.6344 -9.616,-5.392 l 15.5568,-32.2112 -9.5856,0 -14.8536,31.7864 -0.2152,0 0,-31.7864 z m 0,36.8856 c 3.6712,0 6.6408,0.4856 8.9472,1.548 2.2752,1.0304 3.448,3.776 3.5352,8.252 l 0,1.2048 c 0,4.6072 -0.9888,7.3704 -3.0096,8.3016 -1.9872,0.9504 -5.1352,1.4144 -9.4728,1.4144 l 0,-20.7208 z"
         inkscape:connector-curvature="0"
         style="fill:#231f20" /><path
         id="path4369"
         d="m 860.94525,751.62989 8.2808,0 15.156,-65.3952 -8.668,0 -3.2912,13 -14.8736,0 -3.0888,-13 -8.8904,0 15.3752,65.3952 z m 4.1944,-16.8944 -5.9912,-28.22 11.864,0 -5.8728,28.22 z"
         inkscape:connector-curvature="0"
         style="fill:#231f20" /><polygon
         transform="matrix(0.8,0,0,-0.8,646.80765,913.37469)"
         id="polygon4371"
         points="367.201,202.224 367.201,283.925 356.985,283.925 335.535,226.683 335.535,283.925 324.911,283.925 324.911,202.224 335.267,202.224 356.985,258.864 356.985,202.224 "
         style="fill:#231f20" /><polygon
         transform="matrix(0.8,0,0,-0.8,646.80765,913.37469)"
         id="polygon4373"
         points="418.839,283.925 407.726,283.925 407.726,212.341 392.777,212.341 392.777,202.181 433.938,202.181 433.938,212.341 418.839,212.341 "
         style="fill:#231f20" /><rect
         transform="scale(1,-1)"
         id="rect4375"
         height="65.360794"
         width="8.9703999"
         y="-751.59552"
         x="1011.8453"
         style="fill:#231f20" /><path
         id="path4377"
         d="m 1041.6365,697.27869 c 0.2832,-0.1128 0.5383,-0.2584 0.804,-0.3824 0.9384,-0.5424 1.9488,-1.0352 2.9951,-1.5048 1.0681,-0.4728 2.1593,-0.8696 3.3008,-1.22 0.5881,-0.1032 1.1985,-0.2208 1.8424,-0.3392 0.6337,-0.0808 1.2497,-0.14 1.8369,-0.14 l 0.448,0 0.4728,0 c 1.312,0.14 2.5832,0.58 3.7816,1.3392 1.2,0.7792 2.08,1.9304 2.6968,3.4464 0.204,0.3448 0.3384,0.6664 0.4408,1.0184 0.09,0.3392 0.1808,0.6888 0.2608,1.0912 0,0.332 0.016,0.6712 0.034,1 0.044,0.3144 0.061,0.6672 0.061,0.9832 0,2.328 -0.796,4.4976 -2.3448,6.4664 -1.5648,1.948 -3.3128,3.7632 -5.2688,5.4368 -0.6432,0.5304 -1.288,1.0512 -1.864,1.5416 -0.5944,0.5032 -1.2104,0.984 -1.8088,1.4768 -2.2048,1.8536 -4.188,3.8992 -5.9968,6.16 -1.792,2.2728 -2.9784,4.9104 -3.5664,7.912 0,0.2496 -0.044,0.5096 -0.09,0.8032 -0.1016,0.2432 -0.1016,0.52 -0.1016,0.7912 -0.08,0 -0.1192,0.0344 -0.1192,0.0904 l 0,0.1808 c -0.038,0.272 -0.1184,0.5776 -0.1584,0.9272 -0.016,0.3 -0.038,0.6104 -0.038,0.8816 0,2.4296 0.5248,4.8208 1.548,7.0984 1.0344,2.28 2.4856,4.2624 4.3352,5.9184 1.3384,1.2608 2.7976,2.2048 4.3808,2.7976 1.616,0.6 3.2336,0.9616 4.8944,1.0904 l 0.5872,0 0.6215,0 c 0.8481,0 1.7129,-0.028 2.5777,-0.14 0.8832,-0.1024 1.7864,-0.26 2.7016,-0.4528 1.0856,-0.26 2.1136,-0.5584 3.1312,-0.8936 1.0279,-0.3384 2.0568,-0.7568 3.0528,-1.2096 l 0,-8.748 c -0.1128,0.0656 -0.272,0.1336 -0.4528,0.2352 -0.1576,0.1256 -0.3168,0.204 -0.4352,0.272 -0.876,0.4472 -1.804,0.9112 -2.8536,1.3224 -1.0176,0.4536 -2.0632,0.7808 -3.1312,1.0528 -0.6,0.152 -1.2096,0.26 -1.8032,0.3616 -0.5944,0.1064 -1.204,0.1568 -1.792,0.1568 l -0.2616,0 -0.3328,0 c -1.328,-0.0784 -2.6384,-0.44 -3.9096,-1.1064 -1.2377,-0.6568 -2.2449,-1.7528 -2.9904,-3.2784 -0.192,-0.408 -0.3728,-0.848 -0.532,-1.356 -0.1808,-0.4864 -0.2992,-0.9952 -0.3552,-1.5376 0,-0.2496 -0.018,-0.5096 -0.041,-0.7928 -0.039,-0.2592 -0.056,-0.5304 -0.056,-0.7904 0,-0.2712 0.017,-0.5432 0.056,-0.7912 0.023,-0.2704 0.041,-0.4968 0.041,-0.7064 0.056,-0.5304 0.1744,-1.0456 0.3552,-1.5656 0.1592,-0.4912 0.34,-0.9496 0.532,-1.4072 1.0792,-2.0632 2.4184,-3.8424 4.0976,-5.3472 1.6672,-1.504 3.3968,-2.9776 5.1888,-4.4472 1.9888,-1.5944 3.9168,-3.284 5.7376,-4.9968 1.8184,-1.7408 3.2432,-3.8384 4.2384,-6.296 0.2712,-0.5936 0.452,-1.2728 0.6096,-2.048 0.1256,-0.7688 0.2264,-1.512 0.2824,-2.2544 0,-0.3992 0.034,-0.78 0.056,-1.1416 0.046,-0.3568 0.063,-0.7512 0.063,-1.1536 0,-0.3896 -0.018,-0.8064 -0.063,-1.2496 -0.022,-0.4392 -0.078,-0.8792 -0.1576,-1.3552 -0.1232,-1.1136 -0.3448,-2.2496 -0.6328,-3.3904 -0.2936,-1.1312 -0.6784,-2.1696 -1.1528,-3.0808 -1.4753,-3.0008 -3.5377,-5.1152 -6.2009,-6.3592 -2.6504,-1.2472 -5.4415,-1.8432 -8.3696,-1.8432 -0.5888,0 -1.2271,0.0352 -1.8424,0.1032 -0.6111,0.0632 -1.2783,0.1312 -1.94,0.1904 -1.3952,0.136 -2.808,0.4432 -4.1879,0.9056 -1.4016,0.4624 -2.6904,1.0056 -3.8944,1.5984 l 0,9.0832 c 0.1992,-0.136 0.4479,-0.2584 0.6832,-0.4072"
         inkscape:connector-curvature="0"
         style="fill:#231f20" /></g><rect
       style="fill:none"
       x="548.40765"
       y="-1037.5986"
       width="673.51202"
       height="476.22403"
       id="rect4379"
       transform="scale(1,-1)" /><g
       id="g4491"
       transform="matrix(0.52102464,0,0,0.52102464,809.24796,-53.307088)"><path
         style="fill:#ffffff;fill-opacity:1;fill-rule:nonzero;stroke:none"
         id="path3262"
         d="m 685.90113,746.71774 c -5.01716,1.15385 -10.34268,1.88009 -15.72621,1.88009 -9.20603,0 -17.58481,-1.59433 -23.76547,-4.17058 -0.68222,-0.33409 -1.16674,-1.04748 -1.16674,-1.85753 0,-0.29544 0.0752,-0.59625 0.18692,-0.84878 0.73055,-2.11533 -0.47056,-4.41011 -6.44927,-5.72727 -8.8687,-1.9478 -14.46599,-11.09688 -17.67183,-14.13187 -3.76019,-3.5765 -14.38328,-5.77137 -12.78682,-3.64096 1.2516,1.662 6.0335,6.85535 8.94174,12.46775 2.60098,5.01502 4.91834,6.44713 8.10807,11.229 0.93574,1.40093 4.56379,6.3354 5.62094,10.23956 1.185,3.80636 0.78318,8.58401 1.23871,10.55217 0.65321,2.83841 3.33156,8.99545 3.53566,12.47416 0.11497,1.96607 -8.21225,-2.80834 -12.16154,-2.80834 -3.95143,0 -7.7997,2.3657 -11.32893,2.53547 -4.36825,0.20629 -7.17553,-3.36804 -11.12587,-2.74601 -2.25935,0.36313 -4.15984,2.35172 -8.10482,2.49893 -5.6156,0.20301 -12.47528,-3.12096 -25.36413,-2.7052 -12.67938,0.41144 -24.38983,16.02057 -25.98875,18.50337 -1.87065,2.91041 -4.15727,2.91041 -6.65276,0.62311 -2.49547,-2.28616 -5.56947,-0.48989 -6.44445,1.04535 -1.66295,2.90609 -6.1088,11.41164 -12.99392,13.19504 -9.52318,2.46777 -14.34568,-5.2718 -13.71989,-11.43313 0.63527,-6.25264 4.67716,-8.00386 6.54887,-11.32678 1.8702,-3.32834 2.82808,-5.47161 6.34795,-6.94132 2.49753,-1.04211 3.42716,-2.58057 2.68222,-4.63041 -0.65104,-1.7834 -3.2487,-2.19058 -4.95464,-2.27222 -3.62862,-0.17619 -6.17169,0.81002 -8.02608,1.99072 -2.15656,1.37841 -3.91128,3.28427 -5.7935,6.53097 -2.17855,3.57646 -5.6099,5.14069 -9.60557,5.14069 -1.90525,0 -3.68725,-0.50603 -5.27204,-1.32033 -6.26297,-3.26389 -13.7204,-5.19122 -21.74754,-5.19122 l -9.05272,-0.007 c 17.35939,-51.49203 66.04793,-88.57186 123.39648,-88.57186 45.80882,0 86.09232,23.6581 109.29593,59.42398"
         inkscape:connector-curvature="0" /><path
         sodipodi:nodetypes="sscscsccccccsccccccccscccccccccscscsscccccccccscssssssssssccccccccssccssscc"
         style="fill:#0f0f10;fill-opacity:1;fill-rule:nonzero;stroke:none"
         id="path3248"
         d="m 576.6482,947.67114 c -71.90312,0 -130.23385,-58.32863 -130.23385,-130.23385 0,-14.55308 2.41215,-28.50974 6.81968,-41.57803 l 9.01957,0 c 8.02714,0 15.516,2.0245 21.77897,5.27975 1.5848,0.81545 3.37451,1.31994 5.27975,1.31993 3.99567,0 7.501,-1.70108 9.67955,-5.27975 1.88222,-3.24233 3.56317,-5.0088 5.71973,-6.3797 1.85438,-1.18496 4.29101,-2.15066 7.91962,-1.9799 1.70594,0.0806 4.40872,0.41435 5.05976,2.19989 0.74494,2.04767 -0.14234,3.58521 -2.63987,4.61979 -3.51987,1.47184 -4.5095,3.49347 -6.3797,6.81967 -1.87171,3.32397 -5.96442,5.18679 -6.59969,11.43946 -0.62579,6.15923 4.11618,13.90723 13.63936,11.43946 6.88512,-1.78016 11.31643,-10.28683 12.97938,-13.19937 0.87498,-1.52984 4.10422,-3.38397 6.59969,-1.09995 2.49549,2.28835 4.72904,2.25472 6.59969,-0.65997 1.59892,-2.48169 13.27939,-18.06979 25.95877,-18.47913 12.88885,-0.41365 19.6832,3.06505 25.29881,2.85987 3.94498,-0.1515 5.88025,-2.28102 8.13962,-2.63988 3.95034,-0.62421 6.85122,3.06828 11.21947,2.85987 3.52923,-0.17304 7.26804,-2.63988 11.21947,-2.63988 3.94928,0 12.43439,4.82805 12.31941,2.85987 -0.20408,-3.47335 -2.86662,-9.70209 -3.51983,-12.53941 -0.45554,-1.96711 -0.13495,-6.74885 -1.31994,-10.5595 -1.05715,-3.90095 -4.78398,-8.71534 -5.71973,-10.11952 -3.18973,-4.7851 -5.31864,-6.20341 -7.91962,-11.21947 -2.90825,-5.61457 -7.76798,-10.87317 -9.01958,-12.53941 -1.59646,-2.12938 8.99921,0.16979 12.7594,3.73982 3.20584,3.04148 8.73047,12.13157 17.59917,14.07934 5.97871,1.31499 7.33024,3.60009 6.59969,5.71973 -0.11172,0.24821 -0.21999,0.58668 -0.21999,0.87995 0,0.81006 0.41773,1.4215 1.09994,1.75992 6.18067,2.57199 14.55286,4.1798 23.75888,4.1798 5.38353,0 10.82208,-0.60604 15.83925,-1.75991 13.21657,20.37274 20.89902,44.52738 20.89902,70.61666 0,71.90521 -58.33251,130.23385 -130.23385,130.23385 z m 28.15867,-188.97107 c -1.68885,-1.95316 -2.52154,-2.76431 -3.73982,-3.73983 -2.93619,-2.36352 -6.2077,0.49651 -8.35961,1.75992 -4.78189,2.80401 -8.74272,0.85885 -9.67954,-1.31994 -0.93467,-2.18628 0.0359,-4.74035 2.63987,-4.39979 3.64417,0.47166 3.96006,-0.085 6.59969,-1.75992 4.90974,-3.11352 8.50883,-1.46863 10.33951,0 1.52342,1.21506 2.28915,2.26264 3.07986,3.73983 1.41061,2.789 0.22935,5.06655 -0.43998,5.71973 -0.0741,0.0626 -0.11362,0 -0.21999,0 -0.12031,0 -0.14368,0.0817 -0.21999,0 z m 97.67539,-2.85987 c -1.97677,0 -3.51984,-1.7598 -3.51984,-3.73982 0,-1.97889 1.54308,-3.51984 3.51984,-3.51984 1.98001,0 3.51983,1.54095 3.51983,3.51984 0,1.98002 -1.5398,3.73981 -3.51983,3.73982 z m 0,-0.65997 c 1.62655,0 2.85985,-1.45221 2.85986,-3.07985 0,-1.6266 -1.2333,-2.85987 -2.85986,-2.85987 -1.6287,0 -3.07985,1.23327 -3.07986,2.85987 0,1.62763 1.45117,3.07985 3.07986,3.07985 z m -1.31994,-1.09995 0,-3.73982 0.65997,0 0,1.53993 0.65997,0 0.87995,-1.53993 0.65997,0 -1.09995,1.53993 c 0.54037,0.0676 1.09995,0.44673 1.09995,1.09995 0,0.72411 -0.4551,1.09994 -1.31994,1.09994 z m 0.65997,-0.43998 0.65997,0 c 0.38464,0 0.87995,-0.20879 0.87995,-0.65996 0,-0.56409 -0.41154,-0.65997 -0.87995,-0.65997 l -0.65997,0 z"
         inkscape:connector-curvature="0" /><path
         style="fill:#cc0000;fill-opacity:1;fill-rule:nonzero;stroke:none"
         id="path3266"
         d="m 650.06971,852.11879 c -1.28599,-4.32358 -3.11449,-9.85535 -11.25479,-14.0337 -1.18393,-0.6059 -1.63838,0.38891 -1.09046,1.32358 3.07584,5.23323 3.62159,6.54158 4.51544,8.60583 1.25054,3.01631 1.90589,7.31003 -0.58228,16.26401 -4.89579,17.61909 -15.11061,41.17016 -22.53324,48.81174 -7.16478,7.37138 -20.14819,9.44775 -31.88214,6.43658 -4.3199,-1.10733 -12.77394,-5.50385 -28.45503,-1.97238 -27.13483,6.10979 -31.15567,-7.47741 -32.71216,-13.39575 -1.55899,-5.92037 -5.29611,-22.74477 -5.29611,-22.74477 -1.24748,-6.85098 -2.87942,-18.76574 39.2556,-26.79032 19.62715,-3.7387 20.6263,-8.81185 21.49541,-12.46192 1.55674,-6.54007 4.04922,-10.28198 6.85216,-12.15027 2.80512,-1.8715 0,-3.41961 -3.11238,-3.73764 -8.35833,-0.86805 -39.25586,7.99202 -57.5339,18.37813 -14.95363,9.13974 -15.20598,17.37038 -11.78356,24.35102 -22.58952,2.44186 -39.54026,-2.11883 -42.6144,-12.8113 -5.27778,-18.35577 40.34979,-49.70399 92.30368,-65.43341 54.52067,-16.5094 110.5959,-4.98495 116.82922,29.28548 2.82984,15.56935 -10.28252,27.0879 -32.40106,32.07509 z m -67.79736,58.40893 c -0.0226,-0.002 -0.0462,-0.005 -0.0688,-0.005 -0.23202,0 -0.42006,0.17943 -0.42006,0.3945 0,0.15739 0.0956,0.29426 0.23531,0.35777 2.91681,1.54016 7.26467,2.76609 12.24425,3.27231 1.49333,0.15364 2.95336,0.23133 4.35752,0.2439 0.24817,0 0.49205,-10e-4 0.74452,-0.005 8.34333,-0.18833 15.02681,-3.50322 14.92583,-7.40447 -0.0988,-3.90287 -6.94025,-6.91511 -15.28572,-6.72774 -2.70412,0.0619 -5.23849,0.45262 -7.42049,1.08327 -0.2557,0.0671 -0.44584,0.28642 -0.44584,0.54703 0,0.26129 0.19014,0.4827 0.45123,0.54664 5.20733,1.20603 8.72148,3.17424 8.47331,5.035 -0.32875,2.46604 -7.13901,3.80736 -15.21051,2.99526 -0.8831,-0.0886 -1.74689,-0.2024 -2.58056,-0.33196 z m -15.7982,-24.84996 c -15.03874,-1.08797 -16.60146,-2.71259 -19.41798,-5.71215 -3.97205,-4.23075 -9.20419,5.48925 -9.20419,5.48925 -3.13859,0.65986 -6.94604,5.72107 -4.89128,10.45011 2.02281,4.67564 5.76044,3.27234 6.93079,1.81714 1.42426,-1.77203 4.46421,-4.67242 8.41004,-4.56702 3.9475,0.10389 8.50139,0.93328 14.85183,0.93328 6.43638,0 10.76383,-2.40203 11.00769,-4.46626 0.20842,-1.76311 -0.52105,-3.42607 -7.6869,-3.94435"
         inkscape:connector-curvature="0" /></g><g
       id="g4491-3"
       transform="matrix(0.63315324,0,0,0.63315324,-214.98099,-1.4316647)"><path
         style="fill:#ffffff;fill-opacity:1;fill-rule:nonzero;stroke:none"
         id="path3262-6"
         d="m 685.90113,746.71774 c -5.01716,1.15385 -10.34268,1.88009 -15.72621,1.88009 -9.20603,0 -17.58481,-1.59433 -23.76547,-4.17058 -0.68222,-0.33409 -1.16674,-1.04748 -1.16674,-1.85753 0,-0.29544 0.0752,-0.59625 0.18692,-0.84878 0.73055,-2.11533 -0.47056,-4.41011 -6.44927,-5.72727 -8.8687,-1.9478 -14.46599,-11.09688 -17.67183,-14.13187 -3.76019,-3.5765 -14.38328,-5.77137 -12.78682,-3.64096 1.2516,1.662 6.0335,6.85535 8.94174,12.46775 2.60098,5.01502 4.91834,6.44713 8.10807,11.229 0.93574,1.40093 4.56379,6.3354 5.62094,10.23956 1.185,3.80636 0.78318,8.58401 1.23871,10.55217 0.65321,2.83841 3.33156,8.99545 3.53566,12.47416 0.11497,1.96607 -8.21225,-2.80834 -12.16154,-2.80834 -3.95143,0 -7.7997,2.3657 -11.32893,2.53547 -4.36825,0.20629 -7.17553,-3.36804 -11.12587,-2.74601 -2.25935,0.36313 -4.15984,2.35172 -8.10482,2.49893 -5.6156,0.20301 -12.47528,-3.12096 -25.36413,-2.7052 -12.67938,0.41144 -24.38983,16.02057 -25.98875,18.50337 -1.87065,2.91041 -4.15727,2.91041 -6.65276,0.62311 -2.49547,-2.28616 -5.56947,-0.48989 -6.44445,1.04535 -1.66295,2.90609 -6.1088,11.41164 -12.99392,13.19504 -9.52318,2.46777 -14.34568,-5.2718 -13.71989,-11.43313 0.63527,-6.25264 4.67716,-8.00386 6.54887,-11.32678 1.8702,-3.32834 2.82808,-5.47161 6.34795,-6.94132 2.49753,-1.04211 3.42716,-2.58057 2.68222,-4.63041 -0.65104,-1.7834 -3.2487,-2.19058 -4.95464,-2.27222 -3.62862,-0.17619 -6.17169,0.81002 -8.02608,1.99072 -2.15656,1.37841 -3.91128,3.28427 -5.7935,6.53097 -2.17855,3.57646 -5.6099,5.14069 -9.60557,5.14069 -1.90525,0 -3.68725,-0.50603 -5.27204,-1.32033 -6.26297,-3.26389 -13.7204,-5.19122 -21.74754,-5.19122 l -9.05272,-0.007 c 17.35939,-51.49203 66.04793,-88.57186 123.39648,-88.57186 45.80882,0 86.09232,23.6581 109.29593,59.42398"
         inkscape:connector-curvature="0" /><path
         sodipodi:nodetypes="sscscsccccccsccccccccscccccccccscscsscccccccccscssssssssssccccccccssccssscc"
         style="fill:#0f0f10;fill-opacity:1;fill-rule:nonzero;stroke:none"
         id="path3248-7"
         d="m 576.6482,947.67114 c -71.90312,0 -130.23385,-58.32863 -130.23385,-130.23385 0,-14.55308 2.41215,-28.50974 6.81968,-41.57803 l 9.01957,0 c 8.02714,0 15.516,2.0245 21.77897,5.27975 1.5848,0.81545 3.37451,1.31994 5.27975,1.31993 3.99567,0 7.501,-1.70108 9.67955,-5.27975 1.88222,-3.24233 3.56317,-5.0088 5.71973,-6.3797 1.85438,-1.18496 4.29101,-2.15066 7.91962,-1.9799 1.70594,0.0806 4.40872,0.41435 5.05976,2.19989 0.74494,2.04767 -0.14234,3.58521 -2.63987,4.61979 -3.51987,1.47184 -4.5095,3.49347 -6.3797,6.81967 -1.87171,3.32397 -5.96442,5.18679 -6.59969,11.43946 -0.62579,6.15923 4.11618,13.90723 13.63936,11.43946 6.88512,-1.78016 11.31643,-10.28683 12.97938,-13.19937 0.87498,-1.52984 4.10422,-3.38397 6.59969,-1.09995 2.49549,2.28835 4.72904,2.25472 6.59969,-0.65997 1.59892,-2.48169 13.27939,-18.06979 25.95877,-18.47913 12.88885,-0.41365 19.6832,3.06505 25.29881,2.85987 3.94498,-0.1515 5.88025,-2.28102 8.13962,-2.63988 3.95034,-0.62421 6.85122,3.06828 11.21947,2.85987 3.52923,-0.17304 7.26804,-2.63988 11.21947,-2.63988 3.94928,0 12.43439,4.82805 12.31941,2.85987 -0.20408,-3.47335 -2.86662,-9.70209 -3.51983,-12.53941 -0.45554,-1.96711 -0.13495,-6.74885 -1.31994,-10.5595 -1.05715,-3.90095 -4.78398,-8.71534 -5.71973,-10.11952 -3.18973,-4.7851 -5.31864,-6.20341 -7.91962,-11.21947 -2.90825,-5.61457 -7.76798,-10.87317 -9.01958,-12.53941 -1.59646,-2.12938 8.99921,0.16979 12.7594,3.73982 3.20584,3.04148 8.73047,12.13157 17.59917,14.07934 5.97871,1.31499 7.33024,3.60009 6.59969,5.71973 -0.11172,0.24821 -0.21999,0.58668 -0.21999,0.87995 0,0.81006 0.41773,1.4215 1.09994,1.75992 6.18067,2.57199 14.55286,4.1798 23.75888,4.1798 5.38353,0 10.82208,-0.60604 15.83925,-1.75991 13.21657,20.37274 20.89902,44.52738 20.89902,70.61666 0,71.90521 -58.33251,130.23385 -130.23385,130.23385 z m 28.15867,-188.97107 c -1.68885,-1.95316 -2.52154,-2.76431 -3.73982,-3.73983 -2.93619,-2.36352 -6.2077,0.49651 -8.35961,1.75992 -4.78189,2.80401 -8.74272,0.85885 -9.67954,-1.31994 -0.93467,-2.18628 0.0359,-4.74035 2.63987,-4.39979 3.64417,0.47166 3.96006,-0.085 6.59969,-1.75992 4.90974,-3.11352 8.50883,-1.46863 10.33951,0 1.52342,1.21506 2.28915,2.26264 3.07986,3.73983 1.41061,2.789 0.22935,5.06655 -0.43998,5.71973 -0.0741,0.0626 -0.11362,0 -0.21999,0 -0.12031,0 -0.14368,0.0817 -0.21999,0 z m 97.67539,-2.85987 c -1.97677,0 -3.51984,-1.7598 -3.51984,-3.73982 0,-1.97889 1.54308,-3.51984 3.51984,-3.51984 1.98001,0 3.51983,1.54095 3.51983,3.51984 0,1.98002 -1.5398,3.73981 -3.51983,3.73982 z m 0,-0.65997 c 1.62655,0 2.85985,-1.45221 2.85986,-3.07985 0,-1.6266 -1.2333,-2.85987 -2.85986,-2.85987 -1.6287,0 -3.07985,1.23327 -3.07986,2.85987 0,1.62763 1.45117,3.07985 3.07986,3.07985 z m -1.31994,-1.09995 0,-3.73982 0.65997,0 0,1.53993 0.65997,0 0.87995,-1.53993 0.65997,0 -1.09995,1.53993 c 0.54037,0.0676 1.09995,0.44673 1.09995,1.09995 0,0.72411 -0.4551,1.09994 -1.31994,1.09994 z m 0.65997,-0.43998 0.65997,0 c 0.38464,0 0.87995,-0.20879 0.87995,-0.65996 0,-0.56409 -0.41154,-0.65997 -0.87995,-0.65997 l -0.65997,0 z"
         inkscape:connector-curvature="0" /><path
         style="fill:#cc0000;fill-opacity:1;fill-rule:nonzero;stroke:none"
         id="path3266-5"
         d="m 650.06971,852.11879 c -1.28599,-4.32358 -3.11449,-9.85535 -11.25479,-14.0337 -1.18393,-0.6059 -1.63838,0.38891 -1.09046,1.32358 3.07584,5.23323 3.62159,6.54158 4.51544,8.60583 1.25054,3.01631 1.90589,7.31003 -0.58228,16.26401 -4.89579,17.61909 -15.11061,41.17016 -22.53324,48.81174 -7.16478,7.37138 -20.14819,9.44775 -31.88214,6.43658 -4.3199,-1.10733 -12.77394,-5.50385 -28.45503,-1.97238 -27.13483,6.10979 -31.15567,-7.47741 -32.71216,-13.39575 -1.55899,-5.92037 -5.29611,-22.74477 -5.29611,-22.74477 -1.24748,-6.85098 -2.87942,-18.76574 39.2556,-26.79032 19.62715,-3.7387 20.6263,-8.81185 21.49541,-12.46192 1.55674,-6.54007 4.04922,-10.28198 6.85216,-12.15027 2.80512,-1.8715 0,-3.41961 -3.11238,-3.73764 -8.35833,-0.86805 -39.25586,7.99202 -57.5339,18.37813 -14.95363,9.13974 -15.20598,17.37038 -11.78356,24.35102 -22.58952,2.44186 -39.54026,-2.11883 -42.6144,-12.8113 -5.27778,-18.35577 40.34979,-49.70399 92.30368,-65.43341 54.52067,-16.5094 110.5959,-4.98495 116.82922,29.28548 2.82984,15.56935 -10.28252,27.0879 -32.40106,32.07509 z m -67.79736,58.40893 c -0.0226,-0.002 -0.0462,-0.005 -0.0688,-0.005 -0.23202,0 -0.42006,0.17943 -0.42006,0.3945 0,0.15739 0.0956,0.29426 0.23531,0.35777 2.91681,1.54016 7.26467,2.76609 12.24425,3.27231 1.49333,0.15364 2.95336,0.23133 4.35752,0.2439 0.24817,0 0.49205,-10e-4 0.74452,-0.005 8.34333,-0.18833 15.02681,-3.50322 14.92583,-7.40447 -0.0988,-3.90287 -6.94025,-6.91511 -15.28572,-6.72774 -2.70412,0.0619 -5.23849,0.45262 -7.42049,1.08327 -0.2557,0.0671 -0.44584,0.28642 -0.44584,0.54703 0,0.26129 0.19014,0.4827 0.45123,0.54664 5.20733,1.20603 8.72148,3.17424 8.47331,5.035 -0.32875,2.46604 -7.13901,3.80736 -15.21051,2.99526 -0.8831,-0.0886 -1.74689,-0.2024 -2.58056,-0.33196 z m -15.7982,-24.84996 c -15.03874,-1.08797 -16.60146,-2.71259 -19.41798,-5.71215 -3.97205,-4.23075 -9.20419,5.48925 -9.20419,5.48925 -3.13859,0.65986 -6.94604,5.72107 -4.89128,10.45011 2.02281,4.67564 5.76044,3.27234 6.93079,1.81714 1.42426,-1.77203 4.46421,-4.67242 8.41004,-4.56702 3.9475,0.10389 8.50139,0.93328 14.85183,0.93328 6.43638,0 10.76383,-2.40203 11.00769,-4.46626 0.20842,-1.76311 -0.52105,-3.42607 -7.6869,-3.94435"
         inkscape:connector-curvature="0" /></g><g
       id="g4782"
       transform="matrix(0.51675774,0,0,-0.51675774,120.94271,374.8367)"><path
         id="path4784"
         d="m 63.3,267 c 0,8.1 2.6,11.5 11.2,11.5 8.6,0 11.1,-3.4 11.1,-11.5 l 0,-27.5 10.5,0 0,27.8 c 0,5.9 -0.7,9.9 -2.9,12.3 -4.1,4.5 -10,6.3 -18.7,6.3 -8.7,0 -14.7,-1.8 -18.8,-6.3 -2.3,-2.5 -2.8,-6.5 -2.8,-12.3 l 0,-27.8 10.4,0 0,27.5 z"
         inkscape:connector-curvature="0"
         style="fill:#231815" /><path
         id="path4786"
         d="m 130.3,239.4 21.2,45.9 -11.6,0 -4.6,-10.9 -21.6,0 -4.4,10.9 -11.1,0 21.1,-45.9 11,0 z m -13.2,26.9 14.8,0 -7.5,-17.7 -7.3,17.7 z"
         inkscape:connector-curvature="0"
         style="fill:#231815" /><polygon
         id="polygon4788"
         points="222.5,239.4 207.1,285.4 194.3,285.4 183.7,251.1 174.4,285.4 161.6,285.4 145.1,239.4 156.3,239.4 167.8,274.8 177.5,239.4 189.8,239.4 201,274.8 211.8,239.4 "
         style="fill:#231815" /><path
         id="path4790"
         d="m 236.6,258.1 29,0 0,8 -29,0 c 0.1,8.3 3.6,11.3 11.8,11.3 l 17.2,0 0,8 -17.7,0 c -6,0 -10.7,-0.4 -15.5,-4 -5.1,-3.8 -7.6,-9.8 -7.6,-18.1 0,-16.2 7.4,-23.8 23.4,-23.8 l 17.4,0 0,8 -17.2,0 c -7.6,0 -11.4,3.4 -11.8,10.6"
         inkscape:connector-curvature="0"
         style="fill:#231815" /><rect
         id="rect4792"
         height="45.900002"
         width="11"
         y="239.5"
         x="274.79999"
         style="fill:#231815" /><g
         id="g4794"><polygon
           id="polygon4796"
           points="10.5,258.1 33.9,258.1 33.9,239.5 44.3,239.5 44.3,285.4 33.9,285.4 33.9,266.2 10.5,266.2 10.5,285.4 0.1,285.4 0.1,239.5 10.5,239.5 "
           style="fill:#231815" /><g
           id="g4798"><defs
             id="defs4800"><path
               d="m 20.5,85.4 c 1,17.9 14.5,28.6 14.5,28.6 21.8,21.2 74.5,48 86.8,54.1 0.2,0 0.8,0.3 1.2,-0.2 0,0 0.5,-0.4 0.2,-1.1 C 89.6,93.5 43.7,37.9 43.7,37.9 c 0,0 -24.9,23.7 -23.2,47.5"
               id="SVGID_1_"
               inkscape:connector-curvature="0" /></defs><clipPath
             id="SVGID_2_"><use
               id="use4804"
               overflow="visible"
               xlink:href="#SVGID_1_"
               style="overflow:visible"
               x="0"
               y="0"
               width="100%"
               height="100%" /></clipPath><radialGradient
             gradientUnits="userSpaceOnUse"
             gradientTransform="matrix(26.5649,0,0,-26.5649,4040.0432,7348.6831)"
             r="7.7535"
             cy="275.63699"
             cx="-145.30611"
             id="SVGID_3_"><stop
               id="stop4807"
               style="stop-color:#E4B198"
               offset="0" /><stop
               id="stop4809"
               style="stop-color:#C41C1F"
               offset="0.427" /><stop
               id="stop4811"
               style="stop-color:#C21C1F"
               offset="0.6983" /><stop
               id="stop4813"
               style="stop-color:#BB1C20"
               offset="0.8072" /><stop
               id="stop4815"
               style="stop-color:#AF1C20"
               offset="0.887" /><stop
               id="stop4817"
               style="stop-color:#9E1D22"
               offset="0.9521" /><stop
               id="stop4819"
               style="stop-color:#8B1D23"
               offset="1" /></radialGradient><rect
             id="rect4821"
             height="130.39999"
             width="104.7"
             clip-path="url(#SVGID_2_)"
             y="37.900002"
             x="18.799999"
             style="fill:url(#SVGID_3_)" /></g><g
           id="g4823"><defs
             id="defs4825"><path
               d="m 25.9,188.2 c 9.6,17 25.6,30.2 42.3,26.1 11.5,-2.9 37.6,-21.1 46.2,-27.2 l 0,0 c 0.7,-0.6 0.4,-1.1 0.4,-1.1 -0.2,-0.8 -1.1,-0.8 -1.1,-0.8 l 0,0 -87.8,3 z"
               id="SVGID_4_"
               inkscape:connector-curvature="0" /></defs><clipPath
             id="SVGID_5_"><use
               id="use4829"
               overflow="visible"
               xlink:href="#SVGID_4_"
               style="overflow:visible"
               x="0"
               y="0"
               width="100%"
               height="100%" /></clipPath><radialGradient
             gradientUnits="userSpaceOnUse"
             gradientTransform="matrix(26.5817,0,0,-26.5817,4042.2317,7353.229)"
             r="7.7535"
             cy="275.6387"
             cx="-145.2959"
             id="SVGID_6_"><stop
               id="stop4832"
               style="stop-color:#E4B198"
               offset="0" /><stop
               id="stop4834"
               style="stop-color:#C41C1F"
               offset="0.427" /><stop
               id="stop4836"
               style="stop-color:#C21C1F"
               offset="0.6983" /><stop
               id="stop4838"
               style="stop-color:#BB1C20"
               offset="0.8072" /><stop
               id="stop4840"
               style="stop-color:#AF1C20"
               offset="0.887" /><stop
               id="stop4842"
               style="stop-color:#9E1D22"
               offset="0.9521" /><stop
               id="stop4844"
               style="stop-color:#8B1D23"
               offset="1" /></radialGradient><rect
             id="rect4846"
             height="33.200001"
             width="89.099998"
             clip-path="url(#SVGID_5_)"
             y="185.2"
             x="25.9"
             style="fill:url(#SVGID_6_)" /></g><g
           id="g4848"><defs
             id="defs4850"><path
               d="m 4.9,148.8 c 9.5,20.2 27.7,26.2 27.7,26.2 8.4,3.5 16.8,3.7 16.8,3.7 1.3,0.3 52.2,0 65.8,0 0.6,0 0.9,-0.6 0.9,-0.6 0.4,-0.7 -0.3,-1.3 -0.3,-1.3 l 0,0 C 77.3,150.8 2.5,110.9 2.5,110.9 c -6.8,21 2.4,37.9 2.4,37.9"
               id="SVGID_7_"
               inkscape:connector-curvature="0" /></defs><clipPath
             id="SVGID_8_"><use
               id="use4854"
               overflow="visible"
               xlink:href="#SVGID_7_"
               style="overflow:visible"
               x="0"
               y="0"
               width="100%"
               height="100%" /></clipPath><radialGradient
             gradientUnits="userSpaceOnUse"
             gradientTransform="matrix(26.5655,0,0,-26.5655,4040.2632,7348.6069)"
             r="7.7535"
             cy="275.6283"
             cx="-145.3107"
             id="SVGID_9_"><stop
               id="stop4857"
               style="stop-color:#E4B198"
               offset="0" /><stop
               id="stop4859"
               style="stop-color:#C41C1F"
               offset="0.427" /><stop
               id="stop4861"
               style="stop-color:#C21C1F"
               offset="0.6983" /><stop
               id="stop4863"
               style="stop-color:#BB1C20"
               offset="0.8072" /><stop
               id="stop4865"
               style="stop-color:#AF1C20"
               offset="0.887" /><stop
               id="stop4867"
               style="stop-color:#9E1D22"
               offset="0.9521" /><stop
               id="stop4869"
               style="stop-color:#8B1D23"
               offset="1" /></radialGradient><rect
             id="rect4871"
             height="68.099998"
             width="120.8"
             clip-path="url(#SVGID_8_)"
             y="110.9"
             x="-4.3000002"
             style="fill:url(#SVGID_9_)" /></g><g
           id="g4873"><defs
             id="defs4875"><path
               d="M 107.8,2.7 C 84.5,8.7 79,29.8 79,29.8 c -4.2,13.3 0.1,27.8 0.1,27.8 7.7,34.4 45.9,91 54.1,102.9 0.6,0.6 1.1,0.3 1.1,0.3 0.9,-0.2 0.8,-1.1 0.8,-1.1 C 147.8,33.5 121.9,0 121.9,0 118.1,0.3 107.8,2.7 107.8,2.7"
               id="SVGID_10_"
               inkscape:connector-curvature="0" /></defs><clipPath
             id="SVGID_11_"><use
               id="use4879"
               overflow="visible"
               xlink:href="#SVGID_10_"
               style="overflow:visible"
               x="0"
               y="0"
               width="100%"
               height="100%" /></clipPath><radialGradient
             gradientUnits="userSpaceOnUse"
             gradientTransform="matrix(26.562,0,0,-26.562,4039.5769,7347.8867)"
             r="7.7535"
             cy="275.63699"
             cx="-145.30479"
             id="SVGID_12_"><stop
               id="stop4882"
               style="stop-color:#E4B198"
               offset="0" /><stop
               id="stop4884"
               style="stop-color:#C41C1F"
               offset="0.427" /><stop
               id="stop4886"
               style="stop-color:#C21C1F"
               offset="0.6983" /><stop
               id="stop4888"
               style="stop-color:#BB1C20"
               offset="0.8072" /><stop
               id="stop4890"
               style="stop-color:#AF1C20"
               offset="0.887" /><stop
               id="stop4892"
               style="stop-color:#9E1D22"
               offset="0.9521" /><stop
               id="stop4894"
               style="stop-color:#8B1D23"
               offset="1" /></radialGradient><rect
             id="rect4896"
             height="161"
             width="73"
             clip-path="url(#SVGID_11_)"
             x="74.800003"
             y="0"
             style="fill:url(#SVGID_12_)" /></g><g
           id="g4898"><defs
             id="defs4900"><path
               d="m 150.3,159.8 c 0.1,0.8 0.7,1 0.7,1 0.9,0.3 1.3,-0.5 1.3,-0.5 8.4,-12.2 46.4,-68.4 54.1,-102.7 0,0 4.2,-16.6 0.2,-27.8 0,0 -5.7,-21.4 -29,-27.1 0,0 -6.7,-1.7 -13.8,-2.7 -0.1,0 -26.1,33.5 -13.5,159.8"
               id="SVGID_13_"
               inkscape:connector-curvature="0" /></defs><clipPath
             id="SVGID_14_"><use
               id="use4904"
               overflow="visible"
               xlink:href="#SVGID_13_"
               style="overflow:visible"
               x="0"
               y="0"
               width="100%"
               height="100%" /></clipPath><radialGradient
             gradientUnits="userSpaceOnUse"
             gradientTransform="matrix(26.5931,0,0,-26.5931,4044.0344,7356.0815)"
             r="7.7535"
             cy="275.62271"
             cx="-145.3002"
             id="SVGID_15_"><stop
               id="stop4907"
               style="stop-color:#E4B198"
               offset="0" /><stop
               id="stop4909"
               style="stop-color:#C41C1F"
               offset="0.427" /><stop
               id="stop4911"
               style="stop-color:#C21C1F"
               offset="0.6983" /><stop
               id="stop4913"
               style="stop-color:#BB1C20"
               offset="0.8072" /><stop
               id="stop4915"
               style="stop-color:#AF1C20"
               offset="0.887" /><stop
               id="stop4917"
               style="stop-color:#9E1D22"
               offset="0.9521" /><stop
               id="stop4919"
               style="stop-color:#8B1D23"
               offset="1" /></radialGradient><rect
             id="rect4921"
             height="161.10001"
             width="72.900002"
             clip-path="url(#SVGID_14_)"
             x="137.7"
             y="0"
             style="fill:url(#SVGID_15_)" /></g><g
           id="g4923"><defs
             id="defs4925"><path
               d="m 171.8,185.3 c 0,0 -0.8,0.1 -1,0.7 0,0 -0.2,0.8 0.4,1.2 l 0,0 c 8.4,6 33.9,23.8 46.1,27.3 0,0 22.7,7.7 42.4,-26.1 l -87.9,-3.1 0,0 z"
               id="SVGID_16_"
               inkscape:connector-curvature="0" /></defs><clipPath
             id="SVGID_17_"><use
               id="use4929"
               overflow="visible"
               xlink:href="#SVGID_16_"
               style="overflow:visible"
               x="0"
               y="0"
               width="100%"
               height="100%" /></clipPath><radialGradient
             gradientUnits="userSpaceOnUse"
             gradientTransform="matrix(26.585,0,0,-26.585,4042.7456,7354.0854)"
             r="7.7536001"
             cy="275.6297"
             cx="-145.2962"
             id="SVGID_18_"><stop
               id="stop4932"
               style="stop-color:#E4B198"
               offset="0" /><stop
               id="stop4934"
               style="stop-color:#C41C1F"
               offset="0.427" /><stop
               id="stop4936"
               style="stop-color:#C21C1F"
               offset="0.6983" /><stop
               id="stop4938"
               style="stop-color:#BB1C20"
               offset="0.8072" /><stop
               id="stop4940"
               style="stop-color:#AF1C20"
               offset="0.887" /><stop
               id="stop4942"
               style="stop-color:#9E1D22"
               offset="0.9521" /><stop
               id="stop4944"
               style="stop-color:#8B1D23"
               offset="1" /></radialGradient><rect
             id="rect4946"
             height="36.900002"
             width="89.099998"
             clip-path="url(#SVGID_17_)"
             y="185.2"
             x="170.60001"
             style="fill:url(#SVGID_18_)" /></g><g
           id="g4948"><defs
             id="defs4950"><path
               d="m 169.8,176.7 0,0 c 0,0 -0.7,0.5 -0.4,1.3 0,0 0.4,0.7 0.9,0.7 13.8,0 66.1,0.1 67.4,-0.1 0,0 6.8,-0.2 15.1,-3.5 0,0 18.6,-5.9 28.3,-27 0,0 8.6,-17.2 1.9,-37.4 0,0 -74.6,40 -113.2,66"
               id="SVGID_19_"
               inkscape:connector-curvature="0" /></defs><clipPath
             id="SVGID_20_"><use
               id="use4954"
               overflow="visible"
               xlink:href="#SVGID_19_"
               style="overflow:visible"
               x="0"
               y="0"
               width="100%"
               height="100%" /></clipPath><radialGradient
             gradientUnits="userSpaceOnUse"
             gradientTransform="matrix(26.5924,0,0,-26.5924,4044.1973,7355.6113)"
             r="7.7535"
             cy="275.612"
             cx="-145.30969"
             id="SVGID_21_"><stop
               id="stop4957"
               style="stop-color:#E4B198"
               offset="0" /><stop
               id="stop4959"
               style="stop-color:#C41C1F"
               offset="0.427" /><stop
               id="stop4961"
               style="stop-color:#C21C1F"
               offset="0.6983" /><stop
               id="stop4963"
               style="stop-color:#BB1C20"
               offset="0.8072" /><stop
               id="stop4965"
               style="stop-color:#AF1C20"
               offset="0.887" /><stop
               id="stop4967"
               style="stop-color:#9E1D22"
               offset="0.9521" /><stop
               id="stop4969"
               style="stop-color:#8B1D23"
               offset="1" /></radialGradient><rect
             id="rect4971"
             height="68.099998"
             width="120.5"
             clip-path="url(#SVGID_20_)"
             y="110.7"
             x="169.2"
             style="fill:url(#SVGID_21_)" /></g><g
           id="g4973"><defs
             id="defs4975"><path
               d="m 162.5,166.4 c 0,0 -0.4,0.9 0.2,1.4 0,0 0.6,0.5 1.2,0.1 l 0,0 c 12.6,-6.2 64.9,-32.9 86.6,-54 0,0 13.7,-11.1 14.4,-28.7 1.6,-24.6 -23.2,-47.3 -23.2,-47.3 0,0 -45.6,55.4 -79.2,128.5"
               id="SVGID_22_"
               inkscape:connector-curvature="0" /></defs><clipPath
             id="SVGID_23_"><use
               id="use4979"
               overflow="visible"
               xlink:href="#SVGID_22_"
               style="overflow:visible"
               x="0"
               y="0"
               width="100%"
               height="100%" /></clipPath><radialGradient
             gradientUnits="userSpaceOnUse"
             gradientTransform="matrix(26.5945,0,0,-26.5945,4044.0217,7356.6787)"
             r="7.7536001"
             cy="275.63019"
             cx="-145.2924"
             id="SVGID_24_"><stop
               id="stop4982"
               style="stop-color:#E4B198"
               offset="0" /><stop
               id="stop4984"
               style="stop-color:#C41C1F"
               offset="0.427" /><stop
               id="stop4986"
               style="stop-color:#C21C1F"
               offset="0.6983" /><stop
               id="stop4988"
               style="stop-color:#BB1C20"
               offset="0.8072" /><stop
               id="stop4990"
               style="stop-color:#AF1C20"
               offset="0.887" /><stop
               id="stop4992"
               style="stop-color:#9E1D22"
               offset="0.9521" /><stop
               id="stop4994"
               style="stop-color:#8B1D23"
               offset="1" /></radialGradient><rect
             id="rect4996"
             height="130.39999"
             width="104.5"
             clip-path="url(#SVGID_23_)"
             y="37.900002"
             x="162.10001"
             style="fill:url(#SVGID_24_)" /></g></g></g><g
       id="g5246"
       transform="matrix(0.67790846,0,0,-0.67790846,307.72459,352.42884)"><rect
         id="rect5208"
         height="37.118"
         width="9.3669996"
         y="82.098999"
         x="74.041"
         style="fill:#0096d6" /><path
         id="path5210"
         d="m 158.933,92.735 c -0.383,-0.197 -3.402,-1.981 -7.881,-1.981 -6.055,0 -10.256,4.216 -10.256,9.9 0,5.517 4.021,9.909 10.256,9.909 4.404,0 7.469,-1.747 7.881,-1.97 l 0,9.963 c -1.177,0.331 -4.375,1.321 -8.536,1.321 -10.535,0 -19.783,-7.264 -19.783,-19.224 0,-11.085 8.368,-19.212 19.783,-19.212 4.392,0 7.649,1.069 8.536,1.33 l 0,9.964 z"
         inkscape:connector-curvature="0"
         style="fill:#0096d6" /><path
         id="path5212"
         d="m 61.165,92.735 c -0.377,-0.197 -3.39,-1.981 -7.869,-1.981 -6.067,0 -10.266,4.216 -10.266,9.9 0,5.517 4.024,9.909 10.266,9.909 4.404,0 7.466,-1.747 7.869,-1.97 l 0,9.963 c -1.165,0.331 -4.358,1.321 -8.542,1.321 -10.529,0 -19.766,-7.264 -19.766,-19.224 0,-11.085 8.368,-19.212 19.766,-19.212 4.407,0 7.661,1.069 8.542,1.33 l 0,9.964 z"
         inkscape:connector-curvature="0"
         style="fill:#0096d6" /><path
         id="path5214"
         d="m 208.012,100.653 c 0,10.619 -8.198,19.224 -19.613,19.224 -11.416,0 -19.604,-8.605 -19.604,-19.224 0,-10.601 8.188,-19.212 19.604,-19.212 11.415,0 19.613,8.612 19.613,19.212 z m -19.613,-9.76 c -5.558,0 -9.684,4.372 -9.684,9.761 0,5.401 4.126,9.771 9.684,9.771 5.551,0 9.688,-4.37 9.688,-9.771 -10e-4,-5.389 -4.137,-9.761 -9.688,-9.761 z"
         inkscape:connector-curvature="0"
         style="fill:#0096d6" /><path
         id="path5216"
         d="m 118.929,90.537 c -0.139,-0.044 -4.083,-1.133 -7.322,-1.133 -3.754,0 -5.794,1.257 -5.794,3.042 0,2.259 2.752,3.047 4.293,3.534 l 2.585,0.823 c 6.079,1.932 8.849,6.096 8.849,10.619 0,9.324 -8.2,12.456 -15.368,12.456 -4.983,0 -9.648,-0.916 -10.109,-1.014 l 0,-8.542 c 0.826,0.209 4.751,1.379 8.846,1.379 4.659,0 6.802,-1.361 6.802,-3.465 0,-1.88 -1.854,-2.966 -4.177,-3.697 -0.568,-0.188 -1.42,-0.454 -2,-0.646 -5.218,-1.648 -9.567,-4.713 -9.567,-10.859 0,-6.942 5.198,-11.604 13.832,-11.604 4.561,0 8.852,1.106 9.13,1.182 l 0,7.925 z"
         inkscape:connector-curvature="0"
         style="fill:#0096d6" /><path
         id="path5218"
         d="m 22.925,42.208 c 0,-2.558 -2.089,-4.633 -4.65,-4.633 -2.559,0 -4.65,2.075 -4.65,4.633 l 0,9.744 c 0,2.573 2.092,4.647 4.65,4.647 2.561,0 4.65,-2.074 4.65,-4.647 l 0,-9.744 z"
         inkscape:connector-curvature="0"
         style="fill:#0096d6" /><path
         id="path5220"
         d="m 48.468,29.42 c 0,-2.558 -2.089,-4.636 -4.65,-4.636 -2.561,0 -4.65,2.078 -4.65,4.636 l 0,22.532 c 0,2.573 2.089,4.647 4.65,4.647 2.562,0 4.65,-2.074 4.65,-4.647 l 0,-22.532 z"
         inkscape:connector-curvature="0"
         style="fill:#0096d6" /><path
         id="path5222"
         d="m 74.011,11.923 c 0,-2.558 -2.089,-4.633 -4.65,-4.633 -2.562,0 -4.65,2.075 -4.65,4.633 l 0,49.289 c 0,2.573 2.089,4.647 4.65,4.647 2.561,0 4.65,-2.074 4.65,-4.647 l 0,-49.289 z"
         inkscape:connector-curvature="0"
         style="fill:#0096d6" /><path
         id="path5224"
         d="m 99.554,29.42 c 0,-2.558 -2.089,-4.636 -4.65,-4.636 -2.561,0 -4.65,2.078 -4.65,4.636 l 0,22.532 c 0,2.573 2.089,4.647 4.65,4.647 2.562,0 4.65,-2.074 4.65,-4.647 l 0,-22.532 z"
         inkscape:connector-curvature="0"
         style="fill:#0096d6" /><path
         id="path5226"
         d="m 125.068,42.208 c 0,-2.558 -2.074,-4.633 -4.621,-4.633 -2.562,0 -4.65,2.075 -4.65,4.633 l 0,9.744 c 0,2.573 2.088,4.647 4.65,4.647 2.546,0 4.621,-2.074 4.621,-4.647 l 0,-9.744 z"
         inkscape:connector-curvature="0"
         style="fill:#0096d6" /><path
         id="path5228"
         d="m 150.623,29.42 c 0,-2.558 -2.075,-4.636 -4.636,-4.636 -2.555,0 -4.635,2.078 -4.635,4.636 l 0,22.532 c 0,2.573 2.08,4.647 4.635,4.647 2.561,0 4.636,-2.074 4.636,-4.647 l 0,-22.532 z"
         inkscape:connector-curvature="0"
         style="fill:#0096d6" /><path
         id="path5230"
         d="m 176.182,11.923 c 0,-2.558 -2.074,-4.633 -4.635,-4.633 -2.561,0 -4.636,2.075 -4.636,4.633 l 0,49.289 c 0,2.573 2.075,4.647 4.636,4.647 2.561,0 4.635,-2.074 4.635,-4.647 l 0,-49.289 z"
         inkscape:connector-curvature="0"
         style="fill:#0096d6" /><path
         id="path5232"
         d="m 201.737,29.42 c 0,-2.558 -2.074,-4.636 -4.693,-4.636 -2.561,0 -4.636,2.078 -4.636,4.636 l 0,22.532 c 0,2.573 2.075,4.647 4.636,4.647 2.619,0 4.693,-2.074 4.693,-4.647 l 0,-22.532 z"
         inkscape:connector-curvature="0"
         style="fill:#0096d6" /><path
         id="path5234"
         d="m 227.24,42.208 c 0,-2.558 -2.08,-4.633 -4.636,-4.633 -2.562,0 -4.642,2.075 -4.642,4.633 l 0,9.744 c 0,2.573 2.08,4.647 4.642,4.647 2.556,0 4.636,-2.074 4.636,-4.647 l 0,-9.744 z"
         inkscape:connector-curvature="0"
         style="fill:#0096d6" /><path
         id="path5236"
         d="m 221.879,114.329 0,0.582 -1.654,0 0,4.306 -0.681,0 0,-4.306 -1.663,0 0,-0.582 3.998,0 z"
         inkscape:connector-curvature="0"
         style="fill:#0096d6" /><path
         id="path5238"
         d="m 222.227,114.329 1.066,0 1.461,4.007 0.025,0 1.414,-4.007 1.046,0 0,4.888 -0.698,0 0,-4.007 -0.023,0 -1.483,4.007 -0.646,0 -1.446,-4.007 -0.032,0 0,4.007 -0.684,0 0,-4.888 z"
         inkscape:connector-curvature="0"
         style="fill:#0096d6" /><rect
         height="142"
         width="206"
         y="4"
         x="44"
         id="_x3C_Slice_x3E__3_"
         style="fill:none" /><rect
         height="146"
         width="250"
         id="_x3C_Slice_x3E__2_"
         x="0"
         y="0"
         style="fill:none" /></g><g
       id="g5246-3"
       transform="matrix(0.67790846,0,0,-0.67790846,1319.935,370.17033)"><rect
         id="rect5208-5"
         height="37.118"
         width="9.3669996"
         y="82.098999"
         x="74.041"
         style="fill:#0096d6" /><path
         id="path5210-6"
         d="m 158.933,92.735 c -0.383,-0.197 -3.402,-1.981 -7.881,-1.981 -6.055,0 -10.256,4.216 -10.256,9.9 0,5.517 4.021,9.909 10.256,9.909 4.404,0 7.469,-1.747 7.881,-1.97 l 0,9.963 c -1.177,0.331 -4.375,1.321 -8.536,1.321 -10.535,0 -19.783,-7.264 -19.783,-19.224 0,-11.085 8.368,-19.212 19.783,-19.212 4.392,0 7.649,1.069 8.536,1.33 l 0,9.964 z"
         inkscape:connector-curvature="0"
         style="fill:#0096d6" /><path
         id="path5212-2"
         d="m 61.165,92.735 c -0.377,-0.197 -3.39,-1.981 -7.869,-1.981 -6.067,0 -10.266,4.216 -10.266,9.9 0,5.517 4.024,9.909 10.266,9.909 4.404,0 7.466,-1.747 7.869,-1.97 l 0,9.963 c -1.165,0.331 -4.358,1.321 -8.542,1.321 -10.529,0 -19.766,-7.264 -19.766,-19.224 0,-11.085 8.368,-19.212 19.766,-19.212 4.407,0 7.661,1.069 8.542,1.33 l 0,9.964 z"
         inkscape:connector-curvature="0"
         style="fill:#0096d6" /><path
         id="path5214-9"
         d="m 208.012,100.653 c 0,10.619 -8.198,19.224 -19.613,19.224 -11.416,0 -19.604,-8.605 -19.604,-19.224 0,-10.601 8.188,-19.212 19.604,-19.212 11.415,0 19.613,8.612 19.613,19.212 z m -19.613,-9.76 c -5.558,0 -9.684,4.372 -9.684,9.761 0,5.401 4.126,9.771 9.684,9.771 5.551,0 9.688,-4.37 9.688,-9.771 -10e-4,-5.389 -4.137,-9.761 -9.688,-9.761 z"
         inkscape:connector-curvature="0"
         style="fill:#0096d6" /><path
         id="path5216-1"
         d="m 118.929,90.537 c -0.139,-0.044 -4.083,-1.133 -7.322,-1.133 -3.754,0 -5.794,1.257 -5.794,3.042 0,2.259 2.752,3.047 4.293,3.534 l 2.585,0.823 c 6.079,1.932 8.849,6.096 8.849,10.619 0,9.324 -8.2,12.456 -15.368,12.456 -4.983,0 -9.648,-0.916 -10.109,-1.014 l 0,-8.542 c 0.826,0.209 4.751,1.379 8.846,1.379 4.659,0 6.802,-1.361 6.802,-3.465 0,-1.88 -1.854,-2.966 -4.177,-3.697 -0.568,-0.188 -1.42,-0.454 -2,-0.646 -5.218,-1.648 -9.567,-4.713 -9.567,-10.859 0,-6.942 5.198,-11.604 13.832,-11.604 4.561,0 8.852,1.106 9.13,1.182 l 0,7.925 z"
         inkscape:connector-curvature="0"
         style="fill:#0096d6" /><path
         id="path5218-2"
         d="m 22.925,42.208 c 0,-2.558 -2.089,-4.633 -4.65,-4.633 -2.559,0 -4.65,2.075 -4.65,4.633 l 0,9.744 c 0,2.573 2.092,4.647 4.65,4.647 2.561,0 4.65,-2.074 4.65,-4.647 l 0,-9.744 z"
         inkscape:connector-curvature="0"
         style="fill:#0096d6" /><path
         id="path5220-7"
         d="m 48.468,29.42 c 0,-2.558 -2.089,-4.636 -4.65,-4.636 -2.561,0 -4.65,2.078 -4.65,4.636 l 0,22.532 c 0,2.573 2.089,4.647 4.65,4.647 2.562,0 4.65,-2.074 4.65,-4.647 l 0,-22.532 z"
         inkscape:connector-curvature="0"
         style="fill:#0096d6" /><path
         id="path5222-0"
         d="m 74.011,11.923 c 0,-2.558 -2.089,-4.633 -4.65,-4.633 -2.562,0 -4.65,2.075 -4.65,4.633 l 0,49.289 c 0,2.573 2.089,4.647 4.65,4.647 2.561,0 4.65,-2.074 4.65,-4.647 l 0,-49.289 z"
         inkscape:connector-curvature="0"
         style="fill:#0096d6" /><path
         id="path5224-9"
         d="m 99.554,29.42 c 0,-2.558 -2.089,-4.636 -4.65,-4.636 -2.561,0 -4.65,2.078 -4.65,4.636 l 0,22.532 c 0,2.573 2.089,4.647 4.65,4.647 2.562,0 4.65,-2.074 4.65,-4.647 l 0,-22.532 z"
         inkscape:connector-curvature="0"
         style="fill:#0096d6" /><path
         id="path5226-3"
         d="m 125.068,42.208 c 0,-2.558 -2.074,-4.633 -4.621,-4.633 -2.562,0 -4.65,2.075 -4.65,4.633 l 0,9.744 c 0,2.573 2.088,4.647 4.65,4.647 2.546,0 4.621,-2.074 4.621,-4.647 l 0,-9.744 z"
         inkscape:connector-curvature="0"
         style="fill:#0096d6" /><path
         id="path5228-6"
         d="m 150.623,29.42 c 0,-2.558 -2.075,-4.636 -4.636,-4.636 -2.555,0 -4.635,2.078 -4.635,4.636 l 0,22.532 c 0,2.573 2.08,4.647 4.635,4.647 2.561,0 4.636,-2.074 4.636,-4.647 l 0,-22.532 z"
         inkscape:connector-curvature="0"
         style="fill:#0096d6" /><path
         id="path5230-0"
         d="m 176.182,11.923 c 0,-2.558 -2.074,-4.633 -4.635,-4.633 -2.561,0 -4.636,2.075 -4.636,4.633 l 0,49.289 c 0,2.573 2.075,4.647 4.636,4.647 2.561,0 4.635,-2.074 4.635,-4.647 l 0,-49.289 z"
         inkscape:connector-curvature="0"
         style="fill:#0096d6" /><path
         id="path5232-6"
         d="m 201.737,29.42 c 0,-2.558 -2.074,-4.636 -4.693,-4.636 -2.561,0 -4.636,2.078 -4.636,4.636 l 0,22.532 c 0,2.573 2.075,4.647 4.636,4.647 2.619,0 4.693,-2.074 4.693,-4.647 l 0,-22.532 z"
         inkscape:connector-curvature="0"
         style="fill:#0096d6" /><path
         id="path5234-2"
         d="m 227.24,42.208 c 0,-2.558 -2.08,-4.633 -4.636,-4.633 -2.562,0 -4.642,2.075 -4.642,4.633 l 0,9.744 c 0,2.573 2.08,4.647 4.642,4.647 2.556,0 4.636,-2.074 4.636,-4.647 l 0,-9.744 z"
         inkscape:connector-curvature="0"
         style="fill:#0096d6" /><path
         id="path5236-6"
         d="m 221.879,114.329 0,0.582 -1.654,0 0,4.306 -0.681,0 0,-4.306 -1.663,0 0,-0.582 3.998,0 z"
         inkscape:connector-curvature="0"
         style="fill:#0096d6" /><path
         id="path5238-1"
         d="m 222.227,114.329 1.066,0 1.461,4.007 0.025,0 1.414,-4.007 1.046,0 0,4.888 -0.698,0 0,-4.007 -0.023,0 -1.483,4.007 -0.646,0 -1.446,-4.007 -0.032,0 0,4.007 -0.684,0 0,-4.888 z"
         inkscape:connector-curvature="0"
         style="fill:#0096d6" /><rect
         height="142"
         width="206"
         y="4"
         x="44"
         id="_x3C_Slice_x3E__3_-8"
         style="fill:none" /><rect
         height="146"
         width="250"
         id="_x3C_Slice_x3E__2_-7"
         x="0"
         y="0"
         style="fill:none" /></g><g
       transform="matrix(0.36230454,0,0,-0.36230454,1072.1735,318.29066)"
       id="layer1"
       inkscape:label="Layer 1"><g
         transform="matrix(6.1211126,0,0,-6.1211126,174.21121,135.09611)"
         id="g3211"><path
           id="path3213"
           style="fill:#005cab;fill-opacity:1;fill-rule:nonzero;stroke:none"
           d="m 0,0 0,-20.335 3.95,0 0,14.316 11.606,-12.632 c 0.361,-0.333 1.141,-1.03 2.038,-1.361 0.661,-0.244 1.257,-0.325 1.778,-0.325 l 6.794,0.002 0,20.335 -3.904,0 0,-14.96 -11.813,13.169 c -0.506,0.506 -0.842,0.756 -1.472,1.092 -0.802,0.43 -1.316,0.697 -2.225,0.697 L 0,0 Z"
           inkscape:connector-curvature="0" /></g><g
         transform="matrix(6.1211126,0,0,-6.1211126,407.74507,202.21289)"
         id="g3215"><path
           id="path3217"
           style="fill:#005cab;fill-opacity:1;fill-rule:nonzero;stroke:none"
           d="m 0,0 14.144,0 0,2.939 -14.144,0 0,5.088 15.562,0 0,2.938 -24.065,0 -0.002,-14.905 c 0,-1.83 0.387,-2.869 1.698,-4.014 1.455,-1.272 4.095,-1.418 6.807,-1.418 l 15.957,0.002 0,3.117 -13.177,0.001 c -0.796,0 -1.361,0.012 -1.975,0.519 C 0.023,-5.087 0,-4.274 0,-3.26 L 0,0 Z"
           inkscape:connector-curvature="0" /></g><g
         transform="matrix(6.1211126,0,0,-6.1211126,674.21121,153.07813)"
         id="g3219"><path
           id="path3221"
           style="fill:#005cab;fill-opacity:1;fill-rule:nonzero;stroke:none"
           d="m 0,0 0,3.046 c -3.375,0.734 -7.177,0.677 -10.161,0.591 -8.726,-0.252 -16.05,-1.846 -16.05,-10.732 0,-9.066 6.14,-10.642 16.983,-10.965 3.602,-0.107 6.211,-0.072 9.228,0.466 l 0,3.314 c -2.675,-0.606 -4.261,-0.756 -7.002,-0.663 -2.017,0.069 -3.036,-0.021 -5.134,0.663 -2.801,0.914 -4.991,2.275 -4.991,7.543 0,3.763 1.687,5.805 3.95,6.737 1.43,0.588 3.744,0.82 6.175,0.86 C -4.251,0.904 -2.658,0.709 0,0"
           inkscape:connector-curvature="0" /></g></g><g
       transform="matrix(0.24552133,0,0,-0.24552133,317.74663,592.55037)"
       id="layer1-9"
       inkscape:label="Layer 1"><g
         transform="matrix(6.1211126,0,0,-6.1211126,174.21121,135.09611)"
         id="g3211-2"><path
           id="path3213-0"
           style="fill:#005cab;fill-opacity:1;fill-rule:nonzero;stroke:none"
           d="m 0,0 0,-20.335 3.95,0 0,14.316 11.606,-12.632 c 0.361,-0.333 1.141,-1.03 2.038,-1.361 0.661,-0.244 1.257,-0.325 1.778,-0.325 l 6.794,0.002 0,20.335 -3.904,0 0,-14.96 -11.813,13.169 c -0.506,0.506 -0.842,0.756 -1.472,1.092 -0.802,0.43 -1.316,0.697 -2.225,0.697 L 0,0 Z"
           inkscape:connector-curvature="0" /></g><g
         transform="matrix(6.1211126,0,0,-6.1211126,407.74507,202.21289)"
         id="g3215-2"><path
           id="path3217-3"
           style="fill:#005cab;fill-opacity:1;fill-rule:nonzero;stroke:none"
           d="m 0,0 14.144,0 0,2.939 -14.144,0 0,5.088 15.562,0 0,2.938 -24.065,0 -0.002,-14.905 c 0,-1.83 0.387,-2.869 1.698,-4.014 1.455,-1.272 4.095,-1.418 6.807,-1.418 l 15.957,0.002 0,3.117 -13.177,0.001 c -0.796,0 -1.361,0.012 -1.975,0.519 C 0.023,-5.087 0,-4.274 0,-3.26 L 0,0 Z"
           inkscape:connector-curvature="0" /></g><g
         transform="matrix(6.1211126,0,0,-6.1211126,674.21121,153.07813)"
         id="g3219-7"><path
           id="path3221-5"
           style="fill:#005cab;fill-opacity:1;fill-rule:nonzero;stroke:none"
           d="m 0,0 0,3.046 c -3.375,0.734 -7.177,0.677 -10.161,0.591 -8.726,-0.252 -16.05,-1.846 -16.05,-10.732 0,-9.066 6.14,-10.642 16.983,-10.965 3.602,-0.107 6.211,-0.072 9.228,0.466 l 0,3.314 c -2.675,-0.606 -4.261,-0.756 -7.002,-0.663 -2.017,0.069 -3.036,-0.021 -5.134,0.663 -2.801,0.914 -4.991,2.275 -4.991,7.543 0,3.763 1.687,5.805 3.95,6.737 1.43,0.588 3.744,0.82 6.175,0.86 C -4.251,0.904 -2.658,0.709 0,0"
           inkscape:connector-curvature="0" /></g></g><g
       transform="matrix(0.62854485,0,0,-0.62854485,227.43052,595.64451)"
       id="layer1-4"
       inkscape:label="Layer 1"><g
         style="fill:#10539b;fill-opacity:1"
         transform="translate(-15.556349,-371.93817)"
         id="g6189"><path
           style="fill:#10539b;fill-opacity:1;stroke:none;stroke-width:2;stroke-miterlimit:4;stroke-dasharray:6, 6;stroke-dashoffset:0;stroke-opacity:1"
           d="m 272.96484,565.86133 c -11.50093,-0.32261 -21.72971,10.30058 -20.95507,21.7832 -0.24633,10.52495 -6.31462,21.41758 -16.76418,24.68278 -7.18594,2.91451 -15.75356,0.51513 -22.2236,5.4916 -10.44149,6.57354 -12.38563,22.63191 -3.79907,31.49709 8.00151,9.3917 24.17099,9.00245 31.71348,-0.76104 4.76515,-5.09517 4.62122,-12.23938 5.39601,-18.68252 1.78713,-11.26059 11.55372,-20.09509 22.70808,-21.58587 12.38854,-2.15025 26.00526,5.72972 29.61459,17.95803 2.15742,10.06313 1.58913,22.87226 12.99279,27.66143 11.87995,6.61487 28.37902,-1.63986 30.18352,-15.12838 2.57521,-12.16608 -8.04848,-24.58076 -20.10287,-24.57648 -10.23637,0.0471 -21.19701,-4.95983 -25.14982,-14.95184 -3.04929,-5.82143 -2.03143,-12.50739 -3.58039,-18.64907 -2.56545,-8.60253 -11.04602,-14.87025 -20.03347,-14.73893 z"
           id="path6054"
           inkscape:connector-curvature="0" /><path
           style="fill:#10539b;fill-opacity:1;stroke:none;stroke-width:2;stroke-miterlimit:4;stroke-dasharray:6, 6;stroke-dashoffset:0;stroke-opacity:1"
           d="m 273.27734,614.23633 c -14.44176,-0.60446 -25.48938,16.08823 -19.3175,29.14426 4.31155,12.27846 17.85037,12.35375 28.30934,14.66066 11.92297,3.60349 18.84175,16.20262 18.28885,28.20127 0.84257,14.42294 18.55059,23.76364 30.92354,16.30296 10.73997,-4.93285 10.45701,-17.18187 12.31332,-26.97367 4.23012,-15.74289 24.06576,-24.01144 38.33995,-16.41082 10.74008,4.60501 15.76389,16.67981 15.56308,27.71603 1.29476,14.98705 20.60244,23.6287 32.62421,14.56902 9.93839,-5.69974 8.22009,-17.62309 10.91338,-26.96452 3.7294,-11.68296 16.01523,-18.70587 27.91131,-18.39873 14.42651,-0.84237 23.75848,-18.5475 16.31504,-30.92633 -6.39366,-12.96392 -26.33927,-14.66841 -34.83164,-2.96574 -7.13464,8.3506 -2.51345,20.51014 -8.94976,29.2487 -10.42904,16.73411 -38.83419,14.86705 -47.30803,-2.81944 -5.22699,-8.97035 -0.79718,-21.18476 -9.5794,-28.45444 -9.93932,-10.50316 -29.49488,-6.20962 -34.14953,7.46925 -2.46459,7.65463 -0.86577,16.41545 -5.76147,23.40795 -10.06038,16.9572 -38.52075,15.53957 -47.27319,-1.94772 -5.6404,-9.61731 -0.66711,-23.28202 -11.29333,-30.31333 -3.6697,-2.9277 -8.34436,-4.55677 -13.03817,-4.54536 z"
           id="path6054-28"
           inkscape:connector-curvature="0" /></g></g><g
       transform="matrix(0.5237667,0,0,-0.5237667,1280.3598,564.7097)"
       id="layer1-4-7"
       inkscape:label="Layer 1"><g
         style="fill:#10539b;fill-opacity:1"
         transform="translate(-15.556349,-371.93817)"
         id="g6189-8"><path
           style="fill:#10539b;fill-opacity:1;stroke:none;stroke-width:2;stroke-miterlimit:4;stroke-dasharray:6, 6;stroke-dashoffset:0;stroke-opacity:1"
           d="m 272.96484,565.86133 c -11.50093,-0.32261 -21.72971,10.30058 -20.95507,21.7832 -0.24633,10.52495 -6.31462,21.41758 -16.76418,24.68278 -7.18594,2.91451 -15.75356,0.51513 -22.2236,5.4916 -10.44149,6.57354 -12.38563,22.63191 -3.79907,31.49709 8.00151,9.3917 24.17099,9.00245 31.71348,-0.76104 4.76515,-5.09517 4.62122,-12.23938 5.39601,-18.68252 1.78713,-11.26059 11.55372,-20.09509 22.70808,-21.58587 12.38854,-2.15025 26.00526,5.72972 29.61459,17.95803 2.15742,10.06313 1.58913,22.87226 12.99279,27.66143 11.87995,6.61487 28.37902,-1.63986 30.18352,-15.12838 2.57521,-12.16608 -8.04848,-24.58076 -20.10287,-24.57648 -10.23637,0.0471 -21.19701,-4.95983 -25.14982,-14.95184 -3.04929,-5.82143 -2.03143,-12.50739 -3.58039,-18.64907 -2.56545,-8.60253 -11.04602,-14.87025 -20.03347,-14.73893 z"
           id="path6054-4"
           inkscape:connector-curvature="0" /><path
           style="fill:#10539b;fill-opacity:1;stroke:none;stroke-width:2;stroke-miterlimit:4;stroke-dasharray:6, 6;stroke-dashoffset:0;stroke-opacity:1"
           d="m 273.27734,614.23633 c -14.44176,-0.60446 -25.48938,16.08823 -19.3175,29.14426 4.31155,12.27846 17.85037,12.35375 28.30934,14.66066 11.92297,3.60349 18.84175,16.20262 18.28885,28.20127 0.84257,14.42294 18.55059,23.76364 30.92354,16.30296 10.73997,-4.93285 10.45701,-17.18187 12.31332,-26.97367 4.23012,-15.74289 24.06576,-24.01144 38.33995,-16.41082 10.74008,4.60501 15.76389,16.67981 15.56308,27.71603 1.29476,14.98705 20.60244,23.6287 32.62421,14.56902 9.93839,-5.69974 8.22009,-17.62309 10.91338,-26.96452 3.7294,-11.68296 16.01523,-18.70587 27.91131,-18.39873 14.42651,-0.84237 23.75848,-18.5475 16.31504,-30.92633 -6.39366,-12.96392 -26.33927,-14.66841 -34.83164,-2.96574 -7.13464,8.3506 -2.51345,20.51014 -8.94976,29.2487 -10.42904,16.73411 -38.83419,14.86705 -47.30803,-2.81944 -5.22699,-8.97035 -0.79718,-21.18476 -9.5794,-28.45444 -9.93932,-10.50316 -29.49488,-6.20962 -34.14953,7.46925 -2.46459,7.65463 -0.86577,16.41545 -5.76147,23.40795 -10.06038,16.9572 -38.52075,15.53957 -47.27319,-1.94772 -5.6404,-9.61731 -0.66711,-23.28202 -11.29333,-30.31333 -3.6697,-2.9277 -8.34436,-4.55677 -13.03817,-4.54536 z"
           id="path6054-28-5"
           inkscape:connector-curvature="0" /></g></g></g></svg>