<?xml version="1.0" encoding="UTF-8" standalone="no"?>
<!-- Created with Inkscape (http://www.inkscape.org/) -->

<svg
   xmlns:dc="http://purl.org/dc/elements/1.1/"
   xmlns:cc="http://creativecommons.org/ns#"
   xmlns:rdf="http://www.w3.org/1999/02/22-rdf-syntax-ns#"
   xmlns:svg="http://www.w3.org/2000/svg"
   xmlns="http://www.w3.org/2000/svg"
   xmlns:sodipodi="http://sodipodi.sourceforge.net/DTD/sodipodi-0.dtd"
   xmlns:inkscape="http://www.inkscape.org/namespaces/inkscape"
   width="1920"
   height="1080"
   viewBox="0 0 507.99999 285.75001"
   version="1.1"
   id="svg5199"
   inkscape:version="0.92.1 r"
   sodipodi:docname="kuryr_vtg_scale_and_performance.svg"
   inkscape:export-filename="/home/celebdor/Pictures/kuryr_vtg_queens_scale_and_performance.png"
   inkscape:export-xdpi="96"
   inkscape:export-ydpi="96">
  <defs
     id="defs5193" />
  <sodipodi:namedview
     id="base"
     pagecolor="#ffffff"
     bordercolor="#666666"
     borderopacity="1.0"
     inkscape:pageopacity="0.0"
     inkscape:pageshadow="2"
     inkscape:zoom="0.35"
     inkscape:cx="510.81192"
     inkscape:cy="206.03356"
     inkscape:document-units="mm"
     inkscape:current-layer="layer1"
     showgrid="false"
     units="px"
     inkscape:window-width="1920"
     inkscape:window-height="1027"
     inkscape:window-x="0"
     inkscape:window-y="27"
     inkscape:window-maximized="1" />
  <metadata
     id="metadata5196">
    <rdf:RDF>
      <cc:Work
         rdf:about="">
        <dc:format>image/svg+xml</dc:format>
        <dc:type
           rdf:resource="http://purl.org/dc/dcmitype/StillImage" />
        <dc:title></dc:title>
      </cc:Work>
    </rdf:RDF>
  </metadata>
  <g
     inkscape:label="Layer 1"
     inkscape:groupmode="layer"
     id="layer1"
     transform="translate(0,-11.249983)">
    <path
       style="fill:#2196f3;fill-rule:evenodd;stroke:#000000;stroke-width:0.26458332px;stroke-linecap:butt;stroke-linejoin:miter;stroke-opacity:1;fill-opacity:1"
       d="M 0,11.021589 H 508.07937 V 297.26726 H 0 Z"
       id="path5782"
       inkscape:connector-curvature="0" />
    <g
       transform="matrix(0.63088139,0,0,0.63088139,-278.69794,190.57073)"
       id="g4585">
      <path
         inkscape:connector-curvature="0"
         id="path4545"
         d="m 736.28384,97.301218 1.87047,11.485472 11.07413,11.8003 12.16339,-11.43722 6.35401,-0.36308 -1.63389,-9.621788 -0.90771,-15.249622 -20.15129,-1.089259 z"
         style="fill:#4c4c4c;fill-opacity:1;fill-rule:evenodd;stroke:none;stroke-width:1px;stroke-linecap:butt;stroke-linejoin:miter;stroke-opacity:1" />
      <path
         inkscape:connector-curvature="0"
         id="path4543"
         d="m 598.97614,98.166002 -30.29541,6.290148 2.31067,18.10022 5.90504,8.34408 12.9654,3.72274 8.72919,-7.31711 4.23622,-26.4443 z"
         style="fill:#4c4c4c;fill-opacity:1;fill-rule:evenodd;stroke:#000000;stroke-width:1px;stroke-linecap:butt;stroke-linejoin:miter;stroke-opacity:1" />
      <path
         inkscape:connector-curvature="0"
         id="path4541"
         d="m 548.39822,29.487855 -11.16823,2.952518 -4.36459,9.499407 -37.09904,0.128371 4.23623,11.039852 10.65474,2.695777 20.796,1.026963 7.95896,9.114296 8.08733,6.033408 15.40445,2.182296 0.12837,-6.033407 -3.08089,-8.344074 2.56741,-9.114296 2.31066,-13.222148 -8.98592,-10.26963 z"
         style="fill:#4c4c4c;fill-opacity:1;fill-rule:evenodd;stroke:#000000;stroke-width:1px;stroke-linecap:butt;stroke-linejoin:miter;stroke-opacity:1" />
      <path
         style="fill:#a04700;fill-opacity:1"
         d="m 589.7474,90.958248 c 2.09584,-3.19865 -0.80816,-7.17984 -12.58416,-11.93961 -22.30608,-23.38004 -11.77913,-29.63934 -18.51574,-57.332946 4.74507,-2.333557 8.23849,-3.186374 16,-3.905926 9.597,-0.889718 10.43181,-1.171478 24.92951,-8.414128 22.75864,-11.369584 36.53671,-15.261208 57.61236,-16.272642 31.38771,-1.506317 58.19652,7.732881 84.93446,27.880528 13.72915,10.345219 11.00723,10.231592 50.95318,10.812755 l 34.5,0.531029 14.16312,8.74704 c 15.58737,9.62664 13.51278,17.27955 5.54683,32.9249 -7.87628,15.46925 -17.66294,17.76717 -39.23793,12.96719 -9.47183,-2.10728 -13.85213,-4.12336 -25.88276,-11.2826 -14.01709,-8.34135 -27.90469,-11.92204 -27.90469,-6.7604 -10.43856,4.46264 -16.12132,13.60527 -17.97774,28.38778 -3.27064,-4.67817 -5.29436,4.479292 -6.93603,4.102702 -7.2299,-1.658492 -8.76697,-2.090892 -14.93872,-4.819392 l -8.52131,-3.76722 -35.14037,-2.17549 -33.86895,-2.36006 -7.98523,6.30725 c -5.66856,4.47741 -9.48834,5.716032 -15.57567,5.755122 -18.14962,-6.884052 -13.14553,-2.194132 -23.57016,-9.385882 z"
         id="path4521"
         inkscape:connector-curvature="0"
         sodipodi:nodetypes="cccssssscsssscccscccscc" />
      <path
         sodipodi:nodetypes="cccscccccccccccccc"
         inkscape:connector-curvature="0"
         id="path4553"
         d="m 560.07992,54.391706 c 86.80039,48.756504 141.58946,20.054777 202.44007,-1.925555 31.83585,-0.12837 58.02341,31.707481 87.80533,5.519926 1.54045,13.350518 -14.89096,28.241481 -30.29541,28.241481 -15.40444,0 -43.64592,-14.890963 -43.64592,-14.890963 l -16.94489,-8.215703 -25.16059,17.971851 3.08089,12.580296 -6.67526,5.905037 -15.1477,-1.540444 -9.24267,-10.012889 -19.76904,1.540444 -49.64627,-1.283429 -18.39002,10.269355 -26.4443,-1.797185 -3.59437,-14.120741 -23.10667,-10.269629 z"
         style="fill:#873f05;fill-opacity:1;fill-rule:evenodd;stroke:none;stroke-width:1px;stroke-linecap:butt;stroke-linejoin:miter;stroke-opacity:1" />
      <path
         style="fill:#231e21;fill-opacity:1"
         d="m 585.57701,136.39484 c -2.31166,-1.45352 -5.52589,-2.52828 -7.61514,-2.54632 -6.13015,-0.0529 -11.30496,-5.47659 -11.07449,-11.60708 0.0717,-1.90691 -0.84651,-4.43997 -2.34629,-6.47282 -3.01852,-4.09137 -3.26246,-9.73693 -0.56563,-13.09053 1.35145,-1.68057 4.58212,-3.081102 11.21258,-4.860782 7.81174,-2.09674 9.56212,-2.94219 10.85155,-5.24137 1.14029,-2.03325 1.26185,-3.17838 0.47059,-4.43317 -1.35547,-2.14953 -2.03933,-2.50477 -13.05715,-6.78279 -7.81539,-3.03456 -10.30867,-3.54267 -17.38398,-3.54267 -4.543,0 -10.08135,-0.54569 -12.30745,-1.21265 -4.47072,-1.33945 -10.25864,-6.52078 -12.88808,-11.53735 l -1.70349,-3.25 h -11.85017 c -10.75333,0 -12.33247,-0.24034 -17.06101,-2.59667 -6.05048,-3.01509 -9.81564,-8.45248 -10.79359,-15.58739 -0.56931,-4.15356 -0.42701,-4.57373 1.74596,-5.15537 1.30119,-0.3483 10.34764,-0.63941 20.10324,-0.64692 l 17.73746,-0.01365 2.39919,-3.75 c 4.88811,-7.640249 10.41728,-11.25 17.23196,-11.25 1.92871,0 6.08992,-1.360465 9.34864,-3.056449 5.40701,-2.81404 9.52888,-3.78151 23.4654,-5.507703 3.24213,-0.401574 9.03987,-2.758075 17,-6.909668 32.76701,-17.089599 63.62608,-21.283841 96.06053,-13.056167 18.07444,4.584959 32.61732,11.668367 48.4497,23.598421 14.25667,10.742726 12.38158,10.346764 52.06967,10.995485 39.51727,0.645929 40.41907,0.810614 49.40371,9.022071 7.03042,6.42541 9.95283,12.9853 9.98538,22.41401 0.0561,16.25205 -11.76168,29.11595 -28.56215,31.09052 -7.11076,0.83573 -20.36487,-1.05738 -28.29141,-4.04092 -3.33505,-1.25532 -9.06897,-4.1218 -12.74204,-6.36997 -11.52253,-7.05256 -16.89852,-9.37881 -22.94074,-9.9267 -5.4749,-0.49645 -5.83357,-0.38914 -6.95959,2.08221 -1.59799,3.50721 0.22836,5.66486 4.79503,5.66486 4.55208,0 6.94653,1.39295 8.90515,5.18049 1.12784,2.18101 1.4193,4.33901 0.96756,7.164 -0.36239,2.2663 -0.0954,6.19303 0.60765,8.936102 1.12647,4.39525 1.05449,5.26544 -0.70722,8.5494 -1.17358,2.18766 -3.42403,4.34446 -5.60315,5.36998 -2.00301,0.94264 -4.62185,3.2996 -5.81965,5.23769 -2.6253,4.24783 -8.0072,6.30234 -12.25312,4.67756 -1.56398,-0.59849 -5.13954,-4.33992 -8.43568,-8.82701 -6.57038,-8.94435 -6.53799,-8.91624 -11.28487,-9.79515 -4.74274,-0.87814 -12.60119,-4.87877 -16.76553,-8.535112 l -3.36892,-2.95795 h -35.06448 -35.06448 l -5.77498,3.56453 c -4.37004,2.697342 -7.56938,3.809002 -13.15073,4.569452 -4.05666,0.55271 -7.88229,1.53617 -8.50141,2.18547 -0.61912,0.6493 -2.57042,7.38806 -4.33622,14.97502 -3.5685,15.33246 -5.35471,18.45331 -11.03811,19.28561 -2.62369,0.38422 -4.5015,-0.11717 -7.5,-2.00255 z m 7.34565,-9.32753 c 1.20663,-2.3052 5.15435,-18.52482 5.15435,-21.17719 0,-1.84821 -0.60165,-2.07281 -5.55259,-2.07281 -7.39062,0 -19.42977,2.79045 -20.15128,4.67069 -0.31224,0.81367 0.43194,3.61369 1.65373,6.22227 1.2218,2.60857 2.12958,5.3873 2.01731,6.17495 -0.45816,3.21416 0.14408,3.93209 3.29843,3.93209 1.79608,0 4.83358,0.87417 6.75,1.94261 4.38382,2.44404 5.68108,2.50243 6.83005,0.30739 z m 160.58001,-16.17387 c 2.10736,-2.15813 4.94673,-4.20376 6.30972,-4.54585 2.20027,-0.55223 2.39907,-0.98128 1.77281,-3.82613 -0.38794,-1.76228 -0.81314,-5.568802 -0.94489,-8.458942 -0.13175,-2.89013 -0.52962,-5.54486 -0.88416,-5.8994 -0.67982,-0.67982 -14.29634,1.29957 -15.94369,2.31769 -1.85021,1.14349 -4.9094,9.50731 -4.32666,11.829112 0.63079,2.51326 8.15113,12.50739 9.41152,12.50739 0.42559,0 2.498,-1.76574 4.60535,-3.92387 z M 731.68756,93.206958 c 1.4441,-3.45621 1.39922,-3.76804 -1.05102,-7.30375 -1.75262,-2.52904 -2.55953,-5.01629 -2.55953,-7.88965 0,-3.94367 0.17101,-4.19625 2.84107,-4.19625 11.50886,0 22.81011,-8.79267 26.24247,-20.41735 1.36182,-4.61222 3.88939,-6.29774 7.41509,-4.9448 1.35828,0.52122 1.59832,1.80942 1.32946,7.13469 l -0.32809,6.49862 6.5,2.67179 c 3.575,1.46949 10.73877,5.23869 15.91949,8.37601 10.12233,6.12985 15.47907,8.10807 26.77736,9.8888 13.40867,2.11333 23.98087,-2.4542 29.21283,-12.6209 6.64718,-12.91672 -0.99009,-28.83899 -15.6025,-32.52827 -2.49456,-0.62982 -16.52706,-1.05859 -34.64466,-1.05859 -35.09688,0 -38.76386,-0.624622 -49.90267,-8.500282 C 720.36804,11.723475 711.23435,6.957584 694.13972,2.385433 667.8521,-4.645488 640.89295,-2.659899 615.19798,8.19963 c -8.16386,3.450308 -12.12097,6.004483 -12.12097,7.823648 0,0.492798 1.64265,2.40086 3.65033,4.240138 l 3.65033,3.344142 -2.6268,2.626802 -2.6268,2.626801 -5.27353,-2.771926 c -4.55705,-2.395323 -6.63217,-2.814122 -15.27353,-3.082496 -17.81488,-0.553274 -21.55192,1.407394 -17.71911,9.296465 3.12416,6.430474 2.9662,13.508804 -0.45225,20.265254 l -2.67137,5.27986 3.49138,6.73449 3.49139,6.7345 8.37908,3.37186 c 11.11889,4.4744 14.67759,4.89267 19.03369,2.2371 1.89595,-1.15582 4.90969,-2.10317 6.69719,-2.10522 3.11493,-0.004 3.25,0.15928 3.25,3.91871 0,3.56334 -0.30697,4.02375 -3.35295,5.02902 -4.17208,1.37691 -7.94477,5.27041 -7.47011,7.70932 0.32389,1.6642 1.50592,1.83921 12.42191,1.83921 11.67478,0 12.18234,-0.0904 15.73361,-2.80169 4.09895,-3.12947 6.30264,-6.79161 7.47118,-12.41581 0.7262,-3.49522 1.0483,-3.7825 4.24112,-3.7825 3.43578,0 3.45701,0.0281 3.76945,4.98067 0.17282,2.73937 0.84782,5.31997 1.5,5.73469 1.90318,1.21019 52.51414,0.94687 54.81629,-0.2852 1.67641,-0.89719 1.94822,-1.90584 1.68426,-6.25 l -0.31476,-5.18016 h 3.91758 c 3.87449,0 3.93366,0.0578 5.37998,5.25688 2.47886,8.91067 12.3113,18.08544 19.50347,18.19892 2.28995,0.0361 3.07627,-0.61455 4.30952,-3.56615 z M 583.78959,45.196548 c -1.39725,-1.39724 -0.6812,-5.32566 1.14928,-6.30531 2.63077,-1.40794 5.42836,0.82767 4.98311,3.9821 -0.24797,1.75674 -1.05847,2.52718 -2.88239,2.73988 -1.39559,0.16275 -2.85809,-0.0248 -3.25,-0.41667 z m -28.01872,21.97615 c 0.92756,-2.41717 -2.37285,-4.35539 -7.41637,-4.35539 -4.9921,0 -6.88814,2.34909 -3.74884,4.64461 2.70678,1.97925 10.37091,1.78072 11.16521,-0.28922 z m 1.38306,-17.27847 c 4.0804,-4.08039 4.14608,-10.6766 0.15083,-15.148056 -2.35786,-2.638903 -3.50312,-3.113738 -7.66171,-3.176606 -4.2766,-0.06465 -5.2452,0.324243 -7.72774,3.102689 -1.92493,2.154373 -2.8383,4.258433 -2.8383,6.538383 0,1.84898 -0.59471,3.85535 -1.32159,4.4586 -0.80769,0.67032 -7.70477,1.20399 -17.73728,1.37244 -15.15281,0.25443 -16.44348,0.42028 -16.77681,2.1558 -0.19861,1.0341 0.24567,2.26471 0.98729,2.73469 0.74161,0.46998 12.2955,0.86141 25.67531,0.86983 l 24.32693,0.01531 z"
         id="path4503"
         inkscape:connector-curvature="0" />
      <path
         sodipodi:nodetypes="aaasa"
         inkscape:connector-curvature="0"
         id="path4561-3"
         d="m 586.32394,45.971352 c -1.99643,-0.0124 -4.3673,-2.01859 -4.44574,-4.01351 -0.0847,-2.15429 2.28983,-4.68425 4.44574,-4.69772 2.18188,-0.0136 4.75269,2.08022 4.55834,4.69772 -0.15268,2.0563 -2.5339,4.02609 -4.55834,4.01351 z"
         style="fill:#000000;fill-opacity:1;fill-rule:evenodd;stroke:#000000;stroke-width:1px;stroke-linecap:butt;stroke-linejoin:miter;stroke-opacity:1" />
    </g>
    <text
       xml:space="preserve"
       style="font-style:normal;font-weight:normal;font-size:11.7594347px;line-height:10.6903944px;font-family:sans-serif;letter-spacing:0px;word-spacing:0px;fill:#000000;fill-opacity:1;stroke:none;stroke-width:0.42761579px;stroke-linecap:butt;stroke-linejoin:miter;stroke-opacity:1"
       x="34.123318"
       y="81.043121"
       id="text5786"><tspan
         sodipodi:role="line"
         x="34.123318"
         y="81.043121"
         style="font-style:normal;font-variant:normal;font-weight:900;font-stretch:normal;font-size:41.05111694px;font-family:Roboto;-inkscape-font-specification:'Roboto Heavy';fill:#ffffff;fill-opacity:1;stroke-width:0.42761579px"
         id="tspan5788">Virtual Team Gathering</tspan></text>
    <text
       xml:space="preserve"
       style="font-style:normal;font-weight:normal;font-size:6.99460697px;line-height:6.35873318px;font-family:sans-serif;letter-spacing:0px;word-spacing:0px;fill:#000000;fill-opacity:1;stroke:none;stroke-width:0.25434935px;stroke-linecap:butt;stroke-linejoin:miter;stroke-opacity:1"
       x="33.2645"
       y="124.93024"
       id="text5786-1"
       inkscape:export-filename="/home/celebdor/Pictures/text5786-1.png"
       inkscape:export-xdpi="96"
       inkscape:export-ydpi="96"><tspan
         sodipodi:role="line"
         x="33.2645"
         y="124.93024"
         style="font-style:normal;font-variant:normal;font-weight:900;font-stretch:normal;font-size:24.41753769px;font-family:Roboto;-inkscape-font-specification:'Roboto Heavy';fill:#ffffff;fill-opacity:1;stroke-width:0.25434935px"
         id="tspan5788-9">Kuryr-Kubernetes: scale &amp; performance</tspan></text>
    <text
       xml:space="preserve"
       style="font-style:normal;font-variant:normal;font-weight:normal;font-stretch:normal;font-size:52.30837631px;line-height:24.72759438px;font-family:Roboto;-inkscape-font-specification:Roboto;letter-spacing:0px;word-spacing:0px;fill:#000000;fill-opacity:1;stroke:none;stroke-width:1.90212274px;stroke-linecap:butt;stroke-linejoin:miter;stroke-opacity:1"
       x="218.67618"
       y="281.59802"
       id="text9726"
       transform="rotate(-12.866095)"><tspan
         sodipodi:role="line"
         id="tspan9724"
         x="218.67618"
         y="281.59802"
         style="font-style:normal;font-variant:normal;font-weight:normal;font-stretch:normal;font-family:'Permanent Marker';-inkscape-font-specification:'Permanent Marker';stroke-width:1.90212274px">QUEENS</tspan></text>
  </g>
</svg>
