<?xml version="1.0" encoding="UTF-8" standalone="no"?>
<!-- Created with Inkscape (http://www.inkscape.org/) -->
<svg xmlns:dc="http://purl.org/dc/elements/1.1/" xmlns:cc="http://creativecommons.org/ns#" xmlns:rdf="http://www.w3.org/1999/02/22-rdf-syntax-ns#" xmlns:svg="http://www.w3.org/2000/svg" xmlns="http://www.w3.org/2000/svg" xmlns:sodipodi="http://sodipodi.sourceforge.net/DTD/sodipodi-0.dtd" xmlns:inkscape="http://www.inkscape.org/namespaces/inkscape" width="500" height="133.40692" id="svg3613" version="1.1" inkscape:version="0.48.1 " sodipodi:docname="New document 4">
  <defs id="defs3615">
    <clipPath clipPathUnits="userSpaceOnUse" id="clipPath3207">
      <path inkscape:connector-curvature="0" d="m 584.035,499.044 188.819,0 0,21.947 -188.819,0 0,-21.947 z" id="path3209"/>
    </clipPath>
  </defs>
  <sodipodi:namedview id="base" pagecolor="#ffffff" bordercolor="#666666" borderopacity="1.0" inkscape:pageopacity="0.0" inkscape:pageshadow="2" inkscape:zoom="0.98994949" inkscape:cx="327.60969" inkscape:cy="130.65465" inkscape:document-units="px" inkscape:current-layer="layer1" showgrid="false" fit-margin-top="0" fit-margin-left="0" fit-margin-right="0" fit-margin-bottom="0" inkscape:window-width="1920" inkscape:window-height="1028" inkscape:window-x="-8" inkscape:window-y="-8" inkscape:window-maximized="1"/>
  <metadata id="metadata3618">
    <rdf:RDF>
      <cc:Work rdf:about="">
        <dc:format>image/svg+xml</dc:format>
        <dc:type rdf:resource="http://purl.org/dc/dcmitype/StillImage"/>
        <dc:title/>
      </cc:Work>
    </rdf:RDF>
  </metadata>
  <g inkscape:label="Layer 1" inkscape:groupmode="layer" id="layer1" transform="translate(-174.21121,-130.51573)">
    <g id="g3211" transform="matrix(6.1211126,0,0,-6.1211126,174.21121,135.09611)">
      <path inkscape:connector-curvature="0" d="m 0,0 0,-20.335 3.95,0 0,14.316 11.606,-12.632 c 0.361,-0.333 1.141,-1.03 2.038,-1.361 0.661,-0.244 1.257,-0.325 1.778,-0.325 l 6.794,0.002 0,20.335 -3.904,0 0,-14.96 -11.813,13.169 c -0.506,0.506 -0.842,0.756 -1.472,1.092 -0.802,0.43 -1.316,0.697 -2.225,0.697 L 0,0 z" style="fill:#005cab;fill-opacity:1;fill-rule:nonzero;stroke:none" id="path3213"/>
    </g>
    <g id="g3215" transform="matrix(6.1211126,0,0,-6.1211126,407.74507,202.21289)">
      <path inkscape:connector-curvature="0" d="m 0,0 14.144,0 0,2.939 -14.144,0 0,5.088 15.562,0 0,2.938 -24.065,0 -0.002,-14.905 c 0,-1.83 0.387,-2.869 1.698,-4.014 1.455,-1.272 4.095,-1.418 6.807,-1.418 l 15.957,0.002 0,3.117 -13.177,0.001 c -0.796,0 -1.361,0.012 -1.975,0.519 C 0.023,-5.087 0,-4.274 0,-3.26 L 0,0 z" style="fill:#005cab;fill-opacity:1;fill-rule:nonzero;stroke:none" id="path3217"/>
    </g>
    <g id="g3219" transform="matrix(6.1211126,0,0,-6.1211126,674.21121,153.07813)">
      <path inkscape:connector-curvature="0" d="m 0,0 0,3.046 c -3.375,0.734 -7.177,0.677 -10.161,0.591 -8.726,-0.252 -16.05,-1.846 -16.05,-10.732 0,-9.066 6.14,-10.642 16.983,-10.965 3.602,-0.107 6.211,-0.072 9.228,0.466 l 0,3.314 c -2.675,-0.606 -4.261,-0.756 -7.002,-0.663 -2.017,0.069 -3.036,-0.021 -5.134,0.663 -2.801,0.914 -4.991,2.275 -4.991,7.543 0,3.763 1.687,5.805 3.95,6.737 1.43,0.588 3.744,0.82 6.175,0.86 C -4.251,0.904 -2.658,0.709 0,0" style="fill:#005cab;fill-opacity:1;fill-rule:nonzero;stroke:none" id="path3221"/>
    </g>
  </g>
</svg>